<?xml version="1.0" encoding="utf-8"?>
<!-- Generator: Adobe Illustrator 22.1.0, SVG Export Plug-In . SVG Version: 6.00 Build 0)  -->
<svg version="1.1" baseProfile="tiny" id="Capa_1" xmlns="http://www.w3.org/2000/svg" xmlns:xlink="http://www.w3.org/1999/xlink"
	 x="0px" y="0px" viewBox="0 0 512 512" xml:space="preserve">
<g>
	<g>
		<path fill="#99DFEF" d="M230.6,383.6H37.9v-47.2l64.9-65.6c18.6-19.3,30.7-32.6,36.3-39.7c5.7-7.1,9.7-13.2,11.9-18.3
			c2.2-5.1,3.4-10.4,3.4-15.9c0-6.8-2.2-12.4-6.7-16.4c-4.5-4-10.7-6-18.9-6c-8.3,0-16.8,2.4-25.3,7.1c-8.5,4.8-18.2,11.9-29,21.1
			l-39.4-46.1c13.7-12.2,25.1-21,34.5-26.2c9.4-5.2,19.5-9.2,30.4-12.1c11-2.8,23.2-4.2,36.9-4.2c17.3,0,32.6,3,46,9.1
			c13.5,6.1,24,14.7,31.4,25.9c7.4,11.2,11.2,23.8,11.2,37.6c0,10.4-1.3,20.1-3.9,28.9c-2.7,8.8-6.7,17.6-12.1,26
			c-5.4,8.5-12.6,17.6-21.7,26.9s-28.3,27.4-57.7,53.7v1.8h100.6V383.6z"/>
	</g>
	<g>
		<path fill="#036995" d="M296.9,174.5h3.6l-17.9,47.8h-3l-17.9-47.8h3.6l12.1,32.6c1.8,4.9,3.1,8.6,3.7,11c0.4-1.6,1.3-4.2,2.5-7.6
			L296.9,174.5z"/>
		<path fill="#036995" d="M320.7,222.9c-5.2,0-9.2-1.6-12.1-4.8c-2.8-3.1-4.3-7.6-4.3-13.4c0-5.7,1.3-10.3,4.2-13.7
			s6.5-5.1,11.3-5.1c4.2,0,7.4,1.5,10,4.3c2.4,3,3.6,6.8,3.6,11.9v2.7h-25.6c0,4.9,1.2,8.6,3.4,11.2c2.2,2.5,5.5,3.9,9.5,3.9
			c2.1,0,3.9-0.1,5.4-0.4c1.5-0.3,3.4-0.9,5.8-1.8v3c-1.9,0.9-3.9,1.5-5.5,1.8C324.8,222.7,322.8,222.9,320.7,222.9z M319.8,189
			c-3.4,0-6.1,1.2-8.2,3.4c-2.1,2.2-3.3,5.5-3.6,9.8h22c0-4.2-0.9-7.3-2.7-9.7C325.5,190.2,323,189,319.8,189z"/>
		<path fill="#036995" d="M357.2,186.1c1.5,0,3.1,0.1,4.9,0.4l-0.6,3.1c-1.5-0.3-3-0.6-4.6-0.6c-3,0-5.5,1.3-7.4,3.9
			c-1.9,2.5-3,5.8-3,9.7v19.6h-3.3v-35.6h2.7l0.3,6.4h0.3c1.5-2.7,3-4.5,4.6-5.5C352.9,186.6,354.8,186.1,357.2,186.1z"/>
		<path fill="#036995" d="M368.8,176.9c0-2.1,0.7-3.1,2.1-3.1c0.7,0,1.2,0.3,1.6,0.7c0.4,0.6,0.6,1.3,0.6,2.4c0,1-0.1,1.8-0.6,2.4
			c-0.4,0.6-0.9,0.9-1.6,0.9C369.5,180,368.8,179,368.8,176.9z M372.5,222.3h-3.3v-35.6h3.3V222.3z"/>
		<path fill="#036995" d="M397.7,189.6h-8.3v32.7h-3.3v-32.7h-6.5v-1.9l6.5-1.2v-2.7c0-4.3,0.7-7.6,2.4-9.5c1.6-2.1,4.2-3.1,7.9-3.1
			c1.9,0,3.9,0.3,6,0.9l-0.7,2.8c-1.8-0.6-3.4-0.7-5.2-0.7c-2.5,0-4.3,0.7-5.4,2.2c-1,1.5-1.6,3.9-1.6,7.3v3.3h8.3L397.7,189.6
			L397.7,189.6z M404.1,176.9c0-2.1,0.7-3.1,2.1-3.1c0.7,0,1.2,0.3,1.6,0.7c0.4,0.6,0.6,1.3,0.6,2.4c0,1-0.1,1.8-0.6,2.4
			c-0.4,0.6-0.9,0.9-1.6,0.9C404.7,180,404.1,179,404.1,176.9z M407.6,222.3h-3.3v-35.6h3.3V222.3z"/>
		<path fill="#036995" d="M433.8,222.9c-5.1,0-9.1-1.6-11.9-4.8c-2.8-3.1-4.3-7.7-4.3-13.4c0-6,1.5-10.4,4.5-13.7s7.1-4.9,12.2-4.9
			c3.1,0,6,0.6,8.8,1.6l-0.9,2.8c-3.1-1-5.8-1.5-8-1.5c-4.3,0-7.6,1.3-10,4c-2.2,2.7-3.4,6.5-3.4,11.6c0,4.8,1.2,8.5,3.4,11.3
			c2.2,2.7,5.4,4,9.4,4c3.3,0,6.2-0.6,8.9-1.8v3C440.5,222.4,437.5,222.9,433.8,222.9z"/>
		<path fill="#036995" d="M473,222.3l-0.9-5.7h-0.3c-1.8,2.2-3.6,3.9-5.5,4.9c-1.9,0.9-4.2,1.5-6.7,1.5c-3.4,0-6.2-0.9-8.2-2.7
			s-3-4.3-3-7.4c0-3.4,1.5-6.1,4.3-8c2.8-1.9,7.1-3,12.5-3l6.7-0.1v-2.4c0-3.4-0.7-6-2.1-7.6c-1.3-1.8-3.6-2.5-6.7-2.5
			c-3.3,0-6.7,0.9-10.3,2.7l-1.2-2.8c3.9-1.8,7.7-2.7,11.6-2.7c3.9,0,6.8,1,8.8,3c1.9,2.1,2.8,5.2,2.8,9.5v23.7H473V222.3z
			 M459.9,220.1c3.7,0,6.8-1,8.9-3.3c2.2-2.2,3.3-5.2,3.3-9.1v-3.6l-6.2,0.3c-5.1,0.3-8.5,1-10.7,2.4c-2.1,1.3-3.1,3.4-3.1,6.1
			c0,2.2,0.7,4,2.1,5.2C455.4,219.3,457.5,220.1,459.9,220.1z"/>
	</g>
	<circle fill="#00AFD7" cx="166.1" cy="240.7" r="18.6"/>
	<circle fill="#00AFD7" cx="166.1" cy="309.9" r="18.6"/>
	<circle fill="#00AFD7" cx="166.1" cy="379.1" r="18.6"/>
	<g>
		<path fill="#848F95" d="M359,384h-92.1c-3.7,0-6.5-2.9-6.5-6.5v-92.1c0-3.7,2.9-6.5,6.5-6.5H359c3.7,0,6.5,2.9,6.5,6.5v10.7
			c0,0.8-0.7,1.5-1.5,1.5c-0.8,0-1.5-0.7-1.5-1.5v-10.7c0-2-1.6-3.6-3.6-3.6h-92.1c-2,0-3.6,1.6-3.6,3.6v92.1c0,2,1.6,3.6,3.6,3.6
			H359c2,0,3.6-1.6,3.6-3.6v-50.9c0-0.8,0.7-1.5,1.5-1.5c0.8,0,1.5,0.7,1.5,1.5v50.9C365.6,381.2,362.7,384,359,384z"/>
		<circle fill="#848F95" cx="364.1" cy="321.5" r="1.5"/>
		<path fill="#848F95" d="M315.9,363.7l-16.3-18.6c-0.5-0.6-0.5-1.6,0.1-2.1c0.6-0.5,1.6-0.5,2.1,0.1l14,16l61.1-72
			c0.5-0.6,1.5-0.7,2.1-0.2c0.6,0.5,0.7,1.5,0.2,2.1L315.9,363.7z"/>
		<path fill="#848F95" d="M310.5,376.9h-40.3c-1.9,0-3.7-1.6-3.7-3.7v-83.5c0-1.9,1.6-3.7,3.7-3.7h40.3c1.9,0,3.7,1.6,3.7,3.7v55.4
			c0,0.7-0.9,1-1.3,0.4l-10.1-12.6c-0.3-0.3-0.7-0.3-1-0.1l-10.9,9.5c-0.3,0.3-0.3,0.7-0.1,1l23.2,27.8c0.1,0.1,0.1,0.3,0.1,0.4v1.8
			C314.1,375.3,312.5,376.9,310.5,376.9z"/>
	</g>
</g>
</svg>
