<?xml version="1.0" encoding="utf-8"?>
<!-- Generator: Adobe Illustrator 22.1.0, SVG Export Plug-In . SVG Version: 6.00 Build 0)  -->
<svg version="1.1" baseProfile="tiny" id="Capa_1" xmlns="http://www.w3.org/2000/svg" xmlns:xlink="http://www.w3.org/1999/xlink"
	 x="0px" y="0px" viewBox="0 0 512 512" xml:space="preserve">
<ellipse transform="matrix(0.9732 -0.2298 0.2298 0.9732 -39.9673 41.421)" fill="#99DFEF" cx="157.9" cy="192.3" rx="14.2" ry="14.2"/>
<path fill="#0090CC" d="M157.9,165.9c-14.5,0-26.3,11.8-26.3,26.3c0,14.5,11.8,26.3,26.3,26.3c14.5,0,26.3-11.8,26.3-26.3
	S172.4,165.9,157.9,165.9z M157.9,206.5c-7.9,0-14.2-6.3-14.2-14.2s6.3-14.2,14.2-14.2c7.7,0,14.2,6.3,14.2,14.2
	C172.1,200.2,165.8,206.5,157.9,206.5z"/>
<g>
	<path fill="#99DFEF" d="M158.4,234.8c-0.1,0-0.4,0-0.5,0c-3.6,0-7,1.3-9.7,3.8c-2.7,2.6-4.4,6.1-4.5,9.9c-0.1,3.8,1.2,7.4,3.8,10.1
		c5.4,5.7,14.3,6.1,20,0.7s6.1-14.3,0.7-20C165.6,236.6,162.2,234.9,158.4,234.8z"/>
	<path fill="#0090CC" d="M177.1,231c-4.9-5.1-11.3-8.1-18.4-8.3c-7-0.2-13.7,2.3-18.8,7c-5.1,4.9-8.1,11.3-8.3,18.4
		c-0.2,7,2.3,13.7,7,18.8c5.2,5.5,12.3,8.3,19.3,8.3c6.4,0,12.9-2.3,17.9-7C186.4,258.3,187,241.6,177.1,231z M167.5,259.3
		c-5.7,5.4-14.7,5-20-0.7c-2.6-2.7-3.9-6.3-3.8-10.1c0.1-3.8,1.8-7.3,4.5-9.9c2.6-2.5,6.1-3.8,9.7-3.8c0.1,0,0.4,0,0.5,0
		c3.8,0.1,7.3,1.8,9.9,4.5C173.6,245,173.3,254,167.5,259.3z"/>
</g>
<line fill="none" stroke="#0090CC" stroke-width="12.1408" stroke-linecap="round" stroke-miterlimit="10" x1="200.3" y1="198.3" x2="277.2" y2="198.3"/>
<path fill="#0090CC" d="M277.2,253h-76.9c-3.3,0-6.1-2.7-6.1-6.1c0-3.3,2.7-6.1,6.1-6.1h76.9c3.3,0,6.1,2.7,6.1,6.1
	C283.3,250.3,280.7,253,277.2,253z"/>
<g>
	<path fill="#99DFEF" d="M157.9,291.4c-3.5,0-6.9,1.2-9.7,3.8c-2.7,2.6-4.4,6.1-4.5,9.9c-0.1,3.8,1.2,7.4,3.8,10.1
		c2.6,2.7,6.1,4.4,9.9,4.5c3.8,0.1,7.4-1.2,10.1-3.8c2.7-2.6,4.4-6.1,4.5-9.9c0.1-3.8-1.2-7.4-3.8-10.1
		C165.5,293,161.7,291.4,157.9,291.4z"/>
	<path fill="#0090CC" d="M177.1,287.7c-9.9-10.6-26.6-11.2-37.2-1.3c-5.1,4.9-8.1,11.3-8.3,18.4c-0.2,7,2.3,13.7,7,18.8
		c4.9,5.1,11.3,8.1,18.4,8.3c0.4,0,0.6,0,1,0c6.7,0,13-2.5,17.9-7c5.1-4.9,8.1-11.3,8.3-18.4C184.4,299.5,181.9,292.8,177.1,287.7z
		 M167.5,316c-2.7,2.6-6.3,3.9-10.1,3.8c-3.8-0.1-7.3-1.8-9.9-4.5c-2.6-2.7-3.9-6.3-3.8-10.1c0.1-3.8,1.8-7.3,4.5-9.9
		c2.7-2.6,6.2-3.8,9.7-3.8c3.8,0,7.6,1.5,10.4,4.5c2.6,2.7,3.9,6.3,3.8,10.1C172,309.9,170.3,313.3,167.5,316z"/>
</g>
<path fill="#0090CC" d="M277.2,309.6h-76.9c-3.3,0-6.1-2.7-6.1-6.1s2.7-6.1,6.1-6.1h76.9c3.3,0,6.1,2.7,6.1,6.1
	S280.7,309.6,277.2,309.6z"/>
<path fill="none" d="M151.8,93.2v16.1h128.4l61.8,61.2v67.2c0,3.3-2.7,6.1-6.1,6.1c-3.3,0-6.1-2.7-6.1-6.1v-62.2l-54.6-54.1H133.6
	c-7.9,0-14.2,6.3-14.2,14.2v242.8c0,7.9,6.3,14.2,14.2,14.2h160.9c-1.9-5.7-3-11.8-3-18.1c0-24.9,16.1-46,38.4-53.6v-31.5
	c0-3.3,2.7-6.1,6.1-6.1c3.3,0,6.1,2.7,6.1,6.1v28.8c2-0.2,4-0.3,6.1-0.3c4.9,0,9.6,0.6,14.1,1.8V93.2H151.8z"/>
<path fill="#99DFEF" d="M342,170.4v67.2c0,3.3-2.7,6.1-6.1,6.1l0.1,39.5c0,0,0,0,0,0c3.3,0,6.1,2.7,6.1,6.1v28.8
	c2-0.2,4-0.3,6.1-0.3c4.9,0,9.6,0.6,14.1,1.8V93.2H151.8v16.1h128.4L342,170.4z"/>
<path fill="#0090CC" d="M374.4,324.2V93c0-6.7-5.4-12-12-12H151.7c-6.7,0-12,5.4-12,12v16.2h-6.1c-14.5,0-26.3,11.8-26.3,26.3v242.8
	c0,14.5,11.8,26.3,26.3,26.3h166.8c10.1,15.8,27.7,26.2,47.7,26.2c31.2,0,56.6-25.4,56.6-56.6C404.8,352.6,392.4,333.7,374.4,324.2z
	 M294.5,392.5H133.6c-7.9,0-14.2-6.3-14.2-14.2V135.5c0-7.9,6.3-14.2,14.2-14.2h136c-0.2,0.9-0.4,1.8-0.4,2.7v47.6
	c0,5.8,4.8,10.6,10.6,10.6h47.6c0.8,0,1.6-0.1,2.4-0.3v55.7c0,3.3,2.7,6.1,6.1,6.1c0,0,0,0,0,0c3.3,0,6.1-2.7,6.1-6.1v-67.2
	l-61.8-61.2H151.8V93.2h210.4v226.4c-4.5-1.2-9.2-1.8-14.1-1.8c-2.1,0-4.1,0.1-6.1,0.3v-28.8c0-3.3-2.7-6.1-6.1-6.1c0,0,0,0,0,0
	c-3.3,0-6.1,2.7-6.1,6.1v31.5c-22.3,7.6-38.4,28.7-38.4,53.6C291.5,380.7,292.6,386.8,294.5,392.5z M281.4,170.1v-42.6l43,42.6
	H281.4z M348.1,418.8c-12.7,0-24.2-5.4-32.4-14.1c-3.4-3.6-6.2-7.7-8.2-12.3c-2.5-5.5-3.9-11.7-3.9-18.1c0-18,10.8-33.5,26.2-40.5
	c2-0.9,4-1.6,6.1-2.2c2-0.6,4-1,6.1-1.3c2-0.3,4-0.4,6.1-0.4c4.9,0,9.6,0.8,14.1,2.3c4.4,1.5,8.5,3.6,12.2,6.3
	c11,8.1,18.2,21.2,18.2,35.8C392.6,398.8,372.6,418.8,348.1,418.8z"/>
<path fill="#B8D05E" d="M348.1,329.9c-2.1,0-4.1,0.2-6.1,0.4c-4.3,0.6-8.4,1.8-12.2,3.5c-15.5,7-26.2,22.6-26.2,40.5
	c0,6.4,1.4,12.6,3.9,18.1c2,4.5,4.8,8.7,8.2,12.3c8.1,8.6,19.6,14.1,32.4,14.1c24.4,0,44.5-20,44.5-44.5
	C392.6,349.9,372.6,329.9,348.1,329.9z M376.1,357.5l-31.8,42.9l-18.8-19.8c-2.3-2.4-2.2-6.3,0.2-8.6c2.4-2.3,6.3-2.2,8.6,0.2
	l8.9,9.3l23.2-31.3c2-2.7,5.8-3.3,8.5-1.3C377.6,351,378.1,354.8,376.1,357.5z"/>
<g>
	<path fill="#0090CC" d="M334.9,263c7.9,0,7.9-12.2,0-12.2C327.2,251,327.2,263,334.9,263L334.9,263z"/>
</g>
</svg>
