<?xml version="1.0" encoding="utf-8"?>
<!-- Generator: Adobe Illustrator 22.1.0, SVG Export Plug-In . SVG Version: 6.00 Build 0)  -->
<svg version="1.1" baseProfile="tiny" id="Capa_1" xmlns="http://www.w3.org/2000/svg" xmlns:xlink="http://www.w3.org/1999/xlink"
	 x="0px" y="0px" viewBox="0 0 512 512" xml:space="preserve">
<g>
	<path fill="#0090CC" d="M373.9,313.9H133.3c-4.2,0-7.6-3.4-7.6-7.6V139.8c0-4.2,3.4-7.6,7.6-7.6h240.6c4.2,0,7.6,3.4,7.6,7.6V306
		c0.1,1.9-0.6,3.9-1.9,5.3C378.1,313,376.1,313.9,373.9,313.9z M369.5,306.9C369.5,306.9,369.5,306.9,369.5,306.9
		C369.5,306.9,369.5,306.9,369.5,306.9z M137.7,301.9h231.8V144.2H137.7V301.9z"/>
</g>
<path fill="#0090CC" d="M395.1,107.7H114.9c-6.1,0-11,4.9-11,11v208.7c0,6.1,4.9,11,11,11h96.7l-10.5,30.4h-73.2
	c-4.6,0-8.3,3.7-8.3,8.3v17.7c0,4.6,3.7,8.3,8.3,8.3h258.7c4.4,0,8-3.4,8.4-7.8c0-0.2,0-0.3,0-0.5v-17.7c0-4.6-3.7-8.3-8.3-8.3H309
	l-10.6-30.4h96.7c6.1,0,11-4.9,11-11V118.7C406.1,112.6,401.2,107.7,395.1,107.7z M383,380.8v10.3H131.6v-10.3H383z M213.8,368.8
	l9.8-30.2h62.9l9.8,30.2H213.8z M394.1,326.4H115.9V119.7h278.2V326.4z"/>
<path fill="#0090CC" d="M340.5,179.7c-10.2,0-18.5,8.3-18.5,18.5c0,2.6,0.5,5,1.5,7.2L287.9,241c-2.4-1.2-5.2-1.9-8.1-1.9
	c-2.8,0-5.5,0.6-7.9,1.8l-23.6-23.6c0.8-2.1,1.3-4.4,1.3-6.7c0-10.2-8.3-18.5-18.5-18.5s-18.5,8.3-18.5,18.5c0,2.8,0.6,5.4,1.7,7.7
	L191.6,241c-2.4-1.2-5.1-1.8-8-1.8c-10.2,0-18.5,8.3-18.5,18.5s8.3,18.5,18.5,18.5s18.5-8.3,18.5-18.5c0-2.9-0.7-5.6-1.8-8
	l22.5-22.5c2.5,1.2,5.3,1.9,8.2,1.9c3.3,0,6.4-0.9,9.1-2.4l22.9,22.9c-1.2,2.4-1.8,5.2-1.8,8c0,10.2,8.3,18.5,18.5,18.5
	s18.5-8.3,18.5-18.5c0-2.8-0.6-5.5-1.8-7.9l35.2-35.2c2.6,1.4,5.6,2.2,8.7,2.2c10.2,0,18.5-8.3,18.5-18.5
	C359.1,188,350.8,179.7,340.5,179.7L340.5,179.7z M183.7,263.9c-3.4,0-6.2-2.8-6.2-6.2c0-3.4,2.8-6.2,6.2-6.2c1.7,0,3.2,0.7,4.3,1.7
	c0,0,0,0.1,0.1,0.1l0.1,0.1c1.1,1.1,1.7,2.6,1.7,4.3C189.9,261.1,187.1,263.9,183.7,263.9L183.7,263.9z M231.1,216.7
	c-3.4,0-6.2-2.8-6.2-6.2s2.8-6.2,6.2-6.2s6.2,2.8,6.2,6.2C237.3,214,234.5,216.7,231.1,216.7L231.1,216.7z M279.9,263.8
	c-3.4,0-6.2-2.8-6.2-6.2c0-3.4,2.8-6.2,6.2-6.2c3.4,0,6.2,2.8,6.2,6.2C286,261.1,283.3,263.8,279.9,263.8L279.9,263.8z M340.5,204.4
	c-3.4,0-6.2-2.8-6.2-6.2s2.8-6.2,6.2-6.2s6.2,2.8,6.2,6.2C346.7,201.6,343.9,204.4,340.5,204.4L340.5,204.4z"/>
<path fill="#0090CC" d="M152.4,202.3c-3.3,0-6-2.7-6-6v-35.8c0-3.3,2.7-6,6-6h40.1c3.3,0,6,2.7,6,6s-2.7,6-6,6h-34.1v29.8
	C158.4,199.6,155.7,202.3,152.4,202.3z"/>
<circle fill="#0090CC" cx="211.5" cy="161.7" r="5.6"/>
<path fill="#FFE017" d="M183.7,251.5c-3.4,0-6.1,2.8-6.1,6.1c0,3.4,2.8,6.1,6.1,6.1c3.4,0,6.2-2.8,6.2-6.1
	C189.9,254.3,187.1,251.5,183.7,251.5z"/>
<path fill="#00AED6" d="M231.1,204.4c-3.4,0-6.1,2.8-6.1,6.1s2.8,6.1,6.1,6.1c3.4,0,6.2-2.8,6.2-6.1S234.5,204.4,231.1,204.4z"/>
<path fill="#FF7373" d="M279.9,251.4c-3.4,0-6.1,2.8-6.1,6.1c0,3.4,2.8,6.1,6.1,6.1c3.4,0,6.2-2.8,6.2-6.1
	C286,254.2,283.3,251.4,279.9,251.4z"/>
<path fill="#B8D05E" d="M340.5,192c-3.4,0-6.1,2.8-6.1,6.1s2.8,6.1,6.1,6.1c3.4,0,6.2-2.8,6.2-6.1S343.9,192,340.5,192z"/>
</svg>
