<?xml version="1.0" encoding="utf-8"?>
<!-- Generator: Adobe Illustrator 22.1.0, SVG Export Plug-In . SVG Version: 6.00 Build 0)  -->
<svg version="1.1" baseProfile="tiny" id="Capa_1" xmlns="http://www.w3.org/2000/svg" xmlns:xlink="http://www.w3.org/1999/xlink"
	 x="0px" y="0px" viewBox="0 0 300 300" xml:space="preserve">
<path fill="#4BB9B4" d="M150,300c-2.8,0-5.6-0.7-8.1-2.2l-114-66.9C23,228,20,222.7,20,217.1V82.9c0-5.7,3-11,7.9-13.8l114-66.9
	c5-2.9,11.2-2.9,16.2,0l114,66.9c4.9,2.9,7.9,8.2,7.9,13.8v134.2c0,5.7-3,11-7.9,13.8l-114,66.9C155.6,299.3,152.8,300,150,300z
	 M150,4.3c-2,0-4.1,0.5-5.9,1.6l-114,66.9c-3.6,2.1-5.8,6-5.8,10.1v134.2c0,4.1,2.2,8,5.8,10.1l114,66.9c3.6,2.1,8.2,2.1,11.8,0
	l114-66.9c3.6-2.1,5.8-6,5.8-10.1V82.9c0-4.1-2.2-8-5.8-10.1l-114-66.9C154.1,4.9,152,4.3,150,4.3z"/>
<g>
	<path fill="#FFE117" d="M145.3,115.4l1.2,1.2l-1.6,0.5c-5,1.6-9,5.6-10.7,10.6c-1.6,5-0.8,10.6,2.3,14.9l0.5,0.7l-0.6,0.6
		c-3.5,3.3-9.5,11-10.4,25.3l-0.1,1.5l-1.3-0.6l-0.3-0.1c-0.4-0.2-0.7-0.3-1.1-0.4c-4.3-1.7-8.2-4.1-11.7-7l-0.3-0.3l-0.1-0.4
		c-1.9-14.3,5-30.7,5.1-30.9c0.3-0.8,0-1.6-0.8-2c-0.2-0.1-0.4-0.1-0.6-0.1c-0.6,0-1.1,0.4-1.4,0.9c-3.7,8.9-5.6,18.3-5.6,28l0,1.6
		l-1.4-0.7c-1.4-0.7-3-1-4.5-1c-1.4,0-2.8,0.3-4.1,0.8l-1.4,0.6l0-1.5c-0.9-31.4,17.6-44.6,23.2-47.9l0.5-0.3l0.5,0.3
		c2.5,1.3,5.4,2,8.2,2c2.9,0,5.7-0.7,8.3-2.1l0.5-0.3l0.5,0.3C140.6,111.4,143,113.3,145.3,115.4z"/>
	<path fill="#FF7373" d="M159.1,198.8l-0.3,0.5h-0.6h-16.5h-0.6l-0.3-0.5c-0.7-1.2-2-2-3.5-2l-1,0v-1v-4.7c0-0.7,0-1.5-0.1-2.3
		l0-0.2l0.1-0.2c0-0.1,0-0.2,0.1-0.2c0-1,0.3-15.8,7.2-24.2c0.3-0.4,0.4-1,0.2-1.5c-0.2-0.5-0.6-0.9-1.2-1c-0.1,0-0.2,0-0.2,0
		c-0.5,0-0.9,0.2-1.2,0.5c-3.3,4.4-5.6,9.7-6.6,15.2l-0.5,2.7l-1.4-2.4c-0.5-0.9-1.1-1.7-1.7-2.5c-0.6-0.7-1.2-1.4-1.9-2.1l-0.3-0.3
		l0-0.4c0.1-6.5,1.4-18.5,9.6-26.4l0.6-0.6l0.7,0.5c2.9,2.3,6.5,3.5,10.2,3.5s7.3-1.2,10.2-3.5l0.7-0.5l0.6,0.6
		c8.2,7.9,9.6,19.9,9.6,26.4l0,0.4l-0.3,0.3c-0.7,0.6-1.3,1.4-1.9,2.1c-0.6,0.8-1.2,1.6-1.7,2.4l-1.4,2.4l-0.5-2.7
		c-1-5.5-3.3-10.8-6.7-15.3c-0.3-0.3-0.7-0.5-1.1-0.5c-0.4,0-0.7,0.1-1,0.3c-0.6,0.5-0.7,1.5-0.2,2.1c6.9,8.4,7.2,23.1,7.2,24.2
		c0,0.1,0,0.2,0.1,0.2l0.1,0.2l0,0.2c-0.1,0.8-0.1,1.6-0.1,2.3v4.7v1l-1,0C161.2,196.8,159.8,197.6,159.1,198.8z"/>
	<path fill="#00AFD7" d="M154.8,115.5c2.2-2.2,4.7-4.1,7.4-5.7l0.5-0.3l0.5,0.3c2.5,1.3,5.4,2,8.2,2h0c2.9,0,5.8-0.7,8.3-2.1
		l0.5-0.3l0.5,0.3c5.7,3.3,24.2,16.4,23.3,47.9l0,1.5l-1.4-0.6c-1.3-0.6-2.8-0.9-4.2-0.9c-1.6,0-3.2,0.4-4.6,1l-1.4,0.7l0-1.6
		c-0.1-9.7-2-19.1-5.7-28c-0.2-0.5-0.7-0.8-1.2-0.9c-0.1,0-0.1,0-0.2,0c-0.5,0-0.9,0.2-1.2,0.6c-0.3,0.4-0.4,1-0.2,1.5
		c0.1,0.2,7,16.6,5.1,30.9l-0.1,0.4l-0.3,0.3c-3.5,2.9-7.4,5.3-11.7,7c-0.4,0.1-0.7,0.3-1.1,0.5l-0.3,0.1l-1.3,0.6l-0.1-1.5
		c-1-14.3-6.9-22-10.4-25.3l-0.6-0.6l0.5-0.7c3.1-4.3,4-9.8,2.3-14.8c-1.6-5-5.6-9-10.6-10.6l-1.6-0.5L154.8,115.5z"/>
	<path fill="#0091CD" d="M128.6,76c-7.3,0-13.8,4.4-16.5,11.2c-2.7,6.8-1.1,14.5,4.2,19.5l0.9,0.9l-1,0.7
		c-6.4,4.3-21.4,17.2-22.8,43.1l-0.2,4.3l-1.7-4l-2.4-5.5c-1-2.3-3.2-3.9-5.7-4.2c-0.3,0-0.5,0-0.8,0c-2.2,0-4.4,1.1-5.7,2.9
		c-1.5,2-1.7,4.7-0.7,7l9.9,21.7c1.3,2.8,3.1,5.4,5.3,7.6l15.5,15.5l0.7,0.7l-0.7,0.7c-0.7,0.7-1.1,1.7-1.1,2.7V221c0,2.2,1.8,4,4,4
		h27.7c2.2,0,4-1.8,4-4v-17.6v-1h1h15.1h1v1V221c0,2.2,1.8,4,4,4h27.7c2.2,0,4-1.8,4-4v-20.1c0-1-0.4-2-1.1-2.7l-0.7-0.7l0.7-0.7
		l15.5-15.5c2.2-2.2,4-4.8,5.3-7.6l9.9-21.7c1-2.3,0.8-5-0.7-7c-1.3-1.8-3.4-2.9-5.7-2.9c-0.3,0-0.5,0-0.8,0
		c-2.5,0.3-4.7,1.9-5.7,4.2l-2.2,5.2l-1.7,3.9l-0.3-4.3c-1.6-25.7-16.6-38.5-22.9-42.8l-1-0.7l0.9-0.9c5.3-5.1,6.9-12.8,4.1-19.5
		c-2.7-6.8-9.2-11.1-16.5-11.1c-7.3,0-13.8,4.4-16.6,11.2c-2.7,6.8-1.1,14.5,4.2,19.5l0.9,0.9l-1,0.7c-2.9,2-5.6,4.3-8.1,6.9
		l-0.7,0.8l-0.7-0.8c-2.4-2.6-5.2-4.9-8.1-6.9l-1-0.7l0.9-0.9c5.2-5.1,6.9-12.8,4.1-19.6C142.4,80.4,135.9,76,128.6,76l0.1-1h0
		L128.6,76z M93.4,179.1c-1.9-1.9-3.5-4.2-4.6-6.7l-9.9-21.7c-0.6-1.2-0.5-2.7,0.3-3.8c0.7-1.1,2-1.8,3.3-1.8c1.6,0,3.1,1,3.7,2.4
		l5.6,13.1c1.5,3.4,3.5,6.4,6.1,9.1l11.5,11.5c0.3,0.3,0.7,0.4,1.1,0.4c0.1,0,0.3,0,0.4-0.1c0.5-0.1,0.9-0.5,1.1-1.1
		c0.1-0.5,0-1.1-0.4-1.4l-11.5-11.5c-1.2-1.2-2.3-2.5-3.2-3.9l-0.5-0.8l0.8-0.6c1.3-1,3-1.6,4.6-1.6c1.8,0,3.5,0.6,4.8,1.7
		c0.7,0.6,1.4,1.2,2.1,1.7l0,0l0,0c0.1,0.1,0.1,0.1,0.2,0.2l0.1,0l0,0c4,3.4,8.4,6.1,13.3,8c2.6,0.9,4.8,2.6,6.5,4.8
		c3.1,4,4.7,8.9,4.6,14v4.7v1h-1h-20.8h-0.4l-0.3-0.3L93.4,179.1z M137.4,222h-27.7h-1v-1v-20.1v-1h1h27.7h1l0,1l0,20.1l0,1H137.4z
		 M159.1,198.8l-0.3,0.5h-0.6h-16.5h-0.6l-0.3-0.5c-0.7-1.2-2-2-3.5-2l-1,0v-1v-4.7c0-0.7,0-1.5-0.1-2.3l0-0.2l0.1-0.2
		c0-0.1,0-0.2,0.1-0.2c0-1,0.3-15.8,7.2-24.2c0.3-0.4,0.4-1,0.2-1.5c-0.2-0.5-0.6-0.9-1.2-1c-0.1,0-0.2,0-0.2,0
		c-0.5,0-0.9,0.2-1.2,0.5c-3.3,4.4-5.6,9.7-6.6,15.2l-0.5,2.7l-1.4-2.4c-0.5-0.9-1.1-1.7-1.7-2.5c-0.6-0.7-1.2-1.4-1.9-2.1l-0.3-0.3
		l0-0.4c0.1-6.5,1.4-18.5,9.6-26.4l0.6-0.6l0.7,0.5c2.9,2.3,6.5,3.5,10.2,3.5s7.3-1.2,10.2-3.5l0.7-0.5l0.6,0.6
		c8.2,7.9,9.6,19.9,9.6,26.4l0,0.4l-0.3,0.3c-0.7,0.6-1.3,1.4-1.9,2.1c-0.6,0.8-1.2,1.6-1.7,2.4l-1.4,2.4l-0.5-2.7
		c-1-5.5-3.3-10.8-6.7-15.3c-0.3-0.3-0.7-0.5-1.1-0.5c-0.4,0-0.7,0.1-1,0.3c-0.6,0.5-0.7,1.5-0.2,2.1c6.9,8.4,7.2,23.1,7.2,24.2
		c0,0.1,0,0.2,0.1,0.2l0.1,0.2l0,0.2c-0.1,0.8-0.1,1.6-0.1,2.3v4.7v1l-1,0C161.2,196.8,159.8,197.6,159.1,198.8z M191.3,200.9V221v1
		h-1h-27.7h-1v-1v-20.1v-1h1h27.7h1V200.9z M208.2,160.6l5.6-13.1c0.6-1.5,2.1-2.4,3.7-2.4c1.4,0,2.6,0.7,3.4,1.8
		c0.7,1.2,0.8,2.6,0.3,3.8l-9.9,21.7c-1.1,2.5-2.7,4.8-4.6,6.7l-17.5,17.5l-0.3,0.3h-0.4h-20.8h-1v-1v-4.7c-0.1-5,1.6-10,4.6-14
		c1.7-2.2,3.9-3.9,6.5-4.8c4.8-1.9,9.3-4.6,13.3-8l0,0l0.1,0c0.1,0,0.1-0.1,0.2-0.2l0,0l0,0c0.7-0.6,1.4-1.1,2.1-1.7
		c1.4-1.1,3.1-1.7,4.8-1.7c1.7,0,3.3,0.5,4.6,1.6l0.8,0.6l-0.5,0.8c-0.9,1.4-2,2.7-3.2,4L188.4,179c-0.4,0.4-0.5,0.9-0.4,1.4
		c0.1,0.5,0.5,0.9,1.1,1.1c0.1,0,0.3,0.1,0.4,0.1c0.4,0,0.8-0.2,1.1-0.4l11.5-11.5C204.6,167,206.7,164,208.2,160.6z M156.5,93.9
		c0-8.2,6.7-14.9,14.9-14.9c8.2,0,14.9,6.7,14.9,14.9c0,8.2-6.7,14.9-14.9,14.9h0C163.2,108.8,156.5,102.1,156.5,93.9z M154.8,115.5
		c2.2-2.2,4.7-4.1,7.4-5.7l0.5-0.3l0.5,0.3c2.5,1.3,5.4,2,8.2,2h0c2.9,0,5.8-0.7,8.3-2.1l0.5-0.3l0.5,0.3
		c5.7,3.3,24.2,16.4,23.3,47.9l0,1.5l-1.4-0.6c-1.3-0.6-2.8-0.9-4.2-0.9c-1.6,0-3.2,0.4-4.6,1l-1.4,0.7l0-1.6
		c-0.1-9.7-2-19.1-5.7-28c-0.2-0.5-0.7-0.8-1.2-0.9c-0.1,0-0.1,0-0.2,0c-0.5,0-0.9,0.2-1.2,0.6c-0.3,0.4-0.4,1-0.2,1.5
		c0.1,0.2,7,16.6,5.1,30.9l-0.1,0.4l-0.3,0.3c-3.5,2.9-7.4,5.3-11.7,7c-0.4,0.1-0.7,0.3-1.1,0.5l-0.3,0.1l-1.3,0.6l-0.1-1.5
		c-1-14.3-6.9-22-10.4-25.3l-0.6-0.6l0.5-0.7c3.1-4.3,4-9.8,2.3-14.8c-1.6-5-5.6-9-10.6-10.6l-1.6-0.5L154.8,115.5z M150,119.3
		c7.5,0,13.6,6.1,13.6,13.6c0,7.5-6.1,13.6-13.6,13.6c-7.5,0-13.6-6.1-13.6-13.6C136.4,125.4,142.5,119.3,150,119.3z M145.3,115.4
		l1.2,1.2l-1.6,0.5c-5,1.6-9,5.6-10.7,10.6c-1.6,5-0.8,10.6,2.3,14.9l0.5,0.7l-0.6,0.6c-3.5,3.3-9.5,11-10.4,25.3l-0.1,1.5l-1.3-0.6
		l-0.3-0.1c-0.4-0.2-0.7-0.3-1.1-0.4c-4.3-1.7-8.2-4.1-11.7-7l-0.3-0.3l-0.1-0.4c-1.9-14.3,5-30.7,5.1-30.9c0.3-0.8,0-1.6-0.8-2
		c-0.2-0.1-0.4-0.1-0.6-0.1c-0.6,0-1.1,0.4-1.4,0.9c-3.7,8.9-5.6,18.3-5.6,28l0,1.6l-1.4-0.7c-1.4-0.7-3-1-4.5-1
		c-1.4,0-2.8,0.3-4.1,0.8l-1.4,0.6l0-1.5c-0.9-31.4,17.6-44.6,23.2-47.9l0.5-0.3l0.5,0.3c2.5,1.3,5.4,2,8.2,2c2.9,0,5.7-0.7,8.3-2.1
		l0.5-0.3l0.5,0.3C140.6,111.4,143.1,113.3,145.3,115.4z M143.5,93.9c0,8.2-6.7,14.9-14.9,14.9h0c-8.2,0-14.8-6.7-14.9-14.9
		c0-8.2,6.7-14.9,14.9-14.9C136.8,79,143.5,85.7,143.5,93.9z"/>
	<path fill="#518FC9" d="M132.4,209.4h-2.5c-0.8,0-1.5,0.7-1.5,1.5s0.7,1.5,1.5,1.5h2.5c0.8,0,1.5-0.7,1.5-1.5
		S133.2,209.4,132.4,209.4z"/>
	<path fill="#518FC9" d="M167.6,212.4h2.5c0.8,0,1.5-0.7,1.5-1.5s-0.7-1.5-1.5-1.5h-2.5c-0.8,0-1.5,0.7-1.5,1.5
		S166.8,212.4,167.6,212.4z"/>
</g>
</svg>
