<?xml version="1.0" encoding="utf-8"?>
<!-- Generator: Adobe Illustrator 22.1.0, SVG Export Plug-In . SVG Version: 6.00 Build 0)  -->
<svg version="1.1" baseProfile="tiny" id="Capa_1" xmlns="http://www.w3.org/2000/svg" xmlns:xlink="http://www.w3.org/1999/xlink"
	 x="0px" y="0px" viewBox="0 0 512 512" xml:space="preserve">
<g>
	<rect x="1.6" y="0.7" fill="#D6EEEF" width="510.2" height="510.2"/>
	<g>
		<path fill="#036995" d="M157.6,406.6h-18.7v-33.1h18.7v4.6h-13.3v9h12.5v4.5h-12.5V402h13.3V406.6z"/>
		<path fill="#036995" d="M185,406.6h-5.3v-15.4c0-1.9-0.4-3.4-1.2-4.3c-0.8-1-2-1.4-3.7-1.4c-2.2,0-3.9,0.7-4.9,2
			c-1,1.3-1.6,3.6-1.6,6.7v12.5H163v-25h4.2l0.7,3.3h0.3c0.8-1.2,1.8-2.1,3.2-2.8c1.4-0.6,2.9-1,4.6-1c6,0,9,3.1,9,9.2V406.6z"/>
		<path fill="#036995" d="M200.6,402.7c1.3,0,2.6-0.2,3.9-0.6v4c-0.6,0.3-1.3,0.5-2.3,0.6c-0.9,0.2-1.9,0.3-2.9,0.3
			c-5,0-7.6-2.7-7.6-8v-13.5h-3.4v-2.4l3.7-1.9l1.8-5.3h3.3v5.6h7.1v4h-7.1V399c0,1.3,0.3,2.2,1,2.8
			C198.7,402.4,199.6,402.7,200.6,402.7z"/>
		<path fill="#036995" d="M208,374.9c0-1,0.3-1.7,0.8-2.2c0.5-0.5,1.3-0.8,2.2-0.8c0.9,0,1.7,0.3,2.2,0.8c0.5,0.5,0.8,1.2,0.8,2.2
			c0,0.9-0.3,1.6-0.8,2.1c-0.5,0.5-1.2,0.8-2.2,0.8c-1,0-1.7-0.3-2.2-0.8C208.3,376.5,208,375.8,208,374.9z M213.7,406.6h-5.3v-25
			h5.3V406.6z"/>
		<path fill="#036995" d="M228.5,407c-3.1,0-5.6-1.1-7.3-3.4c-1.7-2.3-2.6-5.4-2.6-9.5c0-4.1,0.9-7.3,2.7-9.6
			c1.8-2.3,4.2-3.4,7.4-3.4c3.3,0,5.8,1.2,7.5,3.6h0.3c-0.3-1.8-0.4-3.2-0.4-4.3v-9.1h5.3v35.2h-4.2l-0.9-3.3H236
			C234.3,405.8,231.8,407,228.5,407z M230,402.7c2.2,0,3.8-0.6,4.8-1.8c1-1.2,1.5-3.2,1.5-6v-0.7c0-3.2-0.5-5.4-1.5-6.7
			c-1-1.3-2.6-2-4.8-2c-1.9,0-3.3,0.8-4.3,2.3c-1,1.5-1.5,3.7-1.5,6.5c0,2.8,0.5,4.9,1.5,6.3C226.5,402,228,402.7,230,402.7z"/>
		<path fill="#036995" d="M263.5,406.6l-1.1-3.5h-0.2c-1.2,1.5-2.4,2.6-3.6,3.1c-1.2,0.5-2.8,0.8-4.7,0.8c-2.5,0-4.4-0.7-5.8-2
			c-1.4-1.3-2.1-3.2-2.1-5.6c0-2.6,1-4.5,2.9-5.8c1.9-1.3,4.8-2,8.8-2.1l4.3-0.1V390c0-1.6-0.4-2.8-1.1-3.6
			c-0.7-0.8-1.9-1.2-3.5-1.2c-1.3,0-2.5,0.2-3.7,0.6c-1.2,0.4-2.3,0.8-3.4,1.3l-1.7-3.8c1.4-0.7,2.8-1.2,4.5-1.6
			c1.6-0.4,3.1-0.6,4.6-0.6c3.2,0,5.6,0.7,7.2,2.1c1.6,1.4,2.4,3.6,2.4,6.5v16.9H263.5z M255.5,403c1.9,0,3.5-0.5,4.6-1.6
			c1.2-1.1,1.8-2.6,1.8-4.5v-2.2l-3.2,0.1c-2.5,0.1-4.3,0.5-5.5,1.3c-1.1,0.7-1.7,1.9-1.7,3.4c0,1.1,0.3,2,1,2.6
			C253.2,402.7,254.2,403,255.5,403z"/>
		<path fill="#036995" d="M282,407c-3.1,0-5.6-1.1-7.3-3.4s-2.6-5.4-2.6-9.5c0-4.1,0.9-7.3,2.7-9.6c1.8-2.3,4.2-3.4,7.4-3.4
			c3.3,0,5.8,1.2,7.5,3.6h0.3c-0.3-1.8-0.4-3.2-0.4-4.3v-9.1h5.3v35.2h-4.2l-0.9-3.3h-0.2C287.8,405.8,285.3,407,282,407z
			 M283.4,402.7c2.2,0,3.8-0.6,4.8-1.8c1-1.2,1.5-3.2,1.5-6v-0.7c0-3.2-0.5-5.4-1.5-6.7c-1-1.3-2.6-2-4.8-2c-1.9,0-3.3,0.8-4.3,2.3
			c-1,1.5-1.5,3.7-1.5,6.5c0,2.8,0.5,4.9,1.5,6.3C280,402,281.4,402.7,283.4,402.7z"/>
		<path fill="#036995" d="M312.2,407c-3.9,0-6.9-1.1-9.1-3.4c-2.2-2.3-3.3-5.4-3.3-9.4c0-4.1,1-7.3,3.1-9.6c2-2.3,4.8-3.5,8.4-3.5
			c3.3,0,5.9,1,7.8,3c1.9,2,2.9,4.8,2.9,8.3v2.9h-16.7c0.1,2.4,0.7,4.3,2,5.6c1.2,1.3,3,2,5.2,2c1.5,0,2.9-0.1,4.1-0.4
			c1.3-0.3,2.6-0.7,4.1-1.4v4.3c-1.3,0.6-2.6,1.1-3.9,1.3C315.4,406.9,313.9,407,312.2,407z M311.2,385.1c-1.7,0-3,0.5-4.1,1.6
			c-1,1.1-1.6,2.6-1.8,4.7h11.4c0-2.1-0.5-3.6-1.5-4.7C314.2,385.7,312.9,385.1,311.2,385.1z"/>
		<path fill="#036995" d="M343.6,399.5c0,2.4-0.9,4.3-2.7,5.6c-1.8,1.3-4.3,2-7.6,2c-3.3,0-6-0.5-8-1.5v-4.6c2.9,1.4,5.7,2,8.2,2
			c3.3,0,4.9-1,4.9-3c0-0.6-0.2-1.2-0.5-1.6c-0.4-0.4-1-0.9-1.8-1.3s-2-1-3.5-1.5c-2.9-1.1-4.8-2.2-5.9-3.3c-1-1.1-1.5-2.6-1.5-4.3
			c0-2.1,0.9-3.8,2.6-5c1.7-1.2,4.1-1.8,7-1.8c2.9,0,5.7,0.6,8.3,1.8l-1.7,4c-2.7-1.1-5-1.7-6.8-1.7c-2.8,0-4.2,0.8-4.2,2.4
			c0,0.8,0.4,1.4,1.1,2c0.7,0.5,2.3,1.3,4.8,2.2c2.1,0.8,3.6,1.5,4.5,2.2c0.9,0.7,1.6,1.4,2.1,2.3
			C343.4,397.2,343.6,398.3,343.6,399.5z"/>
		<path fill="#036995" d="M355.3,381.6h5.8l5.1,14.2c0.8,2,1.3,3.9,1.5,5.7h0.2c0.1-0.8,0.4-1.8,0.7-3c0.4-1.2,2.3-6.8,5.7-16.9h5.7
			l-10.7,28.4c-1.9,5.2-5.2,7.8-9.7,7.8c-1.2,0-2.3-0.1-3.4-0.4v-4.2c0.8,0.2,1.7,0.3,2.7,0.3c2.6,0,4.4-1.5,5.4-4.5l0.9-2.4
			L355.3,381.6z"/>
		<path fill="#036995" d="M132.3,459.5h-18.7v-33.1h18.7v4.6H119v9h12.5v4.5H119V455h13.3V459.5z"/>
		<path fill="#036995" d="M158.8,459.5h-5.3v-15.4c0-1.9-0.4-3.3-1.1-4.3c-0.7-0.9-1.9-1.4-3.4-1.4c-2.1,0-3.6,0.7-4.5,2
			c-1,1.3-1.4,3.6-1.4,6.7v12.5h-5.3v-25h4.2l0.7,3.3h0.3c0.7-1.2,1.7-2.1,3-2.8c1.3-0.6,2.8-1,4.4-1c3.8,0,6.4,1.3,7.6,3.9h0.4
			c0.7-1.2,1.8-2.2,3.1-2.9c1.3-0.7,2.9-1,4.6-1c3,0,5.2,0.8,6.5,2.3c1.4,1.5,2,3.8,2,6.9v16.3h-5.3v-15.4c0-1.9-0.4-3.3-1.1-4.3
			c-0.7-0.9-1.9-1.4-3.4-1.4c-2.1,0-3.6,0.6-4.5,1.9c-1,1.3-1.4,3.3-1.4,5.9V459.5z"/>
		<path fill="#036995" d="M193.5,460c-3.2,0-5.6-1.1-7.4-3.4h-0.3c0.2,2.1,0.3,3.4,0.3,3.8v10.3h-5.3v-36.2h4.3
			c0.1,0.5,0.4,1.6,0.7,3.3h0.3c1.7-2.5,4.1-3.8,7.5-3.8c3.1,0,5.6,1.1,7.3,3.4c1.7,2.3,2.6,5.4,2.6,9.5c0,4.1-0.9,7.3-2.7,9.6
			C199.1,458.9,196.7,460,193.5,460z M192.3,438.4c-2.1,0-3.7,0.6-4.6,1.9c-1,1.2-1.5,3.2-1.5,5.9v0.8c0,3,0.5,5.3,1.4,6.6
			c1,1.4,2.5,2,4.7,2c1.8,0,3.3-0.8,4.3-2.3c1-1.5,1.5-3.7,1.5-6.4c0-2.8-0.5-4.9-1.5-6.4C195.6,439.1,194.2,438.4,192.3,438.4z"/>
		<path fill="#036995" d="M221.3,434.1c1.1,0,2,0.1,2.6,0.2l-0.5,5c-0.8-0.2-1.5-0.3-2.4-0.3c-2.1,0-3.8,0.7-5.2,2.1
			c-1.3,1.4-2,3.2-2,5.4v13.1h-5.3v-25h4.2l0.7,4.4h0.3c0.8-1.5,1.9-2.7,3.2-3.6C218.3,434.5,219.7,434.1,221.3,434.1z"/>
		<path fill="#036995" d="M238.3,460c-3.9,0-6.9-1.1-9.1-3.4c-2.2-2.3-3.3-5.4-3.3-9.4c0-4.1,1-7.3,3.1-9.6c2-2.3,4.8-3.5,8.4-3.5
			c3.3,0,5.9,1,7.8,3c1.9,2,2.9,4.8,2.9,8.3v2.9h-16.7c0.1,2.4,0.7,4.3,2,5.6c1.2,1.3,3,2,5.2,2c1.5,0,2.9-0.1,4.1-0.4
			c1.3-0.3,2.6-0.7,4.1-1.4v4.3c-1.3,0.6-2.6,1.1-3.9,1.3C241.5,459.9,240,460,238.3,460z M237.3,438.1c-1.7,0-3,0.5-4.1,1.6
			c-1,1.1-1.6,2.6-1.8,4.7h11.4c0-2.1-0.5-3.6-1.5-4.7C240.4,438.6,239,438.1,237.3,438.1z"/>
		<path fill="#036995" d="M269.7,452.4c0,2.4-0.9,4.3-2.7,5.6c-1.8,1.3-4.3,2-7.6,2c-3.3,0-6-0.5-8-1.5v-4.6c2.9,1.4,5.7,2,8.2,2
			c3.3,0,4.9-1,4.9-3c0-0.6-0.2-1.2-0.5-1.6c-0.4-0.4-1-0.9-1.8-1.3s-2-1-3.5-1.5c-2.9-1.1-4.8-2.2-5.9-3.3c-1-1.1-1.5-2.6-1.5-4.3
			c0-2.1,0.9-3.8,2.6-5c1.7-1.2,4.1-1.8,7-1.8c2.9,0,5.7,0.6,8.3,1.8l-1.7,4c-2.7-1.1-5-1.7-6.8-1.7c-2.8,0-4.2,0.8-4.2,2.4
			c0,0.8,0.4,1.4,1.1,2c0.7,0.5,2.3,1.3,4.8,2.2c2.1,0.8,3.6,1.5,4.5,2.2c0.9,0.7,1.6,1.4,2.1,2.3
			C269.5,450.2,269.7,451.2,269.7,452.4z"/>
		<path fill="#036995" d="M290,459.5l-1.1-3.5h-0.2c-1.2,1.5-2.4,2.6-3.6,3.1c-1.2,0.5-2.8,0.8-4.7,0.8c-2.5,0-4.4-0.7-5.8-2
			c-1.4-1.3-2.1-3.2-2.1-5.6c0-2.6,1-4.5,2.9-5.8c1.9-1.3,4.8-2,8.8-2.1l4.3-0.1v-1.3c0-1.6-0.4-2.8-1.1-3.6
			c-0.7-0.8-1.9-1.2-3.5-1.2c-1.3,0-2.5,0.2-3.7,0.6c-1.2,0.4-2.3,0.8-3.4,1.3l-1.7-3.8c1.4-0.7,2.8-1.2,4.5-1.6
			c1.6-0.4,3.1-0.6,4.6-0.6c3.2,0,5.6,0.7,7.2,2.1c1.6,1.4,2.4,3.6,2.4,6.5v16.9H290z M282.1,455.9c1.9,0,3.5-0.5,4.6-1.6
			c1.2-1.1,1.8-2.6,1.8-4.5v-2.2l-3.2,0.1c-2.5,0.1-4.3,0.5-5.5,1.3c-1.1,0.7-1.7,1.9-1.7,3.4c0,1.1,0.3,2,1,2.6
			C279.7,455.6,280.7,455.9,282.1,455.9z"/>
		<path fill="#036995" d="M316.9,452.4c0,2.4-0.9,4.3-2.7,5.6c-1.8,1.3-4.3,2-7.6,2c-3.3,0-6-0.5-8-1.5v-4.6c2.9,1.4,5.7,2,8.2,2
			c3.3,0,4.9-1,4.9-3c0-0.6-0.2-1.2-0.5-1.6c-0.4-0.4-1-0.9-1.8-1.3s-2-1-3.5-1.5c-2.9-1.1-4.8-2.2-5.9-3.3c-1-1.1-1.5-2.6-1.5-4.3
			c0-2.1,0.9-3.8,2.6-5c1.7-1.2,4.1-1.8,7-1.8c2.9,0,5.7,0.6,8.3,1.8l-1.7,4c-2.7-1.1-5-1.7-6.8-1.7c-2.8,0-4.2,0.8-4.2,2.4
			c0,0.8,0.4,1.4,1.1,2c0.7,0.5,2.3,1.3,4.8,2.2c2.1,0.8,3.6,1.5,4.5,2.2c0.9,0.7,1.6,1.4,2.1,2.3
			C316.6,450.2,316.9,451.2,316.9,452.4z"/>
		<path fill="#036995" d="M351.6,459.5h-18.7v-33.1h18.7v4.6h-13.3v9h12.5v4.5h-12.5V455h13.3V459.5z"/>
		<path fill="#036995" d="M357.6,459.5v-33.1h5.4v33.1H357.6z"/>
		<path fill="#036995" d="M382,459.5h-5.4v-28.4h-9.7v-4.6h24.9v4.6H382V459.5z"/>
		<path fill="#036995" d="M395.7,459.5v-33.1h5.4v33.1H395.7z"/>
	</g>
	<g>
		<path fill="#0090CC" d="M367,162.5c-1.2-0.7-2.7-0.7-4,0l-11,6.1l-3.1-107c-0.1-2.2-1.8-3.9-4-3.9h-28.1c-2.2,0-4,1.7-4,3.9
			l-3.7,130.9l-12.3,6.8V166c0-2.2-1.8-4-4-4c-0.7,0-1.3,0.2-1.9,0.5l-66.3,36.8V166c0-2.2-1.8-4-4-4c-0.7,0-1.3,0.2-1.9,0.5
			l-72.2,40.1c-1.3,0.7-2.1,2-2.1,3.5v88.3c0,2.2,1.8,4,4,4H365c2.2,0,4-1.8,4-4V166C369,164.6,368.3,163.2,367,162.5z M320.3,81.7
			h21.2l2.6,91.3l-26.9,14.9L320.3,81.7z M341,65.7l0.2,8h-20.7l0.2-8H341z M228.6,290.4v-20.1h24.1v20.1H228.6z M260.7,290.4v-20.1
			h24.1v20.1H260.7z M361,290.4h-68.2v-24.1c0-2.2-1.8-4-4-4h-64.2c-2.2,0-4,1.8-4,4v24.1h-68.2v-81.9l64.2-35.7v33.3
			c0,2.2,1.8,4,4,4c0.7,0,1.3-0.2,1.9-0.5l66.3-36.8v33.3c0,2.2,1.8,4,4,4c0.7,0,1.3-0.2,1.9-0.5l37.8-21l17.6-9.8l0,0l10.8-6V290.4
			z"/>
		<path fill="#0090CC" d="M200.5,218.1h-32.1c-2.2,0-4,1.8-4,4v16c0,2.2,1.8,4,4,4h32.1c2.2,0,4-1.8,4-4v-16
			C204.5,219.9,202.7,218.1,200.5,218.1z M196.5,234.2h-24.1v-8h24.1V234.2z"/>
		<path fill="#0090CC" d="M272.7,218.1h-32.1c-2.2,0-4,1.8-4,4v16c0,2.2,1.8,4,4,4h32.1c2.2,0,4-1.8,4-4v-16
			C276.7,219.9,274.9,218.1,272.7,218.1z M268.7,234.2h-24.1v-8h24.1V234.2z"/>
		<path fill="#0090CC" d="M344.9,218.1h-32.1c-2.2,0-4,1.8-4,4v16c0,2.2,1.8,4,4,4h32.1c2.2,0,4-1.8,4-4v-16
			C348.9,219.9,347.1,218.1,344.9,218.1z M340.9,234.2h-24.1v-8h24.1V234.2z"/>
	</g>
</g>
</svg>
