<?xml version="1.0" encoding="utf-8"?>
<!-- Generator: Adobe Illustrator 22.1.0, SVG Export Plug-In . SVG Version: 6.00 Build 0)  -->
<svg version="1.1" id="Capa_1" xmlns="http://www.w3.org/2000/svg" xmlns:xlink="http://www.w3.org/1999/xlink" x="0px" y="0px"
	 viewBox="0 0 950 300" style="enable-background:new 0 0 950 300;" xml:space="preserve">
<style type="text/css">
	.st0{fill:#FAFAFA;}
	.st1{fill:#FFFFFF;stroke:#35B0B1;stroke-miterlimit:10;}
	.st2{fill:#B7E3E1;}
	.st3{fill:#036995;}
	.st4{fill:#00AFD7;}
	.st5{fill:#FFFFFF;}
	.st6{fill:#4BB8B3;}
	.st7{fill:#98DEEE;}
</style>
<rect class="st0" width="950" height="300"/>
<g>
	<path class="st1" d="M138,78.6l-72.6-0.1c-3.1,0-5.9,1.6-7.4,4.3l-36.4,62.9c-1.5,2.7-1.5,5.9,0,8.6l36.2,62.9
		c1.5,2.7,4.4,4.3,7.4,4.3l72.6,0.1c3.1,0,5.9-1.6,7.4-4.3l36.4-62.9c1.5-2.7,1.5-5.9,0-8.6l-36.2-62.9
		C143.9,80.2,141.1,78.6,138,78.6z"/>
	<path class="st2" d="M166.1,80.1l36.5,65.2c1.7,3,1.7,6.6,0,9.6L165.9,220c-1.7,3.1-5,5-8.6,5l103.6,0v0l25,0c3.6,0,6.9-1.9,8.6-5
		l36.6-65.1c1.7-3,1.7-6.6,0-9.6l-36.5-65.2c-1.7-3.1-5-5-8.6-5l-25.2,0v0H157.5C161,75,164.3,77,166.1,80.1z"/>
	<path class="st2" d="M312.6,80.1l36.5,65.2c1.7,3,1.7,6.6,0,9.6L312.4,220c-1.7,3.1-5,5-8.6,5l103.6,0v0l25,0c3.6,0,6.9-1.9,8.6-5
		l36.6-65.1c1.7-3,1.7-6.6,0-9.6l-36.5-65.2c-1.7-3.1-5-5-8.6-5l-25.2,0v0H304C307.5,75,310.8,77,312.6,80.1z"/>
	<path class="st2" d="M459.1,80.1l36.5,65.2c1.7,3,1.7,6.6,0,9.6L458.9,220c-1.7,3.1-5,5-8.6,5l103.6,0v0l25,0c3.6,0,6.9-1.9,8.6-5
		l36.6-65.1c1.7-3,1.7-6.6,0-9.6l-36.5-65.2c-1.7-3.1-5-5-8.6-5l-25.2,0v0H450.5C454,75,457.3,77,459.1,80.1z"/>
	<path class="st2" d="M605.6,80.1l36.5,65.2c1.7,3,1.7,6.6,0,9.6L605.4,220c-1.7,3.1-5,5-8.6,5l103.6,0v0l25,0c3.6,0,6.9-1.9,8.6-5
		l36.6-65.1c1.7-3,1.7-6.6,0-9.6l-36.5-65.2c-1.7-3.1-5-5-8.6-5l-25.2,0v0H597C600.5,75,603.8,77,605.6,80.1z"/>
	<path class="st2" d="M752.1,80.1l36.5,65.2c1.7,3,1.7,6.6,0,9.6L751.9,220c-1.7,3.1-5,5-8.6,5l103.6,0v0l25,0c3.6,0,6.9-1.9,8.6-5
		l36.6-65.1c1.7-3,1.7-6.6,0-9.6l-36.5-65.2c-1.7-3.1-5-5-8.6-5l-25.2,0v0H743.5C747,75,750.3,77,752.1,80.1z"/>
	<g>
		<path class="st3" d="M224.9,126.2c0,0.9-0.3,1.6-0.9,2.1s-1.4,0.7-2.5,0.7h-0.9v3.2h-1.4v-8.6h2.5c1.1,0,1.9,0.2,2.4,0.7
			S224.9,125.3,224.9,126.2z M220.6,127.8h0.7c0.7,0,1.2-0.1,1.6-0.4s0.5-0.6,0.5-1.2c0-0.5-0.2-0.9-0.5-1.1s-0.8-0.4-1.4-0.4h-1
			V127.8z"/>
		<path class="st3" d="M229.4,125.6c0.3,0,0.5,0,0.7,0.1l-0.1,1.3c-0.2,0-0.4-0.1-0.6-0.1c-0.6,0-1,0.2-1.3,0.5s-0.5,0.8-0.5,1.4
			v3.4h-1.4v-6.5h1.1l0.2,1.1h0.1c0.2-0.4,0.5-0.7,0.8-0.9S229,125.6,229.4,125.6z"/>
		<path class="st3" d="M233.8,132.3c-1,0-1.8-0.3-2.4-0.9s-0.9-1.4-0.9-2.4c0-1.1,0.3-1.9,0.8-2.5s1.3-0.9,2.2-0.9
			c0.9,0,1.5,0.3,2,0.8s0.7,1.2,0.7,2.1v0.7H232c0,0.6,0.2,1.1,0.5,1.5s0.8,0.5,1.4,0.5c0.4,0,0.7,0,1.1-0.1s0.7-0.2,1.1-0.4v1.1
			c-0.3,0.2-0.7,0.3-1,0.3S234.3,132.3,233.8,132.3z M233.6,126.6c-0.4,0-0.8,0.1-1.1,0.4s-0.4,0.7-0.5,1.2h2.9
			c0-0.5-0.1-0.9-0.4-1.2S234,126.6,233.6,126.6z"/>
		<path class="st3" d="M242,130.3c0,0.6-0.2,1.1-0.7,1.5s-1.1,0.5-2,0.5c-0.9,0-1.6-0.1-2.1-0.4v-1.2c0.8,0.4,1.5,0.5,2.1,0.5
			c0.8,0,1.3-0.3,1.3-0.8c0-0.2,0-0.3-0.1-0.4s-0.2-0.2-0.5-0.3s-0.5-0.2-0.9-0.4c-0.7-0.3-1.3-0.6-1.5-0.9s-0.4-0.7-0.4-1.1
			c0-0.6,0.2-1,0.7-1.3s1.1-0.5,1.8-0.5c0.8,0,1.5,0.2,2.2,0.5l-0.4,1c-0.7-0.3-1.3-0.4-1.8-0.4c-0.7,0-1.1,0.2-1.1,0.6
			c0,0.2,0.1,0.4,0.3,0.5s0.6,0.3,1.2,0.6c0.5,0.2,0.9,0.4,1.2,0.6s0.4,0.4,0.5,0.6S242,130,242,130.3z"/>
		<path class="st3" d="M246,132.3c-1,0-1.8-0.3-2.4-0.9s-0.9-1.4-0.9-2.4c0-1.1,0.3-1.9,0.8-2.5s1.3-0.9,2.2-0.9
			c0.9,0,1.5,0.3,2,0.8s0.7,1.2,0.7,2.1v0.7h-4.3c0,0.6,0.2,1.1,0.5,1.5s0.8,0.5,1.4,0.5c0.4,0,0.7,0,1.1-0.1s0.7-0.2,1.1-0.4v1.1
			c-0.3,0.2-0.7,0.3-1,0.3S246.4,132.3,246,132.3z M245.7,126.6c-0.4,0-0.8,0.1-1.1,0.4s-0.4,0.7-0.5,1.2h2.9c0-0.5-0.1-0.9-0.4-1.2
			S246.2,126.6,245.7,126.6z"/>
		<path class="st3" d="M255.5,132.2h-1.4v-4c0-0.5-0.1-0.9-0.3-1.1s-0.5-0.4-1-0.4c-0.6,0-1,0.2-1.3,0.5s-0.4,0.9-0.4,1.7v3.2h-1.4
			v-6.5h1.1l0.2,0.8h0.1c0.2-0.3,0.5-0.5,0.8-0.7s0.8-0.3,1.2-0.3c1.6,0,2.3,0.8,2.3,2.4V132.2z"/>
		<path class="st3" d="M259.5,131.2c0.3,0,0.7-0.1,1-0.2v1c-0.2,0.1-0.3,0.1-0.6,0.2s-0.5,0.1-0.7,0.1c-1.3,0-2-0.7-2-2.1v-3.5h-0.9
			v-0.6l0.9-0.5l0.5-1.4h0.8v1.4h1.8v1h-1.8v3.5c0,0.3,0.1,0.6,0.2,0.7S259.2,131.2,259.5,131.2z"/>
		<path class="st3" d="M265.6,132.2l-0.3-0.9h0c-0.3,0.4-0.6,0.7-0.9,0.8s-0.7,0.2-1.2,0.2c-0.6,0-1.1-0.2-1.5-0.5s-0.5-0.8-0.5-1.5
			c0-0.7,0.2-1.2,0.7-1.5s1.3-0.5,2.3-0.6l1.1,0v-0.3c0-0.4-0.1-0.7-0.3-0.9s-0.5-0.3-0.9-0.3c-0.3,0-0.7,0-1,0.1s-0.6,0.2-0.9,0.3
			l-0.4-1c0.4-0.2,0.7-0.3,1.2-0.4s0.8-0.1,1.2-0.1c0.8,0,1.4,0.2,1.9,0.5s0.6,0.9,0.6,1.7v4.4H265.6z M263.5,131.2
			c0.5,0,0.9-0.1,1.2-0.4s0.5-0.7,0.5-1.2v-0.6l-0.8,0c-0.6,0-1.1,0.1-1.4,0.3s-0.4,0.5-0.4,0.9c0,0.3,0.1,0.5,0.3,0.7
			S263.2,131.2,263.5,131.2z"/>
		<path class="st3" d="M270.8,132.3c-1,0-1.7-0.3-2.2-0.9s-0.8-1.4-0.8-2.5c0-1.1,0.3-1.9,0.8-2.5s1.3-0.9,2.3-0.9
			c0.7,0,1.3,0.1,1.8,0.4l-0.4,1.1c-0.6-0.2-1.1-0.3-1.4-0.3c-1.1,0-1.7,0.7-1.7,2.2c0,0.7,0.1,1.3,0.4,1.6s0.7,0.5,1.2,0.5
			c0.6,0,1.2-0.2,1.7-0.5v1.2c-0.2,0.1-0.5,0.2-0.8,0.3S271.2,132.3,270.8,132.3z"/>
		<path class="st3" d="M273.7,124c0-0.2,0.1-0.4,0.2-0.6s0.3-0.2,0.6-0.2c0.2,0,0.4,0.1,0.6,0.2s0.2,0.3,0.2,0.6
			c0,0.2-0.1,0.4-0.2,0.6s-0.3,0.2-0.6,0.2c-0.2,0-0.4-0.1-0.6-0.2S273.7,124.2,273.7,124z M275.2,132.2h-1.4v-6.5h1.4V132.2z"/>
		<path class="st3" d="M282.6,128.9c0,1.1-0.3,1.9-0.8,2.5s-1.3,0.9-2.3,0.9c-0.6,0-1.1-0.1-1.6-0.4s-0.8-0.7-1.1-1.2
			s-0.4-1.1-0.4-1.8c0-1.1,0.3-1.9,0.8-2.5s1.3-0.9,2.3-0.9c0.9,0,1.7,0.3,2.2,0.9S282.6,127.9,282.6,128.9z M277.9,128.9
			c0,1.5,0.6,2.2,1.7,2.2c1.1,0,1.6-0.7,1.6-2.2c0-1.5-0.6-2.2-1.7-2.2c-0.6,0-1,0.2-1.3,0.6S277.9,128.2,277.9,128.9z M278.6,124.9
			v-0.1c0.2-0.3,0.5-0.6,0.7-0.9s0.4-0.6,0.6-0.9h1.6v0.1c-0.2,0.2-0.5,0.5-0.9,0.9s-0.7,0.7-1,0.9H278.6z"/>
		<path class="st3" d="M289.6,132.2h-1.4v-4c0-0.5-0.1-0.9-0.3-1.1s-0.5-0.4-1-0.4c-0.6,0-1,0.2-1.3,0.5s-0.4,0.9-0.4,1.7v3.2h-1.4
			v-6.5h1.1l0.2,0.8h0.1c0.2-0.3,0.5-0.5,0.8-0.7s0.8-0.3,1.2-0.3c1.6,0,2.3,0.8,2.3,2.4V132.2z"/>
		<path class="st3" d="M218.1,139.7h1.5l1.3,3.7c0.2,0.5,0.3,1,0.4,1.5h0c0-0.2,0.1-0.5,0.2-0.8s0.6-1.8,1.5-4.4h1.5l-2.8,7.3
			c-0.5,1.3-1.3,2-2.5,2c-0.3,0-0.6,0-0.9-0.1v-1.1c0.2,0,0.4,0.1,0.7,0.1c0.7,0,1.1-0.4,1.4-1.2l0.2-0.6L218.1,139.7z"/>
		<path class="st3" d="M231.3,139.6c0.3,0,0.5,0,0.7,0.1l-0.1,1.3c-0.2,0-0.4-0.1-0.6-0.1c-0.6,0-1,0.2-1.3,0.5s-0.5,0.8-0.5,1.4
			v3.4H228v-6.5h1.1l0.2,1.1h0.1c0.2-0.4,0.5-0.7,0.8-0.9S230.9,139.6,231.3,139.6z"/>
		<path class="st3" d="M235.7,146.3c-1,0-1.8-0.3-2.4-0.9s-0.9-1.4-0.9-2.4c0-1.1,0.3-1.9,0.8-2.5s1.3-0.9,2.2-0.9
			c0.9,0,1.5,0.3,2,0.8s0.7,1.2,0.7,2.1v0.7h-4.3c0,0.6,0.2,1.1,0.5,1.5s0.8,0.5,1.4,0.5c0.4,0,0.7,0,1.1-0.1s0.7-0.2,1.1-0.4v1.1
			c-0.3,0.2-0.7,0.3-1,0.3S236.1,146.3,235.7,146.3z M235.5,140.6c-0.4,0-0.8,0.1-1.1,0.4s-0.4,0.7-0.5,1.2h2.9
			c0-0.5-0.1-0.9-0.4-1.2S235.9,140.6,235.5,140.6z"/>
		<path class="st3" d="M241,146.2l-2.5-6.5h1.5l1.3,3.8c0.2,0.6,0.4,1.1,0.4,1.5h0c0-0.3,0.2-0.8,0.4-1.5l1.3-3.8h1.5l-2.5,6.5H241z
			"/>
		<path class="st3" d="M245.5,138c0-0.2,0.1-0.4,0.2-0.6s0.3-0.2,0.6-0.2c0.2,0,0.4,0.1,0.6,0.2s0.2,0.3,0.2,0.6
			c0,0.2-0.1,0.4-0.2,0.6s-0.3,0.2-0.6,0.2c-0.2,0-0.4-0.1-0.6-0.2S245.5,138.2,245.5,138z M247,146.2h-1.4v-6.5h1.4V146.2z"/>
		<path class="st3" d="M253,144.3c0,0.6-0.2,1.1-0.7,1.5s-1.1,0.5-2,0.5c-0.9,0-1.6-0.1-2.1-0.4v-1.2c0.8,0.4,1.5,0.5,2.1,0.5
			c0.8,0,1.3-0.3,1.3-0.8c0-0.2,0-0.3-0.1-0.4s-0.2-0.2-0.5-0.3s-0.5-0.2-0.9-0.4c-0.7-0.3-1.3-0.6-1.5-0.9s-0.4-0.7-0.4-1.1
			c0-0.6,0.2-1,0.7-1.3s1.1-0.5,1.8-0.5c0.8,0,1.5,0.2,2.2,0.5l-0.4,1c-0.7-0.3-1.3-0.4-1.8-0.4c-0.7,0-1.1,0.2-1.1,0.6
			c0,0.2,0.1,0.4,0.3,0.5s0.6,0.3,1.2,0.6c0.5,0.2,0.9,0.4,1.2,0.6s0.4,0.4,0.5,0.6S253,144,253,144.3z"/>
		<path class="st3" d="M254.1,138c0-0.2,0.1-0.4,0.2-0.6s0.3-0.2,0.6-0.2c0.2,0,0.4,0.1,0.6,0.2s0.2,0.3,0.2,0.6
			c0,0.2-0.1,0.4-0.2,0.6s-0.3,0.2-0.6,0.2c-0.2,0-0.4-0.1-0.6-0.2S254.1,138.2,254.1,138z M255.6,146.2h-1.4v-6.5h1.4V146.2z"/>
		<path class="st3" d="M263,142.9c0,1.1-0.3,1.9-0.8,2.5s-1.3,0.9-2.3,0.9c-0.6,0-1.1-0.1-1.6-0.4s-0.8-0.7-1.1-1.2
			s-0.4-1.1-0.4-1.8c0-1.1,0.3-1.9,0.8-2.5s1.3-0.9,2.3-0.9c0.9,0,1.7,0.3,2.2,0.9S263,141.9,263,142.9z M258.3,142.9
			c0,1.5,0.6,2.2,1.7,2.2c1.1,0,1.6-0.7,1.6-2.2c0-1.5-0.6-2.2-1.7-2.2c-0.6,0-1,0.2-1.3,0.6S258.3,142.2,258.3,142.9z M259,138.9
			v-0.1c0.2-0.3,0.5-0.6,0.7-0.9s0.4-0.6,0.6-0.9h1.6v0.1c-0.2,0.2-0.5,0.5-0.9,0.9s-0.7,0.7-1,0.9H259z"/>
		<path class="st3" d="M270,146.2h-1.4v-4c0-0.5-0.1-0.9-0.3-1.1s-0.5-0.4-1-0.4c-0.6,0-1,0.2-1.3,0.5s-0.4,0.9-0.4,1.7v3.2h-1.4
			v-6.5h1.1l0.2,0.8h0.1c0.2-0.3,0.5-0.5,0.8-0.7s0.8-0.3,1.2-0.3c1.6,0,2.3,0.8,2.3,2.4V146.2z"/>
		<path class="st3" d="M219,152c0-0.2,0.1-0.4,0.2-0.6s0.3-0.2,0.6-0.2c0.2,0,0.4,0.1,0.6,0.2s0.2,0.3,0.2,0.6
			c0,0.2-0.1,0.4-0.2,0.6s-0.3,0.2-0.6,0.2c-0.2,0-0.4-0.1-0.6-0.2S219,152.2,219,152z M220.4,160.2H219v-6.5h1.4V160.2z"/>
		<path class="st3" d="M227.8,160.2h-1.4v-4c0-0.5-0.1-0.9-0.3-1.1s-0.5-0.4-1-0.4c-0.6,0-1,0.2-1.3,0.5s-0.4,0.9-0.4,1.7v3.2h-1.4
			v-6.5h1.1l0.2,0.8h0.1c0.2-0.3,0.5-0.5,0.8-0.7s0.8-0.3,1.2-0.3c1.6,0,2.3,0.8,2.3,2.4V160.2z"/>
		<path class="st3" d="M232,160.3c-1,0-1.7-0.3-2.2-0.9S229,158,229,157c0-1.1,0.3-1.9,0.8-2.5s1.3-0.9,2.3-0.9
			c0.7,0,1.3,0.1,1.8,0.4l-0.4,1.1c-0.6-0.2-1.1-0.3-1.4-0.3c-1.1,0-1.7,0.7-1.7,2.2c0,0.7,0.1,1.3,0.4,1.6s0.7,0.5,1.2,0.5
			c0.6,0,1.2-0.2,1.7-0.5v1.2c-0.2,0.1-0.5,0.2-0.8,0.3S232.4,160.3,232,160.3z"/>
		<path class="st3" d="M235,152c0-0.2,0.1-0.4,0.2-0.6s0.3-0.2,0.6-0.2c0.2,0,0.4,0.1,0.6,0.2s0.2,0.3,0.2,0.6
			c0,0.2-0.1,0.4-0.2,0.6s-0.3,0.2-0.6,0.2c-0.2,0-0.4-0.1-0.6-0.2S235,152.2,235,152z M236.4,160.2h-1.4v-6.5h1.4V160.2z"/>
		<path class="st3" d="M242.2,160.2l-0.3-0.9h0c-0.3,0.4-0.6,0.7-0.9,0.8s-0.7,0.2-1.2,0.2c-0.6,0-1.1-0.2-1.5-0.5s-0.5-0.8-0.5-1.5
			c0-0.7,0.2-1.2,0.7-1.5s1.3-0.5,2.3-0.6l1.1,0v-0.3c0-0.4-0.1-0.7-0.3-0.9s-0.5-0.3-0.9-0.3c-0.3,0-0.7,0-1,0.1s-0.6,0.2-0.9,0.3
			l-0.4-1c0.4-0.2,0.7-0.3,1.2-0.4s0.8-0.1,1.2-0.1c0.8,0,1.4,0.2,1.9,0.5s0.6,0.9,0.6,1.7v4.4H242.2z M240.1,159.2
			c0.5,0,0.9-0.1,1.2-0.4s0.5-0.7,0.5-1.2v-0.6l-0.8,0c-0.6,0-1.1,0.1-1.4,0.3s-0.4,0.5-0.4,0.9c0,0.3,0.1,0.5,0.3,0.7
			S239.8,159.2,240.1,159.2z"/>
		<path class="st3" d="M247.2,159.2c0.3,0,0.7-0.1,1-0.2v1c-0.2,0.1-0.3,0.1-0.6,0.2s-0.5,0.1-0.7,0.1c-1.3,0-2-0.7-2-2.1v-3.5H244
			v-0.6l0.9-0.5l0.5-1.4h0.8v1.4h1.8v1h-1.8v3.5c0,0.3,0.1,0.6,0.2,0.7S246.9,159.2,247.2,159.2z"/>
		<path class="st3" d="M249.1,152c0-0.2,0.1-0.4,0.2-0.6s0.3-0.2,0.6-0.2c0.2,0,0.4,0.1,0.6,0.2s0.2,0.3,0.2,0.6
			c0,0.2-0.1,0.4-0.2,0.6s-0.3,0.2-0.6,0.2c-0.2,0-0.4-0.1-0.6-0.2S249.1,152.2,249.1,152z M250.6,160.2h-1.4v-6.5h1.4V160.2z"/>
		<path class="st3" d="M253.7,160.2l-2.5-6.5h1.5l1.3,3.8c0.2,0.6,0.4,1.1,0.4,1.5h0c0-0.3,0.2-0.8,0.4-1.5l1.3-3.8h1.5l-2.5,6.5
			H253.7z"/>
		<path class="st3" d="M262.4,160.2l-0.3-0.9h0c-0.3,0.4-0.6,0.7-0.9,0.8s-0.7,0.2-1.2,0.2c-0.6,0-1.1-0.2-1.5-0.5s-0.5-0.8-0.5-1.5
			c0-0.7,0.2-1.2,0.7-1.5s1.3-0.5,2.3-0.6l1.1,0v-0.3c0-0.4-0.1-0.7-0.3-0.9s-0.5-0.3-0.9-0.3c-0.3,0-0.7,0-1,0.1s-0.6,0.2-0.9,0.3
			l-0.4-1c0.4-0.2,0.7-0.3,1.2-0.4s0.8-0.1,1.2-0.1c0.8,0,1.4,0.2,1.9,0.5s0.6,0.9,0.6,1.7v4.4H262.4z M260.3,159.2
			c0.5,0,0.9-0.1,1.2-0.4s0.5-0.7,0.5-1.2v-0.6l-0.8,0c-0.6,0-1.1,0.1-1.4,0.3s-0.4,0.5-0.4,0.9c0,0.3,0.1,0.5,0.3,0.7
			S260,159.2,260.3,159.2z"/>
		<path class="st3" d="M269.4,158.3c0,0.6-0.2,1.1-0.7,1.5s-1.1,0.5-2,0.5c-0.9,0-1.6-0.1-2.1-0.4v-1.2c0.8,0.4,1.5,0.5,2.1,0.5
			c0.8,0,1.3-0.3,1.3-0.8c0-0.2,0-0.3-0.1-0.4s-0.2-0.2-0.5-0.3s-0.5-0.2-0.9-0.4c-0.7-0.3-1.3-0.6-1.5-0.9s-0.4-0.7-0.4-1.1
			c0-0.6,0.2-1,0.7-1.3s1.1-0.5,1.8-0.5c0.8,0,1.5,0.2,2.2,0.5l-0.4,1c-0.7-0.3-1.3-0.4-1.8-0.4c-0.7,0-1.1,0.2-1.1,0.6
			c0,0.2,0.1,0.4,0.3,0.5s0.6,0.3,1.2,0.6c0.5,0.2,0.9,0.4,1.2,0.6s0.4,0.4,0.5,0.6S269.4,158,269.4,158.3z"/>
		<path class="st3" d="M279.1,156.9c0,1.1-0.3,1.9-0.8,2.5s-1.3,0.9-2.3,0.9c-0.6,0-1.1-0.1-1.6-0.4s-0.8-0.7-1.1-1.2
			s-0.4-1.1-0.4-1.8c0-1.1,0.3-1.9,0.8-2.5s1.3-0.9,2.3-0.9c0.9,0,1.7,0.3,2.2,0.9S279.1,155.9,279.1,156.9z M274.4,156.9
			c0,1.5,0.6,2.2,1.7,2.2c1.1,0,1.6-0.7,1.6-2.2c0-1.5-0.6-2.2-1.7-2.2c-0.6,0-1,0.2-1.3,0.6S274.4,156.2,274.4,156.9z"/>
		<path class="st3" d="M222.3,174.3c-0.8,0-1.5-0.3-1.9-0.9h-0.1c0.1,0.5,0.1,0.9,0.1,1v2.7H219v-9.4h1.1c0,0.1,0.1,0.4,0.2,0.9h0.1
			c0.4-0.7,1.1-1,1.9-1c0.8,0,1.4,0.3,1.9,0.9s0.7,1.4,0.7,2.5s-0.2,1.9-0.7,2.5S223.1,174.3,222.3,174.3z M222,168.7
			c-0.5,0-0.9,0.2-1.2,0.5s-0.4,0.8-0.4,1.5v0.2c0,0.8,0.1,1.4,0.4,1.7s0.7,0.5,1.2,0.5c0.5,0,0.8-0.2,1.1-0.6s0.4-0.9,0.4-1.7
			c0-0.7-0.1-1.3-0.4-1.6S222.5,168.7,222,168.7z"/>
		<path class="st3" d="M229.5,167.6c0.3,0,0.5,0,0.7,0.1l-0.1,1.3c-0.2,0-0.4-0.1-0.6-0.1c-0.6,0-1,0.2-1.3,0.5s-0.5,0.8-0.5,1.4
			v3.4h-1.4v-6.5h1.1l0.2,1.1h0.1c0.2-0.4,0.5-0.7,0.8-0.9S229.1,167.6,229.5,167.6z"/>
		<path class="st3" d="M236.8,170.9c0,1.1-0.3,1.9-0.8,2.5s-1.3,0.9-2.3,0.9c-0.6,0-1.1-0.1-1.6-0.4s-0.8-0.7-1.1-1.2
			s-0.4-1.1-0.4-1.8c0-1.1,0.3-1.9,0.8-2.5s1.3-0.9,2.3-0.9c0.9,0,1.7,0.3,2.2,0.9S236.8,169.9,236.8,170.9z M232.1,170.9
			c0,1.5,0.6,2.2,1.7,2.2c1.1,0,1.6-0.7,1.6-2.2c0-1.5-0.6-2.2-1.7-2.2c-0.6,0-1,0.2-1.3,0.6S232.1,170.2,232.1,170.9z"/>
		<path class="st3" d="M237.1,167.7h1.5l1.3,3.7c0.2,0.5,0.3,1,0.4,1.5h0c0-0.2,0.1-0.5,0.2-0.8s0.6-1.8,1.5-4.4h1.5l-2.8,7.3
			c-0.5,1.3-1.3,2-2.5,2c-0.3,0-0.6,0-0.9-0.1v-1.1c0.2,0,0.4,0.1,0.7,0.1c0.7,0,1.1-0.4,1.4-1.2l0.2-0.6L237.1,167.7z"/>
		<path class="st3" d="M247.1,174.3c-1,0-1.8-0.3-2.4-0.9s-0.9-1.4-0.9-2.4c0-1.1,0.3-1.9,0.8-2.5s1.3-0.9,2.2-0.9
			c0.9,0,1.5,0.3,2,0.8s0.7,1.2,0.7,2.1v0.7h-4.3c0,0.6,0.2,1.1,0.5,1.5s0.8,0.5,1.4,0.5c0.4,0,0.7,0,1.1-0.1s0.7-0.2,1.1-0.4v1.1
			c-0.3,0.2-0.7,0.3-1,0.3S247.5,174.3,247.1,174.3z M246.8,168.6c-0.4,0-0.8,0.1-1.1,0.4s-0.4,0.7-0.5,1.2h2.9
			c0-0.5-0.1-0.9-0.4-1.2S247.3,168.6,246.8,168.6z"/>
		<path class="st3" d="M253.5,174.3c-1,0-1.7-0.3-2.2-0.9s-0.8-1.4-0.8-2.5c0-1.1,0.3-1.9,0.8-2.5s1.3-0.9,2.3-0.9
			c0.7,0,1.3,0.1,1.8,0.4L255,169c-0.6-0.2-1.1-0.3-1.4-0.3c-1.1,0-1.7,0.7-1.7,2.2c0,0.7,0.1,1.3,0.4,1.6s0.7,0.5,1.2,0.5
			c0.6,0,1.2-0.2,1.7-0.5v1.2c-0.2,0.1-0.5,0.2-0.8,0.3S253.9,174.3,253.5,174.3z"/>
		<path class="st3" d="M258.9,173.2c0.3,0,0.7-0.1,1-0.2v1c-0.2,0.1-0.3,0.1-0.6,0.2s-0.5,0.1-0.7,0.1c-1.3,0-2-0.7-2-2.1v-3.5h-0.9
			v-0.6l0.9-0.5l0.5-1.4h0.8v1.4h1.8v1H258v3.5c0,0.3,0.1,0.6,0.2,0.7S258.7,173.2,258.9,173.2z"/>
		<path class="st3" d="M266.7,170.9c0,1.1-0.3,1.9-0.8,2.5s-1.3,0.9-2.3,0.9c-0.6,0-1.1-0.1-1.6-0.4s-0.8-0.7-1.1-1.2
			s-0.4-1.1-0.4-1.8c0-1.1,0.3-1.9,0.8-2.5s1.3-0.9,2.3-0.9c0.9,0,1.7,0.3,2.2,0.9S266.7,169.9,266.7,170.9z M262,170.9
			c0,1.5,0.6,2.2,1.7,2.2c1.1,0,1.6-0.7,1.6-2.2c0-1.5-0.6-2.2-1.7-2.2c-0.6,0-1,0.2-1.3,0.6S262,170.2,262,170.9z"/>
		<path class="st3" d="M272.3,172.3c0,0.6-0.2,1.1-0.7,1.5s-1.1,0.5-2,0.5c-0.9,0-1.6-0.1-2.1-0.4v-1.2c0.8,0.4,1.5,0.5,2.1,0.5
			c0.8,0,1.3-0.3,1.3-0.8c0-0.2,0-0.3-0.1-0.4s-0.2-0.2-0.5-0.3s-0.5-0.2-0.9-0.4c-0.7-0.3-1.3-0.6-1.5-0.9s-0.4-0.7-0.4-1.1
			c0-0.6,0.2-1,0.7-1.3s1.1-0.5,1.8-0.5c0.8,0,1.5,0.2,2.2,0.5l-0.4,1c-0.7-0.3-1.3-0.4-1.8-0.4c-0.7,0-1.1,0.2-1.1,0.6
			c0,0.2,0.1,0.4,0.3,0.5s0.6,0.3,1.2,0.6c0.5,0.2,0.9,0.4,1.2,0.6s0.4,0.4,0.5,0.6S272.3,172,272.3,172.3z"/>
		<path class="st3" d="M273.3,173.4c0-0.3,0.1-0.5,0.2-0.7s0.4-0.2,0.6-0.2c0.3,0,0.5,0.1,0.7,0.2s0.2,0.4,0.2,0.6
			c0,0.3-0.1,0.5-0.2,0.7s-0.4,0.2-0.6,0.2s-0.5-0.1-0.6-0.2S273.3,173.7,273.3,173.4z"/>
	</g>
	<g>
		<path class="st3" d="M372.1,132.2h-4.8v-8.6h4.8v1.2h-3.4v2.3h3.2v1.2h-3.2v2.7h3.4V132.2z"/>
		<path class="st3" d="M377.8,130.3c0,0.6-0.2,1.1-0.7,1.5s-1.1,0.5-2,0.5c-0.9,0-1.6-0.1-2.1-0.4v-1.2c0.8,0.4,1.5,0.5,2.1,0.5
			c0.8,0,1.3-0.3,1.3-0.8c0-0.2,0-0.3-0.1-0.4s-0.2-0.2-0.5-0.3s-0.5-0.2-0.9-0.4c-0.7-0.3-1.3-0.6-1.5-0.9s-0.4-0.7-0.4-1.1
			c0-0.6,0.2-1,0.7-1.3s1.1-0.5,1.8-0.5c0.8,0,1.5,0.2,2.2,0.5l-0.4,1c-0.7-0.3-1.3-0.4-1.8-0.4c-0.7,0-1.1,0.2-1.1,0.6
			c0,0.2,0.1,0.4,0.3,0.5s0.6,0.3,1.2,0.6c0.5,0.2,0.9,0.4,1.2,0.6s0.4,0.4,0.5,0.6S377.8,130,377.8,130.3z"/>
		<path class="st3" d="M381.4,131.2c0.3,0,0.7-0.1,1-0.2v1c-0.2,0.1-0.3,0.1-0.6,0.2s-0.5,0.1-0.7,0.1c-1.3,0-2-0.7-2-2.1v-3.5h-0.9
			v-0.6l0.9-0.5l0.5-1.4h0.8v1.4h1.8v1h-1.8v3.5c0,0.3,0.1,0.6,0.2,0.7S381.2,131.2,381.4,131.2z"/>
		<path class="st3" d="M386.7,125.6c0.3,0,0.5,0,0.7,0.1l-0.1,1.3c-0.2,0-0.4-0.1-0.6-0.1c-0.6,0-1,0.2-1.3,0.5s-0.5,0.8-0.5,1.4
			v3.4h-1.4v-6.5h1.1l0.2,1.1h0.1c0.2-0.4,0.5-0.7,0.8-0.9S386.3,125.6,386.7,125.6z"/>
		<path class="st3" d="M392.9,132.2l-0.2-0.8h-0.1c-0.2,0.3-0.5,0.5-0.8,0.7s-0.8,0.3-1.2,0.3c-0.8,0-1.4-0.2-1.8-0.6
			s-0.6-1-0.6-1.8v-4.2h1.4v4c0,0.5,0.1,0.9,0.3,1.1s0.5,0.4,1,0.4c0.6,0,1-0.2,1.3-0.5s0.4-0.9,0.4-1.7v-3.2h1.4v6.5H392.9z"/>
		<path class="st3" d="M398.3,132.3c-1,0-1.7-0.3-2.2-0.9s-0.8-1.4-0.8-2.5c0-1.1,0.3-1.9,0.8-2.5s1.3-0.9,2.3-0.9
			c0.7,0,1.3,0.1,1.8,0.4l-0.4,1.1c-0.6-0.2-1.1-0.3-1.4-0.3c-1.1,0-1.7,0.7-1.7,2.2c0,0.7,0.1,1.3,0.4,1.6s0.7,0.5,1.2,0.5
			c0.6,0,1.2-0.2,1.7-0.5v1.2c-0.2,0.1-0.5,0.2-0.8,0.3S398.7,132.3,398.3,132.3z"/>
		<path class="st3" d="M403.7,131.2c0.3,0,0.7-0.1,1-0.2v1c-0.2,0.1-0.3,0.1-0.6,0.2s-0.5,0.1-0.7,0.1c-1.3,0-2-0.7-2-2.1v-3.5h-0.9
			v-0.6l0.9-0.5l0.5-1.4h0.8v1.4h1.8v1h-1.8v3.5c0,0.3,0.1,0.6,0.2,0.7S403.4,131.2,403.7,131.2z"/>
		<path class="st3" d="M410.3,132.2l-0.2-0.8H410c-0.2,0.3-0.5,0.5-0.8,0.7s-0.8,0.3-1.2,0.3c-0.8,0-1.4-0.2-1.8-0.6s-0.6-1-0.6-1.8
			v-4.2h1.4v4c0,0.5,0.1,0.9,0.3,1.1s0.5,0.4,1,0.4c0.6,0,1-0.2,1.3-0.5s0.4-0.9,0.4-1.7v-3.2h1.4v6.5H410.3z"/>
		<path class="st3" d="M416.3,125.6c0.3,0,0.5,0,0.7,0.1l-0.1,1.3c-0.2,0-0.4-0.1-0.6-0.1c-0.6,0-1,0.2-1.3,0.5s-0.5,0.8-0.5,1.4
			v3.4H413v-6.5h1.1l0.2,1.1h0.1c0.2-0.4,0.5-0.7,0.8-0.9S415.9,125.6,416.3,125.6z"/>
		<path class="st3" d="M421.9,132.2l-0.3-0.9h0c-0.3,0.4-0.6,0.7-0.9,0.8s-0.7,0.2-1.2,0.2c-0.6,0-1.1-0.2-1.5-0.5s-0.5-0.8-0.5-1.5
			c0-0.7,0.2-1.2,0.7-1.5s1.3-0.5,2.3-0.6l1.1,0v-0.3c0-0.4-0.1-0.7-0.3-0.9s-0.5-0.3-0.9-0.3c-0.3,0-0.7,0-1,0.1s-0.6,0.2-0.9,0.3
			l-0.4-1c0.4-0.2,0.7-0.3,1.2-0.4s0.8-0.1,1.2-0.1c0.8,0,1.4,0.2,1.9,0.5s0.6,0.9,0.6,1.7v4.4H421.9z M419.9,131.2
			c0.5,0,0.9-0.1,1.2-0.4s0.5-0.7,0.5-1.2v-0.6l-0.8,0c-0.6,0-1.1,0.1-1.4,0.3s-0.4,0.5-0.4,0.9c0,0.3,0.1,0.5,0.3,0.7
			S419.6,131.2,419.9,131.2z"/>
		<path class="st3" d="M427.2,132.3c-1,0-1.7-0.3-2.2-0.9s-0.8-1.4-0.8-2.5c0-1.1,0.3-1.9,0.8-2.5s1.3-0.9,2.3-0.9
			c0.7,0,1.3,0.1,1.8,0.4l-0.4,1.1c-0.6-0.2-1.1-0.3-1.4-0.3c-1.1,0-1.7,0.7-1.7,2.2c0,0.7,0.1,1.3,0.4,1.6s0.7,0.5,1.2,0.5
			c0.6,0,1.2-0.2,1.7-0.5v1.2c-0.2,0.1-0.5,0.2-0.8,0.3S427.6,132.3,427.2,132.3z"/>
		<path class="st3" d="M430.1,124c0-0.2,0.1-0.4,0.2-0.6s0.3-0.2,0.6-0.2c0.2,0,0.4,0.1,0.6,0.2s0.2,0.3,0.2,0.6
			c0,0.2-0.1,0.4-0.2,0.6s-0.3,0.2-0.6,0.2c-0.2,0-0.4-0.1-0.6-0.2S430.1,124.2,430.1,124z M431.6,132.2h-1.4v-6.5h1.4V132.2z"/>
		<path class="st3" d="M439,128.9c0,1.1-0.3,1.9-0.8,2.5s-1.3,0.9-2.3,0.9c-0.6,0-1.1-0.1-1.6-0.4s-0.8-0.7-1.1-1.2
			s-0.4-1.1-0.4-1.8c0-1.1,0.3-1.9,0.8-2.5s1.3-0.9,2.3-0.9c0.9,0,1.7,0.3,2.2,0.9S439,127.9,439,128.9z M434.3,128.9
			c0,1.5,0.6,2.2,1.7,2.2c1.1,0,1.6-0.7,1.6-2.2c0-1.5-0.6-2.2-1.7-2.2c-0.6,0-1,0.2-1.3,0.6S434.3,128.2,434.3,128.9z M435,124.9
			v-0.1c0.2-0.3,0.5-0.6,0.7-0.9s0.4-0.6,0.6-0.9h1.6v0.1c-0.2,0.2-0.5,0.5-0.9,0.9s-0.7,0.7-1,0.9H435z"/>
		<path class="st3" d="M446,132.2h-1.4v-4c0-0.5-0.1-0.9-0.3-1.1s-0.5-0.4-1-0.4c-0.6,0-1,0.2-1.3,0.5s-0.4,0.9-0.4,1.7v3.2h-1.4
			v-6.5h1.1l0.2,0.8h0.1c0.2-0.3,0.5-0.5,0.8-0.7s0.8-0.3,1.2-0.3c1.6,0,2.3,0.8,2.3,2.4V132.2z"/>
		<path class="st3" d="M366.1,139.7h1.5l1.3,3.7c0.2,0.5,0.3,1,0.4,1.5h0c0-0.2,0.1-0.5,0.2-0.8s0.6-1.8,1.5-4.4h1.5l-2.8,7.3
			c-0.5,1.3-1.3,2-2.5,2c-0.3,0-0.6,0-0.9-0.1v-1.1c0.2,0,0.4,0.1,0.7,0.1c0.7,0,1.1-0.4,1.4-1.2l0.2-0.6L366.1,139.7z"/>
		<path class="st3" d="M379.3,139.6c0.3,0,0.5,0,0.7,0.1l-0.1,1.3c-0.2,0-0.4-0.1-0.6-0.1c-0.6,0-1,0.2-1.3,0.5s-0.5,0.8-0.5,1.4
			v3.4H376v-6.5h1.1l0.2,1.1h0.1c0.2-0.4,0.5-0.7,0.8-0.9S378.9,139.6,379.3,139.6z"/>
		<path class="st3" d="M383.8,146.3c-1,0-1.8-0.3-2.4-0.9s-0.9-1.4-0.9-2.4c0-1.1,0.3-1.9,0.8-2.5s1.3-0.9,2.2-0.9
			c0.9,0,1.5,0.3,2,0.8s0.7,1.2,0.7,2.1v0.7H382c0,0.6,0.2,1.1,0.5,1.5s0.8,0.5,1.4,0.5c0.4,0,0.7,0,1.1-0.1s0.7-0.2,1.1-0.4v1.1
			c-0.3,0.2-0.7,0.3-1,0.3S384.2,146.3,383.8,146.3z M383.5,140.6c-0.4,0-0.8,0.1-1.1,0.4s-0.4,0.7-0.5,1.2h2.9
			c0-0.5-0.1-0.9-0.4-1.2S383.9,140.6,383.5,140.6z"/>
		<path class="st3" d="M393,139.7v0.8l-1.1,0.2c0.1,0.1,0.2,0.3,0.3,0.5s0.1,0.4,0.1,0.6c0,0.7-0.2,1.2-0.7,1.6s-1.1,0.6-1.9,0.6
			c-0.2,0-0.4,0-0.6,0c-0.3,0.2-0.4,0.4-0.4,0.6c0,0.1,0.1,0.3,0.2,0.3s0.4,0.1,0.8,0.1h1.1c0.7,0,1.3,0.2,1.6,0.5s0.6,0.7,0.6,1.3
			c0,0.7-0.3,1.3-0.9,1.7s-1.5,0.6-2.6,0.6c-0.9,0-1.6-0.2-2-0.5s-0.7-0.8-0.7-1.3c0-0.4,0.1-0.7,0.4-1s0.6-0.5,1.1-0.6
			c-0.2-0.1-0.3-0.2-0.5-0.4s-0.2-0.4-0.2-0.5c0-0.2,0.1-0.4,0.2-0.6s0.3-0.3,0.6-0.5c-0.3-0.1-0.6-0.4-0.8-0.7s-0.3-0.7-0.3-1.1
			c0-0.7,0.2-1.2,0.7-1.6s1.1-0.6,1.9-0.6c0.2,0,0.4,0,0.6,0s0.4,0.1,0.5,0.1H393z M387.9,147.2c0,0.3,0.1,0.5,0.4,0.7
			s0.6,0.2,1.1,0.2c0.8,0,1.3-0.1,1.7-0.3s0.6-0.5,0.6-0.9c0-0.3-0.1-0.5-0.3-0.6s-0.6-0.2-1.1-0.2h-1c-0.4,0-0.7,0.1-0.9,0.3
			S387.9,146.8,387.9,147.2z M388.5,141.8c0,0.4,0.1,0.7,0.3,0.9s0.5,0.3,0.9,0.3c0.8,0,1.2-0.4,1.2-1.3c0-0.4-0.1-0.7-0.3-1
			s-0.5-0.3-0.9-0.3c-0.4,0-0.7,0.1-0.9,0.3S388.5,141.3,388.5,141.8z"/>
		<path class="st3" d="M393.8,138c0-0.2,0.1-0.4,0.2-0.6s0.3-0.2,0.6-0.2c0.2,0,0.4,0.1,0.6,0.2s0.2,0.3,0.2,0.6
			c0,0.2-0.1,0.4-0.2,0.6s-0.3,0.2-0.6,0.2c-0.2,0-0.4-0.1-0.6-0.2S393.8,138.2,393.8,138z M395.3,146.2h-1.4v-6.5h1.4V146.2z"/>
		<path class="st3" d="M401.3,144.3c0,0.6-0.2,1.1-0.7,1.5s-1.1,0.5-2,0.5c-0.9,0-1.6-0.1-2.1-0.4v-1.2c0.8,0.4,1.5,0.5,2.1,0.5
			c0.8,0,1.3-0.3,1.3-0.8c0-0.2,0-0.3-0.1-0.4s-0.2-0.2-0.5-0.3s-0.5-0.2-0.9-0.4c-0.7-0.3-1.3-0.6-1.5-0.9s-0.4-0.7-0.4-1.1
			c0-0.6,0.2-1,0.7-1.3s1.1-0.5,1.8-0.5c0.8,0,1.5,0.2,2.2,0.5l-0.4,1c-0.7-0.3-1.3-0.4-1.8-0.4c-0.7,0-1.1,0.2-1.1,0.6
			c0,0.2,0.1,0.4,0.3,0.5s0.6,0.3,1.2,0.6c0.5,0.2,0.9,0.4,1.2,0.6s0.4,0.4,0.5,0.6S401.3,144,401.3,144.3z"/>
		<path class="st3" d="M404.9,145.2c0.3,0,0.7-0.1,1-0.2v1c-0.2,0.1-0.3,0.1-0.6,0.2s-0.5,0.1-0.7,0.1c-1.3,0-2-0.7-2-2.1v-3.5h-0.9
			v-0.6l0.9-0.5l0.5-1.4h0.8v1.4h1.8v1H404v3.5c0,0.3,0.1,0.6,0.2,0.7S404.6,145.2,404.9,145.2z"/>
		<path class="st3" d="M410.2,139.6c0.3,0,0.5,0,0.7,0.1l-0.1,1.3c-0.2,0-0.4-0.1-0.6-0.1c-0.6,0-1,0.2-1.3,0.5s-0.5,0.8-0.5,1.4
			v3.4h-1.4v-6.5h1.1l0.2,1.1h0.1c0.2-0.4,0.5-0.7,0.8-0.9S409.8,139.6,410.2,139.6z"/>
		<path class="st3" d="M417.5,142.9c0,1.1-0.3,1.9-0.8,2.5s-1.3,0.9-2.3,0.9c-0.6,0-1.1-0.1-1.6-0.4s-0.8-0.7-1.1-1.2
			s-0.4-1.1-0.4-1.8c0-1.1,0.3-1.9,0.8-2.5s1.3-0.9,2.3-0.9c0.9,0,1.7,0.3,2.2,0.9S417.5,141.9,417.5,142.9z M412.8,142.9
			c0,1.5,0.6,2.2,1.7,2.2c1.1,0,1.6-0.7,1.6-2.2c0-1.5-0.6-2.2-1.7-2.2c-0.6,0-1,0.2-1.3,0.6S412.8,142.2,412.8,142.9z"/>
		<path class="st3" d="M424.5,146.3c-1,0-1.8-0.3-2.4-0.9s-0.9-1.4-0.9-2.4c0-1.1,0.3-1.9,0.8-2.5s1.3-0.9,2.2-0.9
			c0.9,0,1.5,0.3,2,0.8s0.7,1.2,0.7,2.1v0.7h-4.3c0,0.6,0.2,1.1,0.5,1.5s0.8,0.5,1.4,0.5c0.4,0,0.7,0,1.1-0.1s0.7-0.2,1.1-0.4v1.1
			c-0.3,0.2-0.7,0.3-1,0.3S424.9,146.3,424.5,146.3z M424.2,140.6c-0.4,0-0.8,0.1-1.1,0.4s-0.4,0.7-0.5,1.2h2.9
			c0-0.5-0.1-0.9-0.4-1.2S424.6,140.6,424.2,140.6z"/>
		<path class="st3" d="M433.9,146.2h-1.4v-4c0-0.5-0.1-0.9-0.3-1.1s-0.5-0.4-1-0.4c-0.6,0-1,0.2-1.3,0.5s-0.4,0.9-0.4,1.7v3.2h-1.4
			v-6.5h1.1l0.2,0.8h0.1c0.2-0.3,0.5-0.5,0.8-0.7s0.8-0.3,1.2-0.3c1.6,0,2.3,0.8,2.3,2.4V146.2z"/>
		<path class="st3" d="M441.2,146.3c-1,0-1.8-0.3-2.4-0.9S438,144,438,143c0-1.1,0.3-1.9,0.8-2.5s1.3-0.9,2.2-0.9
			c0.9,0,1.5,0.3,2,0.8s0.7,1.2,0.7,2.1v0.7h-4.3c0,0.6,0.2,1.1,0.5,1.5s0.8,0.5,1.4,0.5c0.4,0,0.7,0,1.1-0.1s0.7-0.2,1.1-0.4v1.1
			c-0.3,0.2-0.7,0.3-1,0.3S441.7,146.3,441.2,146.3z M441,140.6c-0.4,0-0.8,0.1-1.1,0.4s-0.4,0.7-0.5,1.2h2.9c0-0.5-0.1-0.9-0.4-1.2
			S441.4,140.6,441,140.6z"/>
		<path class="st3" d="M446.4,146.2H445V137h1.4V146.2z"/>
		<path class="st3" d="M367.2,151.6h2.5c1.2,0,2,0.2,2.6,0.5s0.8,0.9,0.8,1.6c0,0.5-0.1,0.9-0.4,1.2s-0.6,0.5-1.1,0.6v0.1
			c0.6,0.1,1,0.3,1.3,0.7s0.4,0.8,0.4,1.4c0,0.8-0.3,1.4-0.8,1.8s-1.3,0.7-2.2,0.7h-3.1V151.6z M368.6,155.1h1.3
			c0.6,0,1-0.1,1.3-0.3s0.4-0.5,0.4-0.9c0-0.4-0.1-0.7-0.4-0.9s-0.8-0.3-1.4-0.3h-1.2V155.1z M368.6,156.3v2.7h1.5
			c0.6,0,1-0.1,1.3-0.3s0.4-0.6,0.4-1.1c0-0.4-0.2-0.8-0.5-1s-0.8-0.3-1.4-0.3H368.6z"/>
		<path class="st3" d="M378.8,160.2l-0.3-0.9h0c-0.3,0.4-0.6,0.7-0.9,0.8s-0.7,0.2-1.2,0.2c-0.6,0-1.1-0.2-1.5-0.5s-0.5-0.8-0.5-1.5
			c0-0.7,0.2-1.2,0.7-1.5s1.3-0.5,2.3-0.6l1.1,0v-0.3c0-0.4-0.1-0.7-0.3-0.9s-0.5-0.3-0.9-0.3c-0.3,0-0.7,0-1,0.1s-0.6,0.2-0.9,0.3
			l-0.4-1c0.4-0.2,0.7-0.3,1.2-0.4s0.8-0.1,1.2-0.1c0.8,0,1.4,0.2,1.9,0.5s0.6,0.9,0.6,1.7v4.4H378.8z M376.7,159.2
			c0.5,0,0.9-0.1,1.2-0.4s0.5-0.7,0.5-1.2v-0.6l-0.8,0c-0.6,0-1.1,0.1-1.4,0.3s-0.4,0.5-0.4,0.9c0,0.3,0.1,0.5,0.3,0.7
			S376.4,159.2,376.7,159.2z"/>
		<path class="st3" d="M387.1,160.2h-1.4v-4c0-0.5-0.1-0.9-0.3-1.1s-0.5-0.4-1-0.4c-0.6,0-1,0.2-1.3,0.5s-0.4,0.9-0.4,1.7v3.2h-1.4
			v-6.5h1.1l0.2,0.8h0.1c0.2-0.3,0.5-0.5,0.8-0.7s0.8-0.3,1.2-0.3c1.6,0,2.3,0.8,2.3,2.4V160.2z"/>
		<path class="st3" d="M391.3,160.3c-1,0-1.7-0.3-2.2-0.9s-0.8-1.4-0.8-2.5c0-1.1,0.3-1.9,0.8-2.5s1.3-0.9,2.3-0.9
			c0.7,0,1.3,0.1,1.8,0.4l-0.4,1.1c-0.6-0.2-1.1-0.3-1.4-0.3c-1.1,0-1.7,0.7-1.7,2.2c0,0.7,0.1,1.3,0.4,1.6s0.7,0.5,1.2,0.5
			c0.6,0,1.2-0.2,1.7-0.5v1.2c-0.2,0.1-0.5,0.2-0.8,0.3S391.7,160.3,391.3,160.3z"/>
		<path class="st3" d="M400.1,156.9c0,1.1-0.3,1.9-0.8,2.5s-1.3,0.9-2.3,0.9c-0.6,0-1.1-0.1-1.6-0.4s-0.8-0.7-1.1-1.2
			s-0.4-1.1-0.4-1.8c0-1.1,0.3-1.9,0.8-2.5s1.3-0.9,2.3-0.9c0.9,0,1.7,0.3,2.2,0.9S400.1,155.9,400.1,156.9z M395.4,156.9
			c0,1.5,0.6,2.2,1.7,2.2c1.1,0,1.6-0.7,1.6-2.2c0-1.5-0.6-2.2-1.7-2.2c-0.6,0-1,0.2-1.3,0.6S395.4,156.2,395.4,156.9z"/>
		<path class="st3" d="M406.4,160.3c-0.8,0-1.4-0.3-1.9-0.9s-0.7-1.4-0.7-2.5c0-1.1,0.2-1.9,0.7-2.5s1.1-0.9,1.9-0.9
			c0.9,0,1.5,0.3,1.9,0.9h0.1c-0.1-0.5-0.1-0.8-0.1-1.1V151h1.4v9.1h-1.1l-0.2-0.8h-0.1C407.9,160,407.2,160.3,406.4,160.3z
			 M406.7,159.2c0.6,0,1-0.2,1.2-0.5s0.4-0.8,0.4-1.5v-0.2c0-0.8-0.1-1.4-0.4-1.7s-0.7-0.5-1.2-0.5c-0.5,0-0.9,0.2-1.1,0.6
			s-0.4,1-0.4,1.7c0,0.7,0.1,1.3,0.4,1.6S406.2,159.2,406.7,159.2z"/>
		<path class="st3" d="M414.2,160.3c-1,0-1.8-0.3-2.4-0.9S411,158,411,157c0-1.1,0.3-1.9,0.8-2.5s1.3-0.9,2.2-0.9
			c0.9,0,1.5,0.3,2,0.8s0.7,1.2,0.7,2.1v0.7h-4.3c0,0.6,0.2,1.1,0.5,1.5s0.8,0.5,1.4,0.5c0.4,0,0.7,0,1.1-0.1s0.7-0.2,1.1-0.4v1.1
			c-0.3,0.2-0.7,0.3-1,0.3S414.6,160.3,414.2,160.3z M413.9,154.6c-0.4,0-0.8,0.1-1.1,0.4s-0.4,0.7-0.5,1.2h2.9
			c0-0.5-0.1-0.9-0.4-1.2S414.4,154.6,413.9,154.6z"/>
		<path class="st3" d="M372.9,168.2c0,0.9-0.3,1.6-0.9,2.1s-1.4,0.7-2.5,0.7h-0.9v3.2h-1.4v-8.6h2.5c1.1,0,1.9,0.2,2.4,0.7
			S372.9,167.3,372.9,168.2z M368.6,169.8h0.7c0.7,0,1.2-0.1,1.6-0.4s0.5-0.6,0.5-1.2c0-0.5-0.2-0.9-0.5-1.1s-0.8-0.4-1.4-0.4h-1
			V169.8z"/>
		<path class="st3" d="M377.5,167.6c0.3,0,0.5,0,0.7,0.1l-0.1,1.3c-0.2,0-0.4-0.1-0.6-0.1c-0.6,0-1,0.2-1.3,0.5s-0.5,0.8-0.5,1.4
			v3.4h-1.4v-6.5h1.1l0.2,1.1h0.1c0.2-0.4,0.5-0.7,0.8-0.9S377.1,167.6,377.5,167.6z"/>
		<path class="st3" d="M384.8,170.9c0,1.1-0.3,1.9-0.8,2.5s-1.3,0.9-2.3,0.9c-0.6,0-1.1-0.1-1.6-0.4s-0.8-0.7-1.1-1.2
			s-0.4-1.1-0.4-1.8c0-1.1,0.3-1.9,0.8-2.5s1.3-0.9,2.3-0.9c0.9,0,1.7,0.3,2.2,0.9S384.8,169.9,384.8,170.9z M380.1,170.9
			c0,1.5,0.6,2.2,1.7,2.2c1.1,0,1.6-0.7,1.6-2.2c0-1.5-0.6-2.2-1.7-2.2c-0.6,0-1,0.2-1.3,0.6S380.1,170.2,380.1,170.9z"/>
		<path class="st3" d="M385.1,167.7h1.5l1.3,3.7c0.2,0.5,0.3,1,0.4,1.5h0c0-0.2,0.1-0.5,0.2-0.8s0.6-1.8,1.5-4.4h1.5l-2.8,7.3
			c-0.5,1.3-1.3,2-2.5,2c-0.3,0-0.6,0-0.9-0.1v-1.1c0.2,0,0.4,0.1,0.7,0.1c0.7,0,1.1-0.4,1.4-1.2l0.2-0.6L385.1,167.7z"/>
		<path class="st3" d="M395,174.3c-1,0-1.8-0.3-2.4-0.9s-0.9-1.4-0.9-2.4c0-1.1,0.3-1.9,0.8-2.5s1.3-0.9,2.2-0.9
			c0.9,0,1.5,0.3,2,0.8s0.7,1.2,0.7,2.1v0.7h-4.3c0,0.6,0.2,1.1,0.5,1.5s0.8,0.5,1.4,0.5c0.4,0,0.7,0,1.1-0.1s0.7-0.2,1.1-0.4v1.1
			c-0.3,0.2-0.7,0.3-1,0.3S395.5,174.3,395,174.3z M394.8,168.6c-0.4,0-0.8,0.1-1.1,0.4s-0.4,0.7-0.5,1.2h2.9c0-0.5-0.1-0.9-0.4-1.2
			S395.2,168.6,394.8,168.6z"/>
		<path class="st3" d="M401.4,174.3c-1,0-1.7-0.3-2.2-0.9s-0.8-1.4-0.8-2.5c0-1.1,0.3-1.9,0.8-2.5s1.3-0.9,2.3-0.9
			c0.7,0,1.3,0.1,1.8,0.4L403,169c-0.6-0.2-1.1-0.3-1.4-0.3c-1.1,0-1.7,0.7-1.7,2.2c0,0.7,0.1,1.3,0.4,1.6s0.7,0.5,1.2,0.5
			c0.6,0,1.2-0.2,1.7-0.5v1.2c-0.2,0.1-0.5,0.2-0.8,0.3S401.8,174.3,401.4,174.3z"/>
		<path class="st3" d="M406.9,173.2c0.3,0,0.7-0.1,1-0.2v1c-0.2,0.1-0.3,0.1-0.6,0.2s-0.5,0.1-0.7,0.1c-1.3,0-2-0.7-2-2.1v-3.5h-0.9
			v-0.6l0.9-0.5l0.5-1.4h0.8v1.4h1.8v1H406v3.5c0,0.3,0.1,0.6,0.2,0.7S406.6,173.2,406.9,173.2z"/>
		<path class="st3" d="M414.6,170.9c0,1.1-0.3,1.9-0.8,2.5s-1.3,0.9-2.3,0.9c-0.6,0-1.1-0.1-1.6-0.4s-0.8-0.7-1.1-1.2
			s-0.4-1.1-0.4-1.8c0-1.1,0.3-1.9,0.8-2.5s1.3-0.9,2.3-0.9c0.9,0,1.7,0.3,2.2,0.9S414.6,169.9,414.6,170.9z M409.9,170.9
			c0,1.5,0.6,2.2,1.7,2.2c1.1,0,1.6-0.7,1.6-2.2c0-1.5-0.6-2.2-1.7-2.2c-0.6,0-1,0.2-1.3,0.6S409.9,170.2,409.9,170.9z"/>
		<path class="st3" d="M420.3,172.3c0,0.6-0.2,1.1-0.7,1.5s-1.1,0.5-2,0.5c-0.9,0-1.6-0.1-2.1-0.4v-1.2c0.8,0.4,1.5,0.5,2.1,0.5
			c0.8,0,1.3-0.3,1.3-0.8c0-0.2,0-0.3-0.1-0.4s-0.2-0.2-0.5-0.3s-0.5-0.2-0.9-0.4c-0.7-0.3-1.3-0.6-1.5-0.9s-0.4-0.7-0.4-1.1
			c0-0.6,0.2-1,0.7-1.3s1.1-0.5,1.8-0.5c0.8,0,1.5,0.2,2.2,0.5l-0.4,1c-0.7-0.3-1.3-0.4-1.8-0.4c-0.7,0-1.1,0.2-1.1,0.6
			c0,0.2,0.1,0.4,0.3,0.5s0.6,0.3,1.2,0.6c0.5,0.2,0.9,0.4,1.2,0.6s0.4,0.4,0.5,0.6S420.3,172,420.3,172.3z"/>
		<path class="st3" d="M421.3,173.4c0-0.3,0.1-0.5,0.2-0.7s0.4-0.2,0.6-0.2c0.3,0,0.5,0.1,0.7,0.2s0.2,0.4,0.2,0.6
			c0,0.3-0.1,0.5-0.2,0.7s-0.4,0.2-0.6,0.2s-0.5-0.1-0.6-0.2S421.3,173.7,421.3,173.4z"/>
	</g>
	<g>
		<path class="st3" d="M516.1,101.8c0,0.8-0.3,1.4-0.8,1.8s-1.2,0.7-2.2,0.7c-0.9,0-1.7-0.2-2.3-0.5v-1.3c0.4,0.2,0.8,0.3,1.2,0.4
			c0.4,0.1,0.8,0.2,1.2,0.2c0.5,0,0.9-0.1,1.2-0.3c0.3-0.2,0.4-0.5,0.4-0.8c0-0.3-0.1-0.6-0.3-0.8c-0.2-0.2-0.7-0.5-1.4-0.8
			c-0.7-0.3-1.3-0.7-1.6-1.1s-0.5-0.9-0.5-1.5c0-0.7,0.2-1.3,0.7-1.7s1.1-0.6,1.9-0.6c0.8,0,1.6,0.2,2.3,0.5l-0.4,1.1
			c-0.7-0.3-1.4-0.5-1.9-0.5c-0.4,0-0.8,0.1-1,0.3s-0.3,0.5-0.3,0.8c0,0.2,0,0.4,0.1,0.6c0.1,0.2,0.2,0.3,0.4,0.4s0.6,0.3,1.1,0.6
			c0.6,0.3,1,0.5,1.3,0.7s0.5,0.5,0.6,0.8S516.1,101.4,516.1,101.8z"/>
		<path class="st3" d="M519.9,104.3c-1,0-1.7-0.3-2.2-0.9c-0.5-0.6-0.8-1.4-0.8-2.4c0-1.1,0.3-1.9,0.8-2.5s1.2-0.9,2.1-0.9
			c0.8,0,1.5,0.3,1.9,0.8c0.5,0.5,0.7,1.2,0.7,2.1v0.7h-4.1c0,0.6,0.2,1.1,0.5,1.5c0.3,0.3,0.7,0.5,1.3,0.5c0.4,0,0.7,0,1-0.1
			s0.7-0.2,1-0.4v1.1c-0.3,0.2-0.6,0.3-1,0.3S520.3,104.3,519.9,104.3z M519.7,98.6c-0.4,0-0.7,0.1-1,0.4c-0.2,0.3-0.4,0.7-0.4,1.2
			h2.8c0-0.5-0.1-0.9-0.4-1.2C520.4,98.7,520.1,98.6,519.7,98.6z"/>
		<path class="st3" d="M524.8,104.2h-1.3V95h1.3V104.2z"/>
		<path class="st3" d="M529.1,104.3c-1,0-1.7-0.3-2.2-0.9c-0.5-0.6-0.8-1.4-0.8-2.4c0-1.1,0.3-1.9,0.8-2.5s1.2-0.9,2.1-0.9
			c0.8,0,1.5,0.3,1.9,0.8c0.5,0.5,0.7,1.2,0.7,2.1v0.7h-4.1c0,0.6,0.2,1.1,0.5,1.5c0.3,0.3,0.7,0.5,1.3,0.5c0.4,0,0.7,0,1-0.1
			s0.7-0.2,1-0.4v1.1c-0.3,0.2-0.6,0.3-1,0.3S529.5,104.3,529.1,104.3z M528.8,98.6c-0.4,0-0.7,0.1-1,0.4c-0.2,0.3-0.4,0.7-0.4,1.2
			h2.8c0-0.5-0.1-0.9-0.4-1.2C529.6,98.7,529.3,98.6,528.8,98.6z"/>
		<path class="st3" d="M535.2,104.3c-0.9,0-1.6-0.3-2.1-0.9s-0.7-1.4-0.7-2.5c0-1.1,0.3-1.9,0.8-2.5c0.5-0.6,1.2-0.9,2.2-0.9
			c0.6,0,1.2,0.1,1.8,0.4l-0.4,1.1c-0.6-0.2-1-0.3-1.4-0.3c-1.1,0-1.6,0.7-1.6,2.2c0,0.7,0.1,1.3,0.4,1.6s0.7,0.5,1.2,0.5
			c0.6,0,1.1-0.2,1.7-0.5v1.2c-0.2,0.1-0.5,0.2-0.7,0.3C535.9,104.2,535.5,104.3,535.2,104.3z"/>
		<path class="st3" d="M540.5,104.3c-0.9,0-1.6-0.3-2.1-0.9c-0.5-0.6-0.7-1.4-0.7-2.5c0-1.1,0.3-1.9,0.8-2.5
			c0.5-0.6,1.2-0.9,2.2-0.9c0.6,0,1.2,0.1,1.8,0.4L542,99c-0.6-0.2-1-0.3-1.4-0.3c-1.1,0-1.6,0.7-1.6,2.2c0,0.7,0.1,1.3,0.4,1.6
			c0.3,0.4,0.7,0.5,1.2,0.5c0.6,0,1.1-0.2,1.7-0.5v1.2c-0.2,0.1-0.5,0.2-0.7,0.3S540.9,104.3,540.5,104.3z"/>
		<path class="st3" d="M543.3,96c0-0.2,0.1-0.4,0.2-0.6s0.3-0.2,0.5-0.2c0.2,0,0.4,0.1,0.5,0.2s0.2,0.3,0.2,0.6
			c0,0.2-0.1,0.4-0.2,0.6s-0.3,0.2-0.5,0.2c-0.2,0-0.4-0.1-0.5-0.2S543.3,96.2,543.3,96z M544.7,104.2h-1.3v-6.5h1.3V104.2z"/>
		<path class="st3" d="M551.7,100.9c0,1.1-0.3,1.9-0.8,2.5s-1.2,0.9-2.2,0.9c-0.6,0-1.1-0.1-1.5-0.4s-0.8-0.7-1-1.2
			s-0.4-1.1-0.4-1.8c0-1.1,0.3-1.9,0.8-2.5c0.5-0.6,1.2-0.9,2.2-0.9c0.9,0,1.6,0.3,2.1,0.9S551.7,99.9,551.7,100.9z M547.3,100.9
			c0,1.5,0.5,2.2,1.6,2.2c1,0,1.6-0.7,1.6-2.2c0-1.5-0.5-2.2-1.6-2.2c-0.5,0-0.9,0.2-1.2,0.6C547.4,99.6,547.3,100.2,547.3,100.9z
			 M548,96.9v-0.1c0.2-0.3,0.4-0.6,0.7-0.9c0.2-0.3,0.4-0.6,0.5-0.9h1.5v0.1c-0.2,0.2-0.5,0.5-0.9,0.9c-0.4,0.4-0.7,0.7-1,0.9H548z"
			/>
		<path class="st3" d="M558.4,104.2h-1.3v-4c0-0.5-0.1-0.9-0.3-1.1c-0.2-0.2-0.5-0.4-0.9-0.4c-0.6,0-1,0.2-1.2,0.5s-0.4,0.9-0.4,1.7
			v3.2H553v-6.5h1l0.2,0.8h0.1c0.2-0.3,0.4-0.5,0.8-0.7s0.7-0.3,1.1-0.3c1.5,0,2.2,0.8,2.2,2.4V104.2z"/>
		<path class="st3" d="M513.3,118.3c-0.8,0-1.4-0.3-1.8-0.9s-0.6-1.4-0.6-2.5c0-1.1,0.2-1.9,0.7-2.5c0.4-0.6,1-0.9,1.8-0.9
			c0.8,0,1.4,0.3,1.8,0.9h0.1c-0.1-0.5-0.1-0.8-0.1-1.1V109h1.3v9.1h-1l-0.2-0.8h-0.1C514.7,118,514.1,118.3,513.3,118.3z
			 M513.7,117.2c0.5,0,0.9-0.2,1.2-0.5s0.4-0.8,0.4-1.5v-0.2c0-0.8-0.1-1.4-0.4-1.7c-0.3-0.3-0.6-0.5-1.2-0.5
			c-0.5,0-0.8,0.2-1.1,0.6c-0.2,0.4-0.4,1-0.4,1.7c0,0.7,0.1,1.3,0.4,1.6S513.2,117.2,513.7,117.2z"/>
		<path class="st3" d="M520.7,118.3c-1,0-1.7-0.3-2.2-0.9c-0.5-0.6-0.8-1.4-0.8-2.4c0-1.1,0.3-1.9,0.8-2.5s1.2-0.9,2.1-0.9
			c0.8,0,1.5,0.3,1.9,0.8c0.5,0.5,0.7,1.2,0.7,2.1v0.7H519c0,0.6,0.2,1.1,0.5,1.4c0.3,0.3,0.7,0.5,1.3,0.5c0.4,0,0.7,0,1-0.1
			s0.7-0.2,1-0.4v1.1c-0.3,0.2-0.6,0.3-1,0.3S521.2,118.3,520.7,118.3z M520.5,112.6c-0.4,0-0.7,0.1-1,0.4c-0.2,0.3-0.4,0.7-0.4,1.2
			h2.8c0-0.5-0.1-0.9-0.4-1.2C521.2,112.7,520.9,112.6,520.5,112.6z"/>
		<path class="st3" d="M532.5,112.2c0,0.9-0.3,1.6-0.8,2.1s-1.3,0.7-2.4,0.7h-0.8v3.2h-1.3v-8.6h2.3c1,0,1.8,0.2,2.3,0.7
			C532.3,110.7,532.5,111.3,532.5,112.2z M528.5,113.8h0.7c0.7,0,1.2-0.1,1.5-0.4c0.3-0.2,0.5-0.6,0.5-1.2c0-0.5-0.1-0.9-0.4-1.1
			c-0.3-0.2-0.7-0.4-1.3-0.4h-0.9V113.8z"/>
		<path class="st3" d="M536.9,111.6c0.3,0,0.5,0,0.7,0.1l-0.1,1.3c-0.2,0-0.4-0.1-0.6-0.1c-0.5,0-0.9,0.2-1.3,0.5
			c-0.3,0.4-0.5,0.8-0.5,1.4v3.4h-1.3v-6.5h1l0.2,1.1h0.1c0.2-0.4,0.5-0.7,0.8-0.9C536.1,111.7,536.5,111.6,536.9,111.6z"/>
		<path class="st3" d="M543.8,114.9c0,1.1-0.3,1.9-0.8,2.5s-1.2,0.9-2.2,0.9c-0.6,0-1.1-0.1-1.5-0.4c-0.4-0.3-0.8-0.7-1-1.2
			c-0.2-0.5-0.4-1.1-0.4-1.8c0-1.1,0.3-1.9,0.8-2.5c0.5-0.6,1.2-0.9,2.2-0.9c0.9,0,1.6,0.3,2.1,0.9
			C543.6,113.1,543.8,113.9,543.8,114.9z M539.3,114.9c0,1.5,0.5,2.2,1.6,2.2c1,0,1.6-0.7,1.6-2.2c0-1.5-0.5-2.2-1.6-2.2
			c-0.5,0-0.9,0.2-1.2,0.6C539.5,113.6,539.3,114.2,539.3,114.9z"/>
		<path class="st3" d="M544.1,111.7h1.4l1.3,3.7c0.2,0.5,0.3,1,0.4,1.5h0c0-0.2,0.1-0.5,0.2-0.8s0.6-1.8,1.4-4.4h1.4l-2.6,7.3
			c-0.5,1.3-1.3,2-2.4,2c-0.3,0-0.6,0-0.8-0.1v-1.1c0.2,0,0.4,0.1,0.7,0.1c0.6,0,1.1-0.4,1.3-1.2l0.2-0.6L544.1,111.7z"/>
		<path class="st3" d="M553.6,118.3c-1,0-1.7-0.3-2.2-0.9s-0.8-1.4-0.8-2.4c0-1.1,0.2-1.9,0.8-2.5s1.2-0.9,2.1-0.9
			c0.8,0,1.5,0.3,1.9,0.8s0.7,1.2,0.7,2.1v0.7h-4.1c0,0.6,0.2,1.1,0.5,1.4c0.3,0.3,0.7,0.5,1.3,0.5c0.4,0,0.7,0,1-0.1s0.7-0.2,1-0.4
			v1.1c-0.3,0.2-0.6,0.3-1,0.3C554.4,118.2,554,118.3,553.6,118.3z M553.3,112.6c-0.4,0-0.7,0.1-1,0.4c-0.3,0.3-0.4,0.7-0.4,1.2h2.8
			c0-0.5-0.1-0.9-0.4-1.2S553.7,112.6,553.3,112.6z"/>
		<path class="st3" d="M559.6,118.3c-0.9,0-1.6-0.3-2.1-0.9s-0.7-1.4-0.7-2.5c0-1.1,0.3-1.9,0.8-2.5c0.5-0.6,1.2-0.9,2.2-0.9
			c0.6,0,1.2,0.1,1.8,0.4l-0.4,1.1c-0.6-0.2-1-0.3-1.4-0.3c-1.1,0-1.6,0.7-1.6,2.2c0,0.7,0.1,1.3,0.4,1.6s0.7,0.5,1.2,0.5
			c0.6,0,1.1-0.2,1.7-0.5v1.2c-0.2,0.1-0.5,0.2-0.7,0.3C560.3,118.2,560,118.3,559.6,118.3z"/>
		<path class="st3" d="M564.8,117.2c0.3,0,0.6-0.1,1-0.2v1c-0.1,0.1-0.3,0.1-0.6,0.2c-0.2,0-0.5,0.1-0.7,0.1c-1.2,0-1.9-0.7-1.9-2.1
			v-3.5h-0.8v-0.6l0.9-0.5l0.4-1.4h0.8v1.4h1.8v1H564v3.5c0,0.3,0.1,0.6,0.2,0.7C564.3,117.1,564.6,117.2,564.8,117.2z"/>
		<path class="st3" d="M572.2,114.9c0,1.1-0.3,1.9-0.8,2.5s-1.2,0.9-2.2,0.9c-0.6,0-1.1-0.1-1.5-0.4c-0.4-0.3-0.8-0.7-1-1.2
			c-0.2-0.5-0.4-1.1-0.4-1.8c0-1.1,0.3-1.9,0.8-2.5c0.5-0.6,1.2-0.9,2.2-0.9c0.9,0,1.6,0.3,2.1,0.9
			C571.9,113.1,572.2,113.9,572.2,114.9z M567.7,114.9c0,1.5,0.5,2.2,1.6,2.2c1,0,1.6-0.7,1.6-2.2c0-1.5-0.5-2.2-1.6-2.2
			c-0.5,0-0.9,0.2-1.2,0.6C567.8,113.6,567.7,114.2,567.7,114.9z"/>
		<path class="st3" d="M577.5,116.3c0,0.6-0.2,1.1-0.7,1.5c-0.4,0.3-1.1,0.5-1.9,0.5c-0.8,0-1.5-0.1-2-0.4v-1.2
			c0.7,0.4,1.4,0.5,2,0.5c0.8,0,1.2-0.3,1.2-0.8c0-0.2,0-0.3-0.1-0.4c-0.1-0.1-0.2-0.2-0.4-0.3s-0.5-0.2-0.9-0.4
			c-0.7-0.3-1.2-0.6-1.4-0.9c-0.3-0.3-0.4-0.7-0.4-1.1c0-0.6,0.2-1,0.6-1.3c0.4-0.3,1-0.5,1.7-0.5c0.7,0,1.4,0.2,2.1,0.5l-0.4,1
			c-0.7-0.3-1.2-0.4-1.7-0.4c-0.7,0-1,0.2-1,0.6c0,0.2,0.1,0.4,0.3,0.5c0.2,0.1,0.6,0.3,1.2,0.6c0.5,0.2,0.9,0.4,1.1,0.6
			c0.2,0.2,0.4,0.4,0.5,0.6S577.5,116,577.5,116.3z"/>
		<path class="st3" d="M580,116.9c-0.2,0.7-0.5,1.7-1,2.8h-1c0.3-1.1,0.4-2,0.6-2.9h1.3L580,116.9z"/>
		<path class="st3" d="M515.4,130.3c0,0.6-0.2,1.1-0.7,1.5c-0.4,0.3-1.1,0.5-1.9,0.5c-0.8,0-1.5-0.1-2-0.4v-1.2
			c0.7,0.4,1.4,0.5,2,0.5c0.8,0,1.2-0.3,1.2-0.8c0-0.2,0-0.3-0.1-0.4s-0.2-0.2-0.4-0.3s-0.5-0.2-0.9-0.4c-0.7-0.3-1.2-0.6-1.4-0.9
			c-0.2-0.3-0.4-0.7-0.4-1.1c0-0.6,0.2-1,0.6-1.3s1-0.5,1.7-0.5c0.7,0,1.4,0.2,2.1,0.5l-0.4,1c-0.7-0.3-1.2-0.4-1.7-0.4
			c-0.7,0-1,0.2-1,0.6c0,0.2,0.1,0.4,0.3,0.5s0.6,0.3,1.2,0.6c0.5,0.2,0.9,0.4,1.1,0.6s0.4,0.4,0.5,0.6S515.4,130,515.4,130.3z"/>
		<path class="st3" d="M522,128.9c0,1.1-0.3,1.9-0.8,2.5s-1.2,0.9-2.2,0.9c-0.6,0-1.1-0.1-1.5-0.4s-0.8-0.7-1-1.2s-0.4-1.1-0.4-1.8
			c0-1.1,0.3-1.9,0.8-2.5c0.5-0.6,1.2-0.9,2.2-0.9c0.9,0,1.6,0.3,2.1,0.9S522,127.9,522,128.9z M517.5,128.9c0,1.5,0.5,2.2,1.6,2.2
			c1,0,1.6-0.7,1.6-2.2c0-1.5-0.5-2.2-1.6-2.2c-0.5,0-0.9,0.2-1.2,0.6C517.6,127.6,517.5,128.2,517.5,128.9z"/>
		<path class="st3" d="M524.5,132.2h-1.3V123h1.3V132.2z"/>
		<path class="st3" d="M526,124c0-0.2,0.1-0.4,0.2-0.6s0.3-0.2,0.5-0.2c0.2,0,0.4,0.1,0.5,0.2s0.2,0.3,0.2,0.6
			c0,0.2-0.1,0.4-0.2,0.6s-0.3,0.2-0.5,0.2c-0.2,0-0.4-0.1-0.5-0.2S526,124.2,526,124z M527.4,132.2h-1.3v-6.5h1.3V132.2z"/>
		<path class="st3" d="M531.4,132.3c-0.9,0-1.6-0.3-2.1-0.9s-0.7-1.4-0.7-2.5c0-1.1,0.3-1.9,0.8-2.5c0.5-0.6,1.2-0.9,2.2-0.9
			c0.6,0,1.2,0.1,1.8,0.4l-0.4,1.1c-0.6-0.2-1-0.3-1.4-0.3c-1.1,0-1.6,0.7-1.6,2.2c0,0.7,0.1,1.3,0.4,1.6s0.7,0.5,1.2,0.5
			c0.6,0,1.1-0.2,1.7-0.5v1.2c-0.2,0.1-0.5,0.2-0.7,0.3C532.1,132.2,531.8,132.3,531.4,132.3z"/>
		<path class="st3" d="M534.2,124c0-0.2,0.1-0.4,0.2-0.6s0.3-0.2,0.5-0.2c0.2,0,0.4,0.1,0.5,0.2s0.2,0.3,0.2,0.6
			c0,0.2-0.1,0.4-0.2,0.6s-0.3,0.2-0.5,0.2c-0.2,0-0.4-0.1-0.5-0.2S534.2,124.2,534.2,124z M535.6,132.2h-1.3v-6.5h1.3V132.2z"/>
		<path class="st3" d="M539.5,131.2c0.3,0,0.6-0.1,1-0.2v1c-0.1,0.1-0.3,0.1-0.6,0.2c-0.2,0-0.5,0.1-0.7,0.1c-1.2,0-1.9-0.7-1.9-2.1
			v-3.5h-0.8v-0.6l0.9-0.5l0.4-1.4h0.8v1.4h1.8v1h-1.8v3.5c0,0.3,0.1,0.6,0.2,0.7C539,131.1,539.3,131.2,539.5,131.2z"/>
		<path class="st3" d="M545.8,132.2l-0.2-0.8h-0.1c-0.2,0.3-0.4,0.5-0.8,0.7s-0.7,0.3-1.1,0.3c-0.7,0-1.3-0.2-1.7-0.6
			s-0.6-1-0.6-1.8v-4.2h1.3v4c0,0.5,0.1,0.9,0.3,1.1c0.2,0.2,0.5,0.4,0.9,0.4c0.5,0,1-0.2,1.2-0.5s0.4-0.9,0.4-1.7v-3.2h1.3v6.5
			H545.8z"/>
		<path class="st3" d="M550.4,132.3c-0.8,0-1.4-0.3-1.8-0.9s-0.6-1.4-0.6-2.5c0-1.1,0.2-1.9,0.7-2.5c0.4-0.6,1-0.9,1.8-0.9
			c0.8,0,1.4,0.3,1.8,0.9h0.1c-0.1-0.5-0.1-0.8-0.1-1.1V123h1.3v9.1h-1l-0.2-0.8h-0.1C551.9,132,551.2,132.3,550.4,132.3z
			 M550.8,131.2c0.5,0,0.9-0.2,1.2-0.5s0.4-0.8,0.4-1.5v-0.2c0-0.8-0.1-1.4-0.4-1.7c-0.3-0.3-0.6-0.5-1.2-0.5
			c-0.5,0-0.8,0.2-1.1,0.6c-0.2,0.4-0.4,1-0.4,1.7c0,0.7,0.1,1.3,0.4,1.6S550.3,131.2,550.8,131.2z"/>
		<path class="st3" d="M512.6,146.2l-2.3-6.5h1.4l1.3,3.8c0.2,0.6,0.3,1.1,0.4,1.5h0c0-0.3,0.2-0.8,0.4-1.5l1.3-3.8h1.4l-2.3,6.5
			H512.6z"/>
		<path class="st3" d="M517,138c0-0.2,0.1-0.4,0.2-0.6s0.3-0.2,0.5-0.2c0.2,0,0.4,0.1,0.5,0.2s0.2,0.3,0.2,0.6
			c0,0.2-0.1,0.4-0.2,0.6s-0.3,0.2-0.5,0.2c-0.2,0-0.4-0.1-0.5-0.2S517,138.2,517,138z M518.4,146.2H517v-6.5h1.3V146.2z"/>
		<path class="st3" d="M525.4,146.2H524v-4c0-0.5-0.1-0.9-0.3-1.1c-0.2-0.2-0.5-0.4-0.9-0.4c-0.6,0-1,0.2-1.2,0.5s-0.4,0.9-0.4,1.7
			v3.2h-1.3v-6.5h1l0.2,0.8h0.1c0.2-0.3,0.4-0.5,0.8-0.7s0.7-0.3,1.1-0.3c1.5,0,2.2,0.8,2.2,2.4V146.2z"/>
		<path class="st3" d="M529.4,146.3c-0.9,0-1.6-0.3-2.1-0.9s-0.7-1.4-0.7-2.5c0-1.1,0.3-1.9,0.8-2.5c0.5-0.6,1.2-0.9,2.2-0.9
			c0.6,0,1.2,0.1,1.8,0.4l-0.4,1.1c-0.6-0.2-1-0.3-1.4-0.3c-1.1,0-1.6,0.7-1.6,2.2c0,0.7,0.1,1.3,0.4,1.6s0.7,0.5,1.2,0.5
			c0.6,0,1.1-0.2,1.7-0.5v1.2c-0.2,0.1-0.5,0.2-0.7,0.3C530.1,146.2,529.8,146.3,529.4,146.3z"/>
		<path class="st3" d="M536.6,146.2l-0.2-0.8h-0.1c-0.2,0.3-0.4,0.5-0.8,0.7s-0.7,0.3-1.1,0.3c-0.7,0-1.3-0.2-1.7-0.6
			c-0.4-0.4-0.6-1-0.6-1.8v-4.2h1.3v4c0,0.5,0.1,0.9,0.3,1.1c0.2,0.2,0.5,0.4,0.9,0.4c0.5,0,1-0.2,1.2-0.5c0.3-0.3,0.4-0.9,0.4-1.7
			v-3.2h1.3v6.5H536.6z"/>
		<path class="st3" d="M540.5,146.2h-1.3V137h1.3V146.2z"/>
		<path class="st3" d="M546,146.2l-0.3-0.9h0c-0.3,0.4-0.6,0.7-0.9,0.8c-0.3,0.1-0.7,0.2-1.2,0.2c-0.6,0-1.1-0.2-1.4-0.5
			c-0.3-0.3-0.5-0.8-0.5-1.5c0-0.7,0.2-1.2,0.7-1.5c0.5-0.3,1.2-0.5,2.2-0.6l1.1,0v-0.3c0-0.4-0.1-0.7-0.3-0.9s-0.5-0.3-0.9-0.3
			c-0.3,0-0.6,0-0.9,0.1s-0.6,0.2-0.8,0.3l-0.4-1c0.3-0.2,0.7-0.3,1.1-0.4c0.4-0.1,0.8-0.1,1.1-0.1c0.8,0,1.4,0.2,1.8,0.5
			c0.4,0.4,0.6,0.9,0.6,1.7v4.4H546z M544,145.2c0.5,0,0.9-0.1,1.1-0.4c0.3-0.3,0.4-0.7,0.4-1.2v-0.6l-0.8,0c-0.6,0-1.1,0.1-1.3,0.3
			s-0.4,0.5-0.4,0.9c0,0.3,0.1,0.5,0.2,0.7C543.4,145.1,543.7,145.2,544,145.2z"/>
		<path class="st3" d="M550.9,146.3c-0.9,0-1.6-0.3-2.1-0.9c-0.5-0.6-0.7-1.4-0.7-2.5c0-1.1,0.3-1.9,0.8-2.5
			c0.5-0.6,1.2-0.9,2.2-0.9c0.6,0,1.2,0.1,1.8,0.4l-0.4,1.1c-0.6-0.2-1-0.3-1.4-0.3c-1.1,0-1.6,0.7-1.6,2.2c0,0.7,0.1,1.3,0.4,1.6
			c0.3,0.4,0.7,0.5,1.2,0.5c0.6,0,1.1-0.2,1.7-0.5v1.2c-0.2,0.1-0.5,0.2-0.7,0.3S551.3,146.3,550.9,146.3z"/>
		<path class="st3" d="M553.7,138c0-0.2,0.1-0.4,0.2-0.6s0.3-0.2,0.5-0.2c0.2,0,0.4,0.1,0.5,0.2s0.2,0.3,0.2,0.6
			c0,0.2-0.1,0.4-0.2,0.6s-0.3,0.2-0.5,0.2c-0.2,0-0.4-0.1-0.5-0.2S553.7,138.2,553.7,138z M555.1,146.2h-1.3v-6.5h1.3V146.2z"/>
		<path class="st3" d="M562.1,142.9c0,1.1-0.3,1.9-0.8,2.5s-1.2,0.9-2.2,0.9c-0.6,0-1.1-0.1-1.5-0.4c-0.4-0.3-0.8-0.7-1-1.2
			c-0.2-0.5-0.4-1.1-0.4-1.8c0-1.1,0.3-1.9,0.8-2.5c0.5-0.6,1.2-0.9,2.2-0.9c0.9,0,1.6,0.3,2.1,0.9
			C561.9,141.1,562.1,141.9,562.1,142.9z M557.7,142.9c0,1.5,0.5,2.2,1.6,2.2c1,0,1.6-0.7,1.6-2.2c0-1.5-0.5-2.2-1.6-2.2
			c-0.5,0-0.9,0.2-1.2,0.6S557.7,142.2,557.7,142.9z M558.4,138.9v-0.1c0.2-0.3,0.4-0.6,0.7-0.9s0.4-0.6,0.5-0.9h1.5v0.1
			c-0.2,0.2-0.5,0.5-0.9,0.9s-0.7,0.7-1,0.9H558.4z"/>
		<path class="st3" d="M568.8,146.2h-1.3v-4c0-0.5-0.1-0.9-0.3-1.1c-0.2-0.2-0.5-0.4-0.9-0.4c-0.6,0-1,0.2-1.2,0.5s-0.4,0.9-0.4,1.7
			v3.2h-1.3v-6.5h1l0.2,0.8h0.1c0.2-0.3,0.4-0.5,0.8-0.7s0.7-0.3,1.1-0.3c1.5,0,2.2,0.8,2.2,2.4V146.2z"/>
		<path class="st3" d="M514.4,160.3c-0.8,0-1.4-0.3-1.8-0.9h-0.1c0.1,0.5,0.1,0.9,0.1,1v2.7h-1.3v-9.4h1.1c0,0.1,0.1,0.4,0.2,0.9
			h0.1c0.4-0.7,1-1,1.8-1c0.8,0,1.4,0.3,1.8,0.9s0.6,1.4,0.6,2.5s-0.2,1.9-0.7,2.5C515.7,160,515.1,160.3,514.4,160.3z M514,154.7
			c-0.5,0-0.9,0.2-1.1,0.5c-0.2,0.3-0.4,0.8-0.4,1.5v0.2c0,0.8,0.1,1.4,0.4,1.7c0.2,0.4,0.6,0.5,1.2,0.5c0.5,0,0.8-0.2,1-0.6
			c0.2-0.4,0.4-0.9,0.4-1.7c0-0.7-0.1-1.3-0.4-1.7S514.5,154.7,514,154.7z"/>
		<path class="st3" d="M521.9,160.2l-0.3-0.9h0c-0.3,0.4-0.6,0.7-0.9,0.8c-0.3,0.1-0.7,0.2-1.2,0.2c-0.6,0-1.1-0.2-1.4-0.5
			c-0.3-0.3-0.5-0.8-0.5-1.5c0-0.7,0.2-1.2,0.7-1.5c0.5-0.3,1.2-0.5,2.2-0.6l1.1,0v-0.3c0-0.4-0.1-0.7-0.3-0.9s-0.5-0.3-0.9-0.3
			c-0.3,0-0.6,0-0.9,0.1s-0.6,0.2-0.8,0.3l-0.4-1c0.3-0.2,0.7-0.3,1.1-0.4c0.4-0.1,0.8-0.1,1.1-0.1c0.8,0,1.4,0.2,1.8,0.5
			c0.4,0.4,0.6,0.9,0.6,1.7v4.4H521.9z M520,159.2c0.5,0,0.9-0.1,1.1-0.4c0.3-0.3,0.4-0.7,0.4-1.2v-0.6l-0.8,0
			c-0.6,0-1.1,0.1-1.3,0.3s-0.4,0.5-0.4,0.9c0,0.3,0.1,0.5,0.2,0.7C519.4,159.1,519.6,159.2,520,159.2z"/>
		<path class="st3" d="M529.6,153.7v0.8l-1.1,0.2c0.1,0.1,0.2,0.3,0.2,0.5s0.1,0.4,0.1,0.6c0,0.7-0.2,1.2-0.7,1.6
			c-0.4,0.4-1,0.6-1.8,0.6c-0.2,0-0.4,0-0.5,0c-0.3,0.2-0.4,0.4-0.4,0.6c0,0.1,0.1,0.3,0.2,0.3s0.4,0.1,0.7,0.1h1.1
			c0.7,0,1.2,0.2,1.5,0.5s0.5,0.7,0.5,1.3c0,0.7-0.3,1.3-0.9,1.7s-1.4,0.6-2.5,0.6c-0.8,0-1.5-0.2-1.9-0.5s-0.7-0.8-0.7-1.3
			c0-0.4,0.1-0.7,0.4-1c0.2-0.3,0.6-0.5,1-0.6c-0.2-0.1-0.3-0.2-0.4-0.4c-0.1-0.2-0.2-0.4-0.2-0.5c0-0.2,0.1-0.4,0.2-0.6
			s0.3-0.3,0.6-0.5c-0.3-0.1-0.6-0.4-0.8-0.7s-0.3-0.7-0.3-1.1c0-0.7,0.2-1.2,0.6-1.6s1-0.6,1.8-0.6c0.2,0,0.4,0,0.5,0
			c0.2,0,0.3,0.1,0.4,0.1H529.6z M524.7,161.2c0,0.3,0.1,0.5,0.4,0.7c0.3,0.2,0.6,0.2,1.1,0.2c0.7,0,1.2-0.1,1.6-0.3
			s0.5-0.5,0.5-0.9c0-0.3-0.1-0.5-0.3-0.6s-0.5-0.2-1.1-0.2h-1c-0.4,0-0.7,0.1-0.9,0.3S524.7,160.8,524.7,161.2z M525.3,155.8
			c0,0.4,0.1,0.7,0.3,0.9c0.2,0.2,0.5,0.3,0.9,0.3c0.8,0,1.1-0.4,1.1-1.3c0-0.4-0.1-0.7-0.3-1s-0.5-0.3-0.9-0.3
			c-0.4,0-0.7,0.1-0.9,0.3C525.4,155,525.3,155.3,525.3,155.8z"/>
		<path class="st3" d="M535.9,156.9c0,1.1-0.3,1.9-0.8,2.5s-1.2,0.9-2.2,0.9c-0.6,0-1.1-0.1-1.5-0.4c-0.4-0.3-0.8-0.7-1-1.2
			c-0.2-0.5-0.4-1.1-0.4-1.8c0-1.1,0.3-1.9,0.8-2.5c0.5-0.6,1.2-0.9,2.2-0.9c0.9,0,1.6,0.3,2.1,0.9
			C535.6,155.1,535.9,155.9,535.9,156.9z M531.4,156.9c0,1.5,0.5,2.2,1.6,2.2c1,0,1.6-0.7,1.6-2.2c0-1.5-0.5-2.2-1.6-2.2
			c-0.5,0-0.9,0.2-1.2,0.6S531.4,156.2,531.4,156.9z"/>
		<path class="st3" d="M541.9,160.3c-0.8,0-1.4-0.3-1.8-0.9s-0.6-1.4-0.6-2.5c0-1.1,0.2-1.9,0.7-2.5c0.4-0.6,1-0.9,1.8-0.9
			c0.8,0,1.4,0.3,1.8,0.9h0.1c-0.1-0.5-0.1-0.8-0.1-1.1V151h1.3v9.1h-1l-0.2-0.8h-0.1C543.3,160,542.7,160.3,541.9,160.3z
			 M542.2,159.2c0.5,0,0.9-0.2,1.2-0.5s0.4-0.8,0.4-1.5v-0.2c0-0.8-0.1-1.4-0.4-1.7c-0.3-0.3-0.6-0.5-1.2-0.5
			c-0.5,0-0.8,0.2-1.1,0.6c-0.2,0.4-0.4,1-0.4,1.7c0,0.7,0.1,1.3,0.4,1.6S541.7,159.2,542.2,159.2z"/>
		<path class="st3" d="M549.3,160.3c-1,0-1.7-0.3-2.2-0.9c-0.5-0.6-0.8-1.4-0.8-2.4c0-1.1,0.3-1.9,0.8-2.5s1.2-0.9,2.1-0.9
			c0.8,0,1.5,0.3,1.9,0.8c0.5,0.5,0.7,1.2,0.7,2.1v0.7h-4.1c0,0.6,0.2,1.1,0.5,1.4c0.3,0.3,0.7,0.5,1.3,0.5c0.4,0,0.7,0,1-0.1
			s0.7-0.2,1-0.4v1.1c-0.3,0.2-0.6,0.3-1,0.3S549.7,160.3,549.3,160.3z M549.1,154.6c-0.4,0-0.7,0.1-1,0.4c-0.2,0.3-0.4,0.7-0.4,1.2
			h2.8c0-0.5-0.1-0.9-0.4-1.2C549.8,154.7,549.5,154.6,549.1,154.6z"/>
		<path class="st3" d="M511.2,166c0-0.2,0.1-0.4,0.2-0.6s0.3-0.2,0.5-0.2c0.2,0,0.4,0.1,0.5,0.2s0.2,0.3,0.2,0.6
			c0,0.2-0.1,0.4-0.2,0.6s-0.3,0.2-0.5,0.2c-0.2,0-0.4-0.1-0.5-0.2S511.2,166.2,511.2,166z M512.5,174.2h-1.3v-6.5h1.3V174.2z"/>
		<path class="st3" d="M519.3,174.2H518v-4c0-0.5-0.1-0.9-0.3-1.1c-0.2-0.2-0.5-0.4-0.8-0.4c-0.5,0-0.9,0.2-1.1,0.5
			c-0.2,0.3-0.4,0.9-0.4,1.7v3.2h-1.3v-6.5h1l0.2,0.8h0.1c0.2-0.3,0.4-0.5,0.7-0.7c0.3-0.2,0.7-0.3,1.1-0.3c0.9,0,1.6,0.3,1.9,1h0.1
			c0.2-0.3,0.4-0.6,0.8-0.8c0.3-0.2,0.7-0.3,1.1-0.3c0.7,0,1.3,0.2,1.6,0.6s0.5,1,0.5,1.8v4.2h-1.3v-4c0-0.5-0.1-0.9-0.3-1.1
			s-0.5-0.4-0.8-0.4c-0.5,0-0.9,0.2-1.1,0.5s-0.4,0.8-0.4,1.5V174.2z"/>
		<path class="st3" d="M527.9,174.3c-0.8,0-1.4-0.3-1.8-0.9H526c0.1,0.5,0.1,0.9,0.1,1v2.7h-1.3v-9.4h1.1c0,0.1,0.1,0.4,0.2,0.9h0.1
			c0.4-0.7,1-1,1.8-1c0.8,0,1.4,0.3,1.8,0.9c0.4,0.6,0.6,1.4,0.6,2.5s-0.2,1.9-0.7,2.5C529.2,174,528.6,174.3,527.9,174.3z
			 M527.5,168.7c-0.5,0-0.9,0.2-1.1,0.5s-0.4,0.8-0.4,1.5v0.2c0,0.8,0.1,1.4,0.4,1.7s0.6,0.5,1.2,0.5c0.5,0,0.8-0.2,1-0.6
			s0.4-0.9,0.4-1.7c0-0.7-0.1-1.3-0.4-1.7S528,168.7,527.5,168.7z"/>
		<path class="st3" d="M535.9,174.2l-0.2-0.8h-0.1c-0.2,0.3-0.4,0.5-0.8,0.7s-0.7,0.3-1.1,0.3c-0.7,0-1.3-0.2-1.7-0.6
			s-0.6-1-0.6-1.8v-4.2h1.3v4c0,0.5,0.1,0.9,0.3,1.1c0.2,0.2,0.5,0.4,0.9,0.4c0.5,0,1-0.2,1.2-0.5s0.4-0.9,0.4-1.7v-3.2h1.3v6.5
			H535.9z"/>
		<path class="st3" d="M541.2,174.3c-1,0-1.7-0.3-2.2-0.9s-0.8-1.4-0.8-2.4c0-1.1,0.2-1.9,0.8-2.5s1.2-0.9,2.1-0.9
			c0.8,0,1.5,0.3,1.9,0.8s0.7,1.2,0.7,2.1v0.7h-4.1c0,0.6,0.2,1.1,0.5,1.4c0.3,0.3,0.7,0.5,1.3,0.5c0.4,0,0.7,0,1-0.1s0.7-0.2,1-0.4
			v1.1c-0.3,0.2-0.6,0.3-1,0.3C542,174.2,541.6,174.3,541.2,174.3z M541,168.6c-0.4,0-0.7,0.1-1,0.4c-0.3,0.3-0.4,0.7-0.4,1.2h2.8
			c0-0.5-0.1-0.9-0.4-1.2S541.4,168.6,541,168.6z"/>
		<path class="st3" d="M548.9,172.3c0,0.6-0.2,1.1-0.7,1.5c-0.4,0.3-1.1,0.5-1.9,0.5c-0.8,0-1.5-0.1-2-0.4v-1.2
			c0.7,0.4,1.4,0.5,2,0.5c0.8,0,1.2-0.3,1.2-0.8c0-0.2,0-0.3-0.1-0.4s-0.2-0.2-0.4-0.3s-0.5-0.2-0.9-0.4c-0.7-0.3-1.2-0.6-1.4-0.9
			c-0.2-0.3-0.4-0.7-0.4-1.1c0-0.6,0.2-1,0.6-1.3s1-0.5,1.7-0.5c0.7,0,1.4,0.2,2.1,0.5l-0.4,1c-0.7-0.3-1.2-0.4-1.7-0.4
			c-0.7,0-1,0.2-1,0.6c0,0.2,0.1,0.4,0.3,0.5s0.6,0.3,1.2,0.6c0.5,0.2,0.9,0.4,1.1,0.6s0.4,0.4,0.5,0.6S548.9,172,548.9,172.3z"/>
		<path class="st3" d="M552.4,173.2c0.3,0,0.6-0.1,1-0.2v1c-0.1,0.1-0.3,0.1-0.6,0.2c-0.2,0-0.5,0.1-0.7,0.1c-1.2,0-1.9-0.7-1.9-2.1
			v-3.5h-0.8v-0.6l0.9-0.5l0.4-1.4h0.8v1.4h1.8v1h-1.8v3.5c0,0.3,0.1,0.6,0.2,0.7C551.9,173.1,552.1,173.2,552.4,173.2z"/>
		<path class="st3" d="M559.7,170.9c0,1.1-0.3,1.9-0.8,2.5s-1.2,0.9-2.2,0.9c-0.6,0-1.1-0.1-1.5-0.4c-0.4-0.3-0.8-0.7-1-1.2
			c-0.2-0.5-0.4-1.1-0.4-1.8c0-1.1,0.3-1.9,0.8-2.5c0.5-0.6,1.2-0.9,2.2-0.9c0.9,0,1.6,0.3,2.1,0.9
			C559.5,169.1,559.7,169.9,559.7,170.9z M555.2,170.9c0,1.5,0.5,2.2,1.6,2.2c1,0,1.6-0.7,1.6-2.2c0-1.5-0.5-2.2-1.6-2.2
			c-0.5,0-0.9,0.2-1.2,0.6S555.2,170.2,555.2,170.9z"/>
		<path class="st3" d="M565.1,172.3c0,0.6-0.2,1.1-0.7,1.5c-0.4,0.3-1.1,0.5-1.9,0.5c-0.8,0-1.5-0.1-2-0.4v-1.2
			c0.7,0.4,1.4,0.5,2,0.5c0.8,0,1.2-0.3,1.2-0.8c0-0.2,0-0.3-0.1-0.4c-0.1-0.1-0.2-0.2-0.4-0.3s-0.5-0.2-0.9-0.4
			c-0.7-0.3-1.2-0.6-1.4-0.9c-0.3-0.3-0.4-0.7-0.4-1.1c0-0.6,0.2-1,0.6-1.3c0.4-0.3,1-0.5,1.7-0.5c0.7,0,1.4,0.2,2.1,0.5l-0.4,1
			c-0.7-0.3-1.2-0.4-1.7-0.4c-0.7,0-1,0.2-1,0.6c0,0.2,0.1,0.4,0.3,0.5c0.2,0.1,0.6,0.3,1.2,0.6c0.5,0.2,0.9,0.4,1.1,0.6
			c0.2,0.2,0.4,0.4,0.5,0.6S565.1,172,565.1,172.3z"/>
		<path class="st3" d="M567.9,167.7h1.4l1.3,3.7c0.2,0.5,0.3,1,0.4,1.5h0c0-0.2,0.1-0.5,0.2-0.8s0.6-1.8,1.4-4.4h1.4l-2.6,7.3
			c-0.5,1.3-1.3,2-2.4,2c-0.3,0-0.6,0-0.8-0.1v-1.1c0.2,0,0.4,0.1,0.7,0.1c0.6,0,1.1-0.4,1.3-1.2l0.2-0.6L567.9,167.7z"/>
		<path class="st3" d="M515.1,188.2l-0.3-0.9h0c-0.3,0.4-0.6,0.7-0.9,0.8c-0.3,0.1-0.7,0.2-1.2,0.2c-0.6,0-1.1-0.2-1.4-0.5
			c-0.3-0.3-0.5-0.8-0.5-1.5c0-0.7,0.2-1.2,0.7-1.5c0.5-0.3,1.2-0.5,2.2-0.6l1.1,0v-0.3c0-0.4-0.1-0.7-0.3-0.9s-0.5-0.3-0.9-0.3
			c-0.3,0-0.6,0-0.9,0.1s-0.6,0.2-0.8,0.3l-0.4-1c0.3-0.2,0.7-0.3,1.1-0.4c0.4-0.1,0.8-0.1,1.1-0.1c0.8,0,1.4,0.2,1.8,0.5
			c0.4,0.4,0.6,0.9,0.6,1.7v4.4H515.1z M513.1,187.2c0.5,0,0.9-0.1,1.1-0.4c0.3-0.3,0.4-0.7,0.4-1.2v-0.6l-0.8,0
			c-0.6,0-1.1,0.1-1.3,0.3s-0.4,0.5-0.4,0.9c0,0.3,0.1,0.5,0.2,0.7C512.6,187.1,512.8,187.2,513.1,187.2z"/>
		<path class="st3" d="M520,188.3c-0.9,0-1.6-0.3-2.1-0.9c-0.5-0.6-0.7-1.4-0.7-2.5c0-1.1,0.3-1.9,0.8-2.5c0.5-0.6,1.2-0.9,2.2-0.9
			c0.6,0,1.2,0.1,1.8,0.4l-0.4,1.1c-0.6-0.2-1-0.3-1.4-0.3c-1.1,0-1.6,0.7-1.6,2.2c0,0.7,0.1,1.3,0.4,1.6c0.3,0.4,0.7,0.5,1.2,0.5
			c0.6,0,1.1-0.2,1.7-0.5v1.2c-0.2,0.1-0.5,0.2-0.7,0.3S520.4,188.3,520,188.3z"/>
		<path class="st3" d="M525.6,188.3c-1,0-1.7-0.3-2.2-0.9c-0.5-0.6-0.8-1.4-0.8-2.4c0-1.1,0.3-1.9,0.8-2.5s1.2-0.9,2.1-0.9
			c0.8,0,1.5,0.3,1.9,0.8c0.5,0.5,0.7,1.2,0.7,2.1v0.7h-4.1c0,0.6,0.2,1.1,0.5,1.4c0.3,0.3,0.7,0.5,1.3,0.5c0.4,0,0.7,0,1-0.1
			s0.7-0.2,1-0.4v1.1c-0.3,0.2-0.6,0.3-1,0.3S526,188.3,525.6,188.3z M525.4,182.6c-0.4,0-0.7,0.1-1,0.4c-0.2,0.3-0.4,0.7-0.4,1.2
			h2.8c0-0.5-0.1-0.9-0.4-1.2C526.1,182.7,525.8,182.6,525.4,182.6z"/>
		<path class="st3" d="M532.3,188.3c-0.8,0-1.4-0.3-1.8-0.9h-0.1c0.1,0.5,0.1,0.9,0.1,1v2.7h-1.3v-9.4h1.1c0,0.1,0.1,0.4,0.2,0.9
			h0.1c0.4-0.7,1-1,1.8-1c0.8,0,1.4,0.3,1.8,0.9s0.6,1.4,0.6,2.5s-0.2,1.9-0.7,2.5C533.7,188,533.1,188.3,532.3,188.3z M532,182.7
			c-0.5,0-0.9,0.2-1.1,0.5c-0.2,0.3-0.4,0.8-0.4,1.5v0.2c0,0.8,0.1,1.4,0.4,1.7c0.2,0.4,0.6,0.5,1.2,0.5c0.5,0,0.8-0.2,1-0.6
			c0.2-0.4,0.4-0.9,0.4-1.7c0-0.7-0.1-1.3-0.4-1.7S532.5,182.7,532,182.7z"/>
		<path class="st3" d="M538.3,187.2c0.3,0,0.6-0.1,1-0.2v1c-0.1,0.1-0.3,0.1-0.6,0.2c-0.2,0-0.5,0.1-0.7,0.1c-1.2,0-1.9-0.7-1.9-2.1
			v-3.5h-0.8v-0.6l0.9-0.5l0.4-1.4h0.8v1.4h1.8v1h-1.8v3.5c0,0.3,0.1,0.6,0.2,0.7C537.9,187.1,538.1,187.2,538.3,187.2z"/>
		<path class="st3" d="M544.1,188.2l-0.3-0.9h0c-0.3,0.4-0.6,0.7-0.9,0.8c-0.3,0.1-0.7,0.2-1.2,0.2c-0.6,0-1.1-0.2-1.4-0.5
			c-0.3-0.3-0.5-0.8-0.5-1.5c0-0.7,0.2-1.2,0.7-1.5c0.5-0.3,1.2-0.5,2.2-0.6l1.1,0v-0.3c0-0.4-0.1-0.7-0.3-0.9s-0.5-0.3-0.9-0.3
			c-0.3,0-0.6,0-0.9,0.1s-0.6,0.2-0.8,0.3l-0.4-1c0.3-0.2,0.7-0.3,1.1-0.4c0.4-0.1,0.8-0.1,1.1-0.1c0.8,0,1.4,0.2,1.8,0.5
			c0.4,0.4,0.6,0.9,0.6,1.7v4.4H544.1z M542.1,187.2c0.5,0,0.9-0.1,1.1-0.4c0.3-0.3,0.4-0.7,0.4-1.2v-0.6l-0.8,0
			c-0.6,0-1.1,0.1-1.3,0.3s-0.4,0.5-0.4,0.9c0,0.3,0.1,0.5,0.2,0.7C541.6,187.1,541.8,187.2,542.1,187.2z"/>
		<path class="st3" d="M549,188.3c-0.9,0-1.6-0.3-2.1-0.9c-0.5-0.6-0.7-1.4-0.7-2.5c0-1.1,0.3-1.9,0.8-2.5c0.5-0.6,1.2-0.9,2.2-0.9
			c0.6,0,1.2,0.1,1.8,0.4l-0.4,1.1c-0.6-0.2-1-0.3-1.4-0.3c-1.1,0-1.6,0.7-1.6,2.2c0,0.7,0.1,1.3,0.4,1.6c0.3,0.4,0.7,0.5,1.2,0.5
			c0.6,0,1.1-0.2,1.7-0.5v1.2c-0.2,0.1-0.5,0.2-0.7,0.3S549.4,188.3,549,188.3z"/>
		<path class="st3" d="M551.8,180c0-0.2,0.1-0.4,0.2-0.6s0.3-0.2,0.5-0.2c0.2,0,0.4,0.1,0.5,0.2s0.2,0.3,0.2,0.6
			c0,0.2-0.1,0.4-0.2,0.6s-0.3,0.2-0.5,0.2c-0.2,0-0.4-0.1-0.5-0.2S551.8,180.2,551.8,180z M553.2,188.2h-1.3v-6.5h1.3V188.2z"/>
		<path class="st3" d="M560.3,184.9c0,1.1-0.3,1.9-0.8,2.5s-1.2,0.9-2.2,0.9c-0.6,0-1.1-0.1-1.5-0.4c-0.4-0.3-0.8-0.7-1-1.2
			c-0.2-0.5-0.4-1.1-0.4-1.8c0-1.1,0.3-1.9,0.8-2.5c0.5-0.6,1.2-0.9,2.2-0.9c0.9,0,1.6,0.3,2.1,0.9
			C560,183.1,560.3,183.9,560.3,184.9z M555.8,184.9c0,1.5,0.5,2.2,1.6,2.2c1,0,1.6-0.7,1.6-2.2c0-1.5-0.5-2.2-1.6-2.2
			c-0.5,0-0.9,0.2-1.2,0.6S555.8,184.2,555.8,184.9z M556.5,180.9v-0.1c0.2-0.3,0.4-0.6,0.7-0.9s0.4-0.6,0.5-0.9h1.5v0.1
			c-0.2,0.2-0.5,0.5-0.9,0.9s-0.7,0.7-1,0.9H556.5z"/>
		<path class="st3" d="M566.9,188.2h-1.3v-4c0-0.5-0.1-0.9-0.3-1.1c-0.2-0.2-0.5-0.4-0.9-0.4c-0.6,0-1,0.2-1.2,0.5s-0.4,0.9-0.4,1.7
			v3.2h-1.3v-6.5h1l0.2,0.8h0.1c0.2-0.3,0.4-0.5,0.8-0.7s0.7-0.3,1.1-0.3c1.5,0,2.2,0.8,2.2,2.4V188.2z"/>
		<path class="st3" d="M514.4,202.3c-0.8,0-1.4-0.3-1.8-0.9h-0.1c0.1,0.5,0.1,0.9,0.1,1v2.7h-1.3v-9.4h1.1c0,0.1,0.1,0.4,0.2,0.9
			h0.1c0.4-0.7,1-1,1.8-1c0.8,0,1.4,0.3,1.8,0.9s0.6,1.4,0.6,2.5s-0.2,1.9-0.7,2.5C515.7,202,515.1,202.3,514.4,202.3z M514,196.7
			c-0.5,0-0.9,0.2-1.1,0.5c-0.2,0.3-0.4,0.8-0.4,1.5v0.2c0,0.8,0.1,1.4,0.4,1.7c0.2,0.4,0.6,0.5,1.2,0.5c0.5,0,0.8-0.2,1-0.6
			c0.2-0.4,0.4-0.9,0.4-1.7c0-0.7-0.1-1.3-0.4-1.7S514.5,196.7,514,196.7z"/>
		<path class="st3" d="M523.5,198.9c0,1.1-0.3,1.9-0.8,2.5s-1.2,0.9-2.2,0.9c-0.6,0-1.1-0.1-1.5-0.4s-0.8-0.7-1-1.2
			s-0.4-1.1-0.4-1.8c0-1.1,0.3-1.9,0.8-2.5c0.5-0.6,1.2-0.9,2.2-0.9c0.9,0,1.6,0.3,2.1,0.9S523.5,197.9,523.5,198.9z M519,198.9
			c0,1.5,0.5,2.2,1.6,2.2c1,0,1.6-0.7,1.6-2.2c0-1.5-0.5-2.2-1.6-2.2c-0.5,0-0.9,0.2-1.2,0.6C519.2,197.6,519,198.2,519,198.9z"/>
		<path class="st3" d="M527.9,195.6c0.3,0,0.5,0,0.7,0.1l-0.1,1.3c-0.2,0-0.4-0.1-0.6-0.1c-0.5,0-0.9,0.2-1.3,0.5
			c-0.3,0.4-0.5,0.8-0.5,1.4v3.4h-1.3v-6.5h1l0.2,1.1h0.1c0.2-0.4,0.5-0.7,0.8-0.9C527.1,195.7,527.5,195.6,527.9,195.6z"/>
		<path class="st3" d="M533.3,202.2H532V193h1.3V202.2z"/>
		<path class="st3" d="M538.8,202.2l-0.3-0.9h0c-0.3,0.4-0.6,0.7-0.9,0.8s-0.7,0.2-1.2,0.2c-0.6,0-1.1-0.2-1.4-0.5
			c-0.3-0.3-0.5-0.8-0.5-1.5c0-0.7,0.2-1.2,0.7-1.5c0.5-0.3,1.2-0.5,2.2-0.6l1.1,0v-0.3c0-0.4-0.1-0.7-0.3-0.9
			c-0.2-0.2-0.5-0.3-0.9-0.3c-0.3,0-0.6,0-0.9,0.1c-0.3,0.1-0.6,0.2-0.8,0.3l-0.4-1c0.3-0.2,0.7-0.3,1.1-0.4
			c0.4-0.1,0.8-0.1,1.1-0.1c0.8,0,1.4,0.2,1.8,0.5c0.4,0.4,0.6,0.9,0.6,1.7v4.4H538.8z M536.8,201.2c0.5,0,0.9-0.1,1.1-0.4
			c0.3-0.3,0.4-0.7,0.4-1.2v-0.6l-0.8,0c-0.6,0-1.1,0.1-1.3,0.3s-0.4,0.5-0.4,0.9c0,0.3,0.1,0.5,0.2,0.7S536.5,201.2,536.8,201.2z"
			/>
		<path class="st3" d="M549.1,202.2l-0.8-2.4h-3.1l-0.8,2.4H543l3-8.6h1.4l3,8.6H549.1z M548,198.6l-0.8-2.3
			c-0.1-0.2-0.1-0.4-0.2-0.7c-0.1-0.3-0.2-0.6-0.2-0.7c-0.1,0.5-0.2,1-0.4,1.6l-0.7,2.2H548z"/>
		<path class="st3" d="M552.7,198.7v3.4h-1.3v-8.6h2.3c1,0,1.8,0.2,2.3,0.6s0.8,1,0.8,1.9c0,1.1-0.5,1.8-1.6,2.3l2.3,3.8h-1.5
			l-1.9-3.4H552.7z M552.7,197.6h0.9c0.6,0,1.1-0.1,1.3-0.4s0.4-0.6,0.4-1.1c0-0.5-0.2-0.8-0.5-1c-0.3-0.2-0.8-0.3-1.4-0.3h-0.9
			V197.6z"/>
		<path class="st3" d="M561.1,202.2h-1.3v-7.4h-2.4v-1.2h6.1v1.2h-2.4V202.2z"/>
		<path class="st3" d="M564.2,201.4c0-0.3,0.1-0.5,0.2-0.7c0.1-0.2,0.3-0.2,0.6-0.2c0.3,0,0.5,0.1,0.6,0.2c0.1,0.2,0.2,0.4,0.2,0.6
			c0,0.3-0.1,0.5-0.2,0.7c-0.1,0.2-0.3,0.2-0.6,0.2c-0.3,0-0.5-0.1-0.6-0.2C564.2,201.9,564.2,201.7,564.2,201.4z"/>
	</g>
	<g>
		<path class="st3" d="M661.7,110.7c-0.8,0-1.4,0.3-1.9,0.9s-0.7,1.4-0.7,2.4c0,1.1,0.2,1.8,0.7,2.4s1.1,0.8,1.9,0.8
			c0.4,0,0.7,0,1.1-0.1s0.7-0.2,1.1-0.3v1.2c-0.7,0.3-1.4,0.4-2.3,0.4c-1.3,0-2.2-0.4-2.9-1.1s-1-1.8-1-3.3c0-0.9,0.2-1.7,0.5-2.3
			s0.8-1.2,1.4-1.5s1.3-0.5,2.2-0.5c0.9,0,1.7,0.2,2.4,0.6l-0.5,1.2c-0.3-0.1-0.6-0.3-0.9-0.4S662,110.7,661.7,110.7z"/>
		<path class="st3" d="M671,114.9c0,1.1-0.3,1.9-0.8,2.5s-1.3,0.9-2.3,0.9c-0.6,0-1.1-0.1-1.6-0.4s-0.8-0.7-1.1-1.2
			s-0.4-1.1-0.4-1.8c0-1.1,0.3-1.9,0.8-2.5s1.3-0.9,2.3-0.9c0.9,0,1.7,0.3,2.2,0.9S671,113.9,671,114.9z M666.2,114.9
			c0,1.5,0.6,2.2,1.7,2.2c1.1,0,1.6-0.7,1.6-2.2c0-1.5-0.6-2.2-1.7-2.2c-0.6,0-1,0.2-1.3,0.6S666.2,114.2,666.2,114.9z"/>
		<path class="st3" d="M677.9,118.2h-1.4v-4c0-0.5-0.1-0.9-0.3-1.1s-0.5-0.4-1-0.4c-0.6,0-1,0.2-1.3,0.5s-0.4,0.9-0.4,1.7v3.2h-1.4
			v-6.5h1.1l0.2,0.8h0.1c0.2-0.3,0.5-0.5,0.8-0.7s0.8-0.3,1.2-0.3c1.6,0,2.3,0.8,2.3,2.4V118.2z"/>
		<path class="st3" d="M683.9,116.3c0,0.6-0.2,1.1-0.7,1.5s-1.1,0.5-2,0.5c-0.9,0-1.6-0.1-2.1-0.4v-1.2c0.8,0.4,1.5,0.5,2.1,0.5
			c0.8,0,1.3-0.3,1.3-0.8c0-0.2,0-0.3-0.1-0.4s-0.2-0.2-0.5-0.3s-0.5-0.2-0.9-0.4c-0.7-0.3-1.3-0.6-1.5-0.9s-0.4-0.7-0.4-1.1
			c0-0.6,0.2-1,0.7-1.3s1.1-0.5,1.8-0.5c0.8,0,1.5,0.2,2.2,0.5l-0.4,1c-0.7-0.3-1.3-0.4-1.8-0.4c-0.7,0-1.1,0.2-1.1,0.6
			c0,0.2,0.1,0.4,0.3,0.5s0.6,0.3,1.2,0.6c0.5,0.2,0.9,0.4,1.2,0.6s0.4,0.4,0.5,0.6S683.9,116,683.9,116.3z"/>
		<path class="st3" d="M687.5,117.2c0.3,0,0.7-0.1,1-0.2v1c-0.2,0.1-0.3,0.1-0.6,0.2s-0.5,0.1-0.7,0.1c-1.3,0-2-0.7-2-2.1v-3.5h-0.9
			v-0.6l0.9-0.5l0.5-1.4h0.8v1.4h1.8v1h-1.8v3.5c0,0.3,0.1,0.6,0.2,0.7S687.2,117.2,687.5,117.2z"/>
		<path class="st3" d="M689.4,110c0-0.2,0.1-0.4,0.2-0.6s0.3-0.2,0.6-0.2c0.2,0,0.4,0.1,0.6,0.2s0.2,0.3,0.2,0.6
			c0,0.2-0.1,0.4-0.2,0.6s-0.3,0.2-0.6,0.2c-0.2,0-0.4-0.1-0.6-0.2S689.4,110.2,689.4,110z M690.9,118.2h-1.4v-6.5h1.4V118.2z"/>
		<path class="st3" d="M695,117.2c0.3,0,0.7-0.1,1-0.2v1c-0.2,0.1-0.3,0.1-0.6,0.2s-0.5,0.1-0.7,0.1c-1.3,0-2-0.7-2-2.1v-3.5h-0.9
			v-0.6l0.9-0.5l0.5-1.4h0.8v1.4h1.8v1h-1.8v3.5c0,0.3,0.1,0.6,0.2,0.7S694.7,117.2,695,117.2z"/>
		<path class="st3" d="M701.5,118.2l-0.2-0.8h-0.1c-0.2,0.3-0.5,0.5-0.8,0.7s-0.8,0.3-1.2,0.3c-0.8,0-1.4-0.2-1.8-0.6
			s-0.6-1-0.6-1.8v-4.2h1.4v4c0,0.5,0.1,0.9,0.3,1.1s0.5,0.4,1,0.4c0.6,0,1-0.2,1.3-0.5s0.4-0.9,0.4-1.7v-3.2h1.4v6.5H701.5z"/>
		<path class="st3" d="M706.9,118.3c-1,0-1.7-0.3-2.2-0.9s-0.8-1.4-0.8-2.5c0-1.1,0.3-1.9,0.8-2.5s1.3-0.9,2.3-0.9
			c0.7,0,1.3,0.1,1.8,0.4l-0.4,1.1c-0.6-0.2-1.1-0.3-1.4-0.3c-1.1,0-1.7,0.7-1.7,2.2c0,0.7,0.1,1.3,0.4,1.6s0.7,0.5,1.2,0.5
			c0.6,0,1.2-0.2,1.7-0.5v1.2c-0.2,0.1-0.5,0.2-0.8,0.3S707.3,118.3,706.9,118.3z"/>
		<path class="st3" d="M709.8,110c0-0.2,0.1-0.4,0.2-0.6s0.3-0.2,0.6-0.2c0.2,0,0.4,0.1,0.6,0.2s0.2,0.3,0.2,0.6
			c0,0.2-0.1,0.4-0.2,0.6s-0.3,0.2-0.6,0.2c-0.2,0-0.4-0.1-0.6-0.2S709.8,110.2,709.8,110z M711.3,118.2h-1.4v-6.5h1.4V118.2z"/>
		<path class="st3" d="M718.7,114.9c0,1.1-0.3,1.9-0.8,2.5s-1.3,0.9-2.3,0.9c-0.6,0-1.1-0.1-1.6-0.4s-0.8-0.7-1.1-1.2
			s-0.4-1.1-0.4-1.8c0-1.1,0.3-1.9,0.8-2.5s1.3-0.9,2.3-0.9c0.9,0,1.7,0.3,2.2,0.9S718.7,113.9,718.7,114.9z M714,114.9
			c0,1.5,0.6,2.2,1.7,2.2c1.1,0,1.6-0.7,1.6-2.2c0-1.5-0.6-2.2-1.7-2.2c-0.6,0-1,0.2-1.3,0.6S714,114.2,714,114.9z M714.8,110.9
			v-0.1c0.2-0.3,0.5-0.6,0.7-0.9s0.4-0.6,0.6-0.9h1.6v0.1c-0.2,0.2-0.5,0.5-0.9,0.9s-0.7,0.7-1,0.9H714.8z"/>
		<path class="st3" d="M725.7,118.2h-1.4v-4c0-0.5-0.1-0.9-0.3-1.1s-0.5-0.4-1-0.4c-0.6,0-1,0.2-1.3,0.5s-0.4,0.9-0.4,1.7v3.2H720
			v-6.5h1.1l0.2,0.8h0.1c0.2-0.3,0.5-0.5,0.8-0.7s0.8-0.3,1.2-0.3c1.6,0,2.3,0.8,2.3,2.4V118.2z"/>
		<path class="st3" d="M660.1,132.3c-0.8,0-1.4-0.3-1.9-0.9s-0.7-1.4-0.7-2.5c0-1.1,0.2-1.9,0.7-2.5s1.1-0.9,1.9-0.9
			c0.9,0,1.5,0.3,1.9,0.9h0.1c-0.1-0.5-0.1-0.8-0.1-1.1V123h1.4v9.1h-1.1l-0.2-0.8H662C661.6,132,660.9,132.3,660.1,132.3z
			 M660.5,131.2c0.6,0,1-0.2,1.2-0.5s0.4-0.8,0.4-1.5v-0.2c0-0.8-0.1-1.4-0.4-1.7s-0.7-0.5-1.2-0.5c-0.5,0-0.9,0.2-1.1,0.6
			s-0.4,1-0.4,1.7c0,0.7,0.1,1.3,0.4,1.6S659.9,131.2,660.5,131.2z"/>
		<path class="st3" d="M667.9,132.3c-1,0-1.8-0.3-2.4-0.9s-0.9-1.4-0.9-2.4c0-1.1,0.3-1.9,0.8-2.5s1.3-0.9,2.2-0.9
			c0.9,0,1.5,0.3,2,0.8s0.7,1.2,0.7,2.1v0.7h-4.3c0,0.6,0.2,1.1,0.5,1.5s0.8,0.5,1.4,0.5c0.4,0,0.7,0,1.1-0.1s0.7-0.2,1.1-0.4v1.1
			c-0.3,0.2-0.7,0.3-1,0.3S668.3,132.3,667.9,132.3z M667.7,126.6c-0.4,0-0.8,0.1-1.1,0.4s-0.4,0.7-0.5,1.2h2.9
			c0-0.5-0.1-0.9-0.4-1.2S668.1,126.6,667.7,126.6z"/>
		<path class="st3" d="M676,132.2h-1.4v-8.6h4.8v1.2H676v2.7h3.2v1.2H676V132.2z"/>
		<path class="st3" d="M680.5,124c0-0.2,0.1-0.4,0.2-0.6s0.3-0.2,0.6-0.2c0.2,0,0.4,0.1,0.6,0.2s0.2,0.3,0.2,0.6
			c0,0.2-0.1,0.4-0.2,0.6s-0.3,0.2-0.6,0.2c-0.2,0-0.4-0.1-0.6-0.2S680.5,124.2,680.5,124z M682,132.2h-1.4v-6.5h1.4V132.2z"/>
		<path class="st3" d="M685.8,132.3c-0.8,0-1.4-0.3-1.9-0.9s-0.7-1.4-0.7-2.5c0-1.1,0.2-1.9,0.7-2.5s1.1-0.9,1.9-0.9
			c0.9,0,1.5,0.3,1.9,0.9h0.1c-0.1-0.5-0.1-0.8-0.1-1.1V123h1.4v9.1h-1.1l-0.2-0.8h-0.1C687.3,132,686.7,132.3,685.8,132.3z
			 M686.2,131.2c0.6,0,1-0.2,1.2-0.5s0.4-0.8,0.4-1.5v-0.2c0-0.8-0.1-1.4-0.4-1.7s-0.7-0.5-1.2-0.5c-0.5,0-0.9,0.2-1.1,0.6
			s-0.4,1-0.4,1.7c0,0.7,0.1,1.3,0.4,1.6S685.7,131.2,686.2,131.2z"/>
		<path class="st3" d="M695.4,132.2l-0.2-0.8h-0.1c-0.2,0.3-0.5,0.5-0.8,0.7s-0.8,0.3-1.2,0.3c-0.8,0-1.4-0.2-1.8-0.6
			s-0.6-1-0.6-1.8v-4.2h1.4v4c0,0.5,0.1,0.9,0.3,1.1s0.5,0.4,1,0.4c0.6,0,1-0.2,1.3-0.5s0.4-0.9,0.4-1.7v-3.2h1.4v6.5H695.4z"/>
		<path class="st3" d="M700.7,132.3c-1,0-1.7-0.3-2.2-0.9s-0.8-1.4-0.8-2.5c0-1.1,0.3-1.9,0.8-2.5s1.3-0.9,2.3-0.9
			c0.7,0,1.3,0.1,1.8,0.4l-0.4,1.1c-0.6-0.2-1.1-0.3-1.4-0.3c-1.1,0-1.7,0.7-1.7,2.2c0,0.7,0.1,1.3,0.4,1.6s0.7,0.5,1.2,0.5
			c0.6,0,1.2-0.2,1.7-0.5v1.2c-0.2,0.1-0.5,0.2-0.8,0.3S701.1,132.3,700.7,132.3z"/>
		<path class="st3" d="M703.7,124c0-0.2,0.1-0.4,0.2-0.6s0.3-0.2,0.6-0.2c0.2,0,0.4,0.1,0.6,0.2s0.2,0.3,0.2,0.6
			c0,0.2-0.1,0.4-0.2,0.6s-0.3,0.2-0.6,0.2c-0.2,0-0.4-0.1-0.6-0.2S703.7,124.2,703.7,124z M705.2,132.2h-1.4v-6.5h1.4V132.2z"/>
		<path class="st3" d="M710.9,132.2l-0.3-0.9h0c-0.3,0.4-0.6,0.7-0.9,0.8s-0.7,0.2-1.2,0.2c-0.6,0-1.1-0.2-1.5-0.5s-0.5-0.8-0.5-1.5
			c0-0.7,0.2-1.2,0.7-1.5s1.3-0.5,2.3-0.6l1.1,0v-0.3c0-0.4-0.1-0.7-0.3-0.9s-0.5-0.3-0.9-0.3c-0.3,0-0.7,0-1,0.1s-0.6,0.2-0.9,0.3
			l-0.4-1c0.4-0.2,0.7-0.3,1.2-0.4s0.8-0.1,1.2-0.1c0.8,0,1.4,0.2,1.9,0.5s0.6,0.9,0.6,1.7v4.4H710.9z M708.8,131.2
			c0.5,0,0.9-0.1,1.2-0.4s0.5-0.7,0.5-1.2v-0.6l-0.8,0c-0.6,0-1.1,0.1-1.4,0.3s-0.4,0.5-0.4,0.9c0,0.3,0.1,0.5,0.3,0.7
			S708.5,131.2,708.8,131.2z"/>
		<path class="st3" d="M715.3,125.7h1.5l1.3,3.7c0.2,0.5,0.3,1,0.4,1.5h0c0-0.2,0.1-0.5,0.2-0.8s0.6-1.8,1.5-4.4h1.5L719,133
			c-0.5,1.3-1.3,2-2.5,2c-0.3,0-0.6,0-0.9-0.1v-1.1c0.2,0,0.4,0.1,0.7,0.1c0.7,0,1.1-0.4,1.4-1.2l0.2-0.6L715.3,125.7z"/>
		<path class="st3" d="M661.2,139.6c0.3,0,0.5,0,0.7,0.1l-0.1,1.3c-0.2,0-0.4-0.1-0.6-0.1c-0.6,0-1,0.2-1.3,0.5s-0.5,0.8-0.5,1.4
			v3.4h-1.4v-6.5h1.1l0.2,1.1h0.1c0.2-0.4,0.5-0.7,0.8-0.9S660.8,139.6,661.2,139.6z"/>
		<path class="st3" d="M665.6,146.3c-1,0-1.8-0.3-2.4-0.9s-0.9-1.4-0.9-2.4c0-1.1,0.3-1.9,0.8-2.5s1.3-0.9,2.2-0.9
			c0.9,0,1.5,0.3,2,0.8s0.7,1.2,0.7,2.1v0.7h-4.3c0,0.6,0.2,1.1,0.5,1.5s0.8,0.5,1.4,0.5c0.4,0,0.7,0,1.1-0.1s0.7-0.2,1.1-0.4v1.1
			c-0.3,0.2-0.7,0.3-1,0.3S666,146.3,665.6,146.3z M665.4,140.6c-0.4,0-0.8,0.1-1.1,0.4s-0.4,0.7-0.5,1.2h2.9c0-0.5-0.1-0.9-0.4-1.2
			S665.8,140.6,665.4,140.6z"/>
		<path class="st3" d="M672.7,146.3c-0.8,0-1.5-0.3-1.9-0.9h-0.1c0.1,0.5,0.1,0.9,0.1,1v2.7h-1.4v-9.4h1.1c0,0.1,0.1,0.4,0.2,0.9
			h0.1c0.4-0.7,1.1-1,1.9-1c0.8,0,1.4,0.3,1.9,0.9s0.7,1.4,0.7,2.5s-0.2,1.9-0.7,2.5S673.5,146.3,672.7,146.3z M672.3,140.7
			c-0.5,0-0.9,0.2-1.2,0.5s-0.4,0.8-0.4,1.5v0.2c0,0.8,0.1,1.4,0.4,1.7s0.7,0.5,1.2,0.5c0.5,0,0.8-0.2,1.1-0.6s0.4-0.9,0.4-1.7
			c0-0.7-0.1-1.3-0.4-1.6S672.8,140.7,672.3,140.7z"/>
		<path class="st3" d="M680.6,146.2l-0.3-0.9h0c-0.3,0.4-0.6,0.7-0.9,0.8s-0.7,0.2-1.2,0.2c-0.6,0-1.1-0.2-1.5-0.5s-0.5-0.8-0.5-1.5
			c0-0.7,0.2-1.2,0.7-1.5s1.3-0.5,2.3-0.6l1.1,0v-0.3c0-0.4-0.1-0.7-0.3-0.9s-0.5-0.3-0.9-0.3c-0.3,0-0.7,0-1,0.1s-0.6,0.2-0.9,0.3
			l-0.4-1c0.4-0.2,0.7-0.3,1.2-0.4s0.8-0.1,1.2-0.1c0.8,0,1.4,0.2,1.9,0.5s0.6,0.9,0.6,1.7v4.4H680.6z M678.6,145.2
			c0.5,0,0.9-0.1,1.2-0.4s0.5-0.7,0.5-1.2v-0.6l-0.8,0c-0.6,0-1.1,0.1-1.4,0.3s-0.4,0.5-0.4,0.9c0,0.3,0.1,0.5,0.3,0.7
			S678.2,145.2,678.6,145.2z"/>
		<path class="st3" d="M685.6,145.2c0.3,0,0.7-0.1,1-0.2v1c-0.2,0.1-0.3,0.1-0.6,0.2s-0.5,0.1-0.7,0.1c-1.3,0-2-0.7-2-2.1v-3.5h-0.9
			v-0.6l0.9-0.5l0.5-1.4h0.8v1.4h1.8v1h-1.8v3.5c0,0.3,0.1,0.6,0.2,0.7S685.4,145.2,685.6,145.2z"/>
		<path class="st3" d="M691.7,146.2l-0.3-0.9h0c-0.3,0.4-0.6,0.7-0.9,0.8s-0.7,0.2-1.2,0.2c-0.6,0-1.1-0.2-1.5-0.5s-0.5-0.8-0.5-1.5
			c0-0.7,0.2-1.2,0.7-1.5s1.3-0.5,2.3-0.6l1.1,0v-0.3c0-0.4-0.1-0.7-0.3-0.9s-0.5-0.3-0.9-0.3c-0.3,0-0.7,0-1,0.1s-0.6,0.2-0.9,0.3
			l-0.4-1c0.4-0.2,0.7-0.3,1.2-0.4s0.8-0.1,1.2-0.1c0.8,0,1.4,0.2,1.9,0.5s0.6,0.9,0.6,1.7v4.4H691.7z M689.6,145.2
			c0.5,0,0.9-0.1,1.2-0.4s0.5-0.7,0.5-1.2v-0.6l-0.8,0c-0.6,0-1.1,0.1-1.4,0.3s-0.4,0.5-0.4,0.9c0,0.3,0.1,0.5,0.3,0.7
			S689.3,145.2,689.6,145.2z"/>
		<path class="st3" d="M696.9,146.3c-1,0-1.7-0.3-2.2-0.9s-0.8-1.4-0.8-2.5c0-1.1,0.3-1.9,0.8-2.5s1.3-0.9,2.3-0.9
			c0.7,0,1.3,0.1,1.8,0.4l-0.4,1.1c-0.6-0.2-1.1-0.3-1.4-0.3c-1.1,0-1.7,0.7-1.7,2.2c0,0.7,0.1,1.3,0.4,1.6s0.7,0.5,1.2,0.5
			c0.6,0,1.2-0.2,1.7-0.5v1.2c-0.2,0.1-0.5,0.2-0.8,0.3S697.3,146.3,696.9,146.3z"/>
		<path class="st3" d="M699.9,138c0-0.2,0.1-0.4,0.2-0.6s0.3-0.2,0.6-0.2c0.2,0,0.4,0.1,0.6,0.2s0.2,0.3,0.2,0.6
			c0,0.2-0.1,0.4-0.2,0.6s-0.3,0.2-0.6,0.2c-0.2,0-0.4-0.1-0.6-0.2S699.9,138.2,699.9,138z M701.3,146.2h-1.4v-6.5h1.4V146.2z"/>
		<path class="st3" d="M708.7,142.9c0,1.1-0.3,1.9-0.8,2.5s-1.3,0.9-2.3,0.9c-0.6,0-1.1-0.1-1.6-0.4s-0.8-0.7-1.1-1.2
			s-0.4-1.1-0.4-1.8c0-1.1,0.3-1.9,0.8-2.5s1.3-0.9,2.3-0.9c0.9,0,1.7,0.3,2.2,0.9S708.7,141.9,708.7,142.9z M704,142.9
			c0,1.5,0.6,2.2,1.7,2.2c1.1,0,1.6-0.7,1.6-2.2c0-1.5-0.6-2.2-1.7-2.2c-0.6,0-1,0.2-1.3,0.6S704,142.2,704,142.9z M704.8,138.9
			v-0.1c0.2-0.3,0.5-0.6,0.7-0.9s0.4-0.6,0.6-0.9h1.6v0.1c-0.2,0.2-0.5,0.5-0.9,0.9s-0.7,0.7-1,0.9H704.8z"/>
		<path class="st3" d="M715.7,146.2h-1.4v-4c0-0.5-0.1-0.9-0.3-1.1s-0.5-0.4-1-0.4c-0.6,0-1,0.2-1.3,0.5s-0.4,0.9-0.4,1.7v3.2H710
			v-6.5h1.1l0.2,0.8h0.1c0.2-0.3,0.5-0.5,0.8-0.7s0.8-0.3,1.2-0.3c1.6,0,2.3,0.8,2.3,2.4V146.2z"/>
		<path class="st3" d="M661.2,160.3c-0.8,0-1.5-0.3-1.9-0.9h-0.1c0.1,0.5,0.1,0.9,0.1,1v2.7h-1.4v-9.4h1.1c0,0.1,0.1,0.4,0.2,0.9
			h0.1c0.4-0.7,1.1-1,1.9-1c0.8,0,1.4,0.3,1.9,0.9s0.7,1.4,0.7,2.5s-0.2,1.9-0.7,2.5S662,160.3,661.2,160.3z M660.9,154.7
			c-0.5,0-0.9,0.2-1.2,0.5s-0.4,0.8-0.4,1.5v0.2c0,0.8,0.1,1.4,0.4,1.7s0.7,0.5,1.2,0.5c0.5,0,0.8-0.2,1.1-0.6s0.4-0.9,0.4-1.7
			c0-0.7-0.1-1.3-0.4-1.6S661.3,154.7,660.9,154.7z"/>
		<path class="st3" d="M669.1,160.2l-0.3-0.9h0c-0.3,0.4-0.6,0.7-0.9,0.8s-0.7,0.2-1.2,0.2c-0.6,0-1.1-0.2-1.5-0.5s-0.5-0.8-0.5-1.5
			c0-0.7,0.2-1.2,0.7-1.5s1.3-0.5,2.3-0.6l1.1,0v-0.3c0-0.4-0.1-0.7-0.3-0.9s-0.5-0.3-0.9-0.3c-0.3,0-0.7,0-1,0.1s-0.6,0.2-0.9,0.3
			l-0.4-1c0.4-0.2,0.7-0.3,1.2-0.4s0.8-0.1,1.2-0.1c0.8,0,1.4,0.2,1.9,0.5s0.6,0.9,0.6,1.7v4.4H669.1z M667.1,159.2
			c0.5,0,0.9-0.1,1.2-0.4s0.5-0.7,0.5-1.2v-0.6l-0.8,0c-0.6,0-1.1,0.1-1.4,0.3s-0.4,0.5-0.4,0.9c0,0.3,0.1,0.5,0.3,0.7
			S666.7,159.2,667.1,159.2z"/>
		<path class="st3" d="M675,153.6c0.3,0,0.5,0,0.7,0.1l-0.1,1.3c-0.2,0-0.4-0.1-0.6-0.1c-0.6,0-1,0.2-1.3,0.5s-0.5,0.8-0.5,1.4v3.4
			h-1.4v-6.5h1.1l0.2,1.1h0.1c0.2-0.4,0.5-0.7,0.8-0.9S674.6,153.6,675,153.6z"/>
		<path class="st3" d="M680.7,160.2l-0.3-0.9h0c-0.3,0.4-0.6,0.7-0.9,0.8s-0.7,0.2-1.2,0.2c-0.6,0-1.1-0.2-1.5-0.5s-0.5-0.8-0.5-1.5
			c0-0.7,0.2-1.2,0.7-1.5s1.3-0.5,2.3-0.6l1.1,0v-0.3c0-0.4-0.1-0.7-0.3-0.9s-0.5-0.3-0.9-0.3c-0.3,0-0.7,0-1,0.1s-0.6,0.2-0.9,0.3
			l-0.4-1c0.4-0.2,0.7-0.3,1.2-0.4s0.8-0.1,1.2-0.1c0.8,0,1.4,0.2,1.9,0.5s0.6,0.9,0.6,1.7v4.4H680.7z M678.6,159.2
			c0.5,0,0.9-0.1,1.2-0.4s0.5-0.7,0.5-1.2v-0.6l-0.8,0c-0.6,0-1.1,0.1-1.4,0.3s-0.4,0.5-0.4,0.9c0,0.3,0.1,0.5,0.3,0.7
			S678.3,159.2,678.6,159.2z"/>
		<path class="st3" d="M660.7,174.3c-1,0-1.8-0.3-2.4-0.9s-0.9-1.4-0.9-2.4c0-1.1,0.3-1.9,0.8-2.5s1.3-0.9,2.2-0.9
			c0.9,0,1.5,0.3,2,0.8s0.7,1.2,0.7,2.1v0.7h-4.3c0,0.6,0.2,1.1,0.5,1.5s0.8,0.5,1.4,0.5c0.4,0,0.7,0,1.1-0.1s0.7-0.2,1.1-0.4v1.1
			c-0.3,0.2-0.7,0.3-1,0.3S661.2,174.3,660.7,174.3z M660.5,168.6c-0.4,0-0.8,0.1-1.1,0.4s-0.4,0.7-0.5,1.2h2.9
			c0-0.5-0.1-0.9-0.4-1.2S660.9,168.6,660.5,168.6z"/>
		<path class="st3" d="M663.9,177c-0.4,0-0.8,0-1-0.1v-1.1c0.3,0.1,0.5,0.1,0.8,0.1c0.6,0,0.9-0.3,0.9-1v-7.2h1.4v7.3
			c0,0.7-0.2,1.2-0.5,1.5S664.5,177,663.9,177z M664.4,166c0-0.2,0.1-0.4,0.2-0.6s0.3-0.2,0.6-0.2c0.2,0,0.4,0.1,0.6,0.2
			s0.2,0.3,0.2,0.6c0,0.2-0.1,0.4-0.2,0.6s-0.3,0.2-0.6,0.2c-0.2,0-0.4-0.1-0.6-0.2S664.4,166.2,664.4,166z"/>
		<path class="st3" d="M670.4,174.3c-1,0-1.8-0.3-2.4-0.9s-0.9-1.4-0.9-2.4c0-1.1,0.3-1.9,0.8-2.5s1.3-0.9,2.2-0.9
			c0.9,0,1.5,0.3,2,0.8s0.7,1.2,0.7,2.1v0.7h-4.3c0,0.6,0.2,1.1,0.5,1.5s0.8,0.5,1.4,0.5c0.4,0,0.7,0,1.1-0.1s0.7-0.2,1.1-0.4v1.1
			c-0.3,0.2-0.7,0.3-1,0.3S670.8,174.3,670.4,174.3z M670.1,168.6c-0.4,0-0.8,0.1-1.1,0.4s-0.4,0.7-0.5,1.2h2.9
			c0-0.5-0.1-0.9-0.4-1.2S670.6,168.6,670.1,168.6z"/>
		<path class="st3" d="M676.8,174.3c-1,0-1.7-0.3-2.2-0.9s-0.8-1.4-0.8-2.5c0-1.1,0.3-1.9,0.8-2.5s1.3-0.9,2.3-0.9
			c0.7,0,1.3,0.1,1.8,0.4l-0.4,1.1c-0.6-0.2-1.1-0.3-1.4-0.3c-1.1,0-1.7,0.7-1.7,2.2c0,0.7,0.1,1.3,0.4,1.6s0.7,0.5,1.2,0.5
			c0.6,0,1.2-0.2,1.7-0.5v1.2c-0.2,0.1-0.5,0.2-0.8,0.3S677.2,174.3,676.8,174.3z"/>
		<path class="st3" d="M684.4,174.2l-0.2-0.8h-0.1c-0.2,0.3-0.5,0.5-0.8,0.7s-0.8,0.3-1.2,0.3c-0.8,0-1.4-0.2-1.8-0.6
			s-0.6-1-0.6-1.8v-4.2h1.4v4c0,0.5,0.1,0.9,0.3,1.1s0.5,0.4,1,0.4c0.6,0,1-0.2,1.3-0.5s0.4-0.9,0.4-1.7v-3.2h1.4v6.5H684.4z"/>
		<path class="st3" d="M689.7,174.3c-1,0-1.7-0.3-2.2-0.9s-0.8-1.4-0.8-2.5c0-1.1,0.3-1.9,0.8-2.5s1.3-0.9,2.3-0.9
			c0.7,0,1.3,0.1,1.8,0.4l-0.4,1.1c-0.6-0.2-1.1-0.3-1.4-0.3c-1.1,0-1.7,0.7-1.7,2.2c0,0.7,0.1,1.3,0.4,1.6s0.7,0.5,1.2,0.5
			c0.6,0,1.2-0.2,1.7-0.5v1.2c-0.2,0.1-0.5,0.2-0.8,0.3S690.1,174.3,689.7,174.3z"/>
		<path class="st3" d="M692.7,166c0-0.2,0.1-0.4,0.2-0.6s0.3-0.2,0.6-0.2c0.2,0,0.4,0.1,0.6,0.2s0.2,0.3,0.2,0.6
			c0,0.2-0.1,0.4-0.2,0.6s-0.3,0.2-0.6,0.2c-0.2,0-0.4-0.1-0.6-0.2S692.7,166.2,692.7,166z M694.1,174.2h-1.4v-6.5h1.4V174.2z"/>
		<path class="st3" d="M701.6,170.9c0,1.1-0.3,1.9-0.8,2.5s-1.3,0.9-2.3,0.9c-0.6,0-1.1-0.1-1.6-0.4s-0.8-0.7-1.1-1.2
			s-0.4-1.1-0.4-1.8c0-1.1,0.3-1.9,0.8-2.5s1.3-0.9,2.3-0.9c0.9,0,1.7,0.3,2.2,0.9S701.6,169.9,701.6,170.9z M696.8,170.9
			c0,1.5,0.6,2.2,1.7,2.2c1.1,0,1.6-0.7,1.6-2.2c0-1.5-0.6-2.2-1.7-2.2c-0.6,0-1,0.2-1.3,0.6S696.8,170.2,696.8,170.9z M697.6,166.9
			v-0.1c0.2-0.3,0.5-0.6,0.7-0.9s0.4-0.6,0.6-0.9h1.6v0.1c-0.2,0.2-0.5,0.5-0.9,0.9s-0.7,0.7-1,0.9H697.6z"/>
		<path class="st3" d="M708.5,174.2h-1.4v-4c0-0.5-0.1-0.9-0.3-1.1s-0.5-0.4-1-0.4c-0.6,0-1,0.2-1.3,0.5s-0.4,0.9-0.4,1.7v3.2h-1.4
			v-6.5h1.1l0.2,0.8h0.1c0.2-0.3,0.5-0.5,0.8-0.7s0.8-0.3,1.2-0.3c1.6,0,2.3,0.8,2.3,2.4V174.2z"/>
		<path class="st3" d="M715.2,174.3c-0.8,0-1.4-0.3-1.9-0.9s-0.7-1.4-0.7-2.5c0-1.1,0.2-1.9,0.7-2.5s1.1-0.9,1.9-0.9
			c0.9,0,1.5,0.3,1.9,0.9h0.1c-0.1-0.5-0.1-0.8-0.1-1.1V165h1.4v9.1h-1.1l-0.2-0.8h-0.1C716.7,174,716,174.3,715.2,174.3z
			 M715.5,173.2c0.6,0,1-0.2,1.2-0.5s0.4-0.8,0.4-1.5v-0.2c0-0.8-0.1-1.4-0.4-1.7s-0.7-0.5-1.2-0.5c-0.5,0-0.9,0.2-1.1,0.6
			s-0.4,1-0.4,1.7c0,0.7,0.1,1.3,0.4,1.6S715,173.2,715.5,173.2z"/>
		<path class="st3" d="M723,174.3c-1,0-1.8-0.3-2.4-0.9s-0.9-1.4-0.9-2.4c0-1.1,0.3-1.9,0.8-2.5s1.3-0.9,2.2-0.9
			c0.9,0,1.5,0.3,2,0.8s0.7,1.2,0.7,2.1v0.7h-4.3c0,0.6,0.2,1.1,0.5,1.5s0.8,0.5,1.4,0.5c0.4,0,0.7,0,1.1-0.1s0.7-0.2,1.1-0.4v1.1
			c-0.3,0.2-0.7,0.3-1,0.3S723.4,174.3,723,174.3z M722.7,168.6c-0.4,0-0.8,0.1-1.1,0.4s-0.4,0.7-0.5,1.2h2.9c0-0.5-0.1-0.9-0.4-1.2
			S723.2,168.6,722.7,168.6z"/>
		<path class="st3" d="M728.2,174.2h-1.4V165h1.4V174.2z"/>
		<path class="st3" d="M663.7,182.2c0,0.9-0.3,1.6-0.9,2.1s-1.4,0.7-2.5,0.7h-0.9v3.2H658v-8.6h2.5c1.1,0,1.9,0.2,2.4,0.7
			S663.7,181.3,663.7,182.2z M659.4,183.8h0.7c0.7,0,1.2-0.1,1.6-0.4s0.5-0.6,0.5-1.2c0-0.5-0.2-0.9-0.5-1.1s-0.8-0.4-1.4-0.4h-1
			V183.8z"/>
		<path class="st3" d="M668.3,181.6c0.3,0,0.5,0,0.7,0.1l-0.1,1.3c-0.2,0-0.4-0.1-0.6-0.1c-0.6,0-1,0.2-1.3,0.5s-0.5,0.8-0.5,1.4
			v3.4H665v-6.5h1.1l0.2,1.1h0.1c0.2-0.4,0.5-0.7,0.8-0.9S667.9,181.6,668.3,181.6z"/>
		<path class="st3" d="M675.6,184.9c0,1.1-0.3,1.9-0.8,2.5s-1.3,0.9-2.3,0.9c-0.6,0-1.1-0.1-1.6-0.4s-0.8-0.7-1.1-1.2
			s-0.4-1.1-0.4-1.8c0-1.1,0.3-1.9,0.8-2.5s1.3-0.9,2.3-0.9c0.9,0,1.7,0.3,2.2,0.9S675.6,183.9,675.6,184.9z M670.9,184.9
			c0,1.5,0.6,2.2,1.7,2.2c1.1,0,1.6-0.7,1.6-2.2c0-1.5-0.6-2.2-1.7-2.2c-0.6,0-1,0.2-1.3,0.6S670.9,184.2,670.9,184.9z"/>
		<path class="st3" d="M675.9,181.7h1.5l1.3,3.7c0.2,0.5,0.3,1,0.4,1.5h0c0-0.2,0.1-0.5,0.2-0.8s0.6-1.8,1.5-4.4h1.5l-2.8,7.3
			c-0.5,1.3-1.3,2-2.5,2c-0.3,0-0.6,0-0.9-0.1v-1.1c0.2,0,0.4,0.1,0.7,0.1c0.7,0,1.1-0.4,1.4-1.2l0.2-0.6L675.9,181.7z"/>
		<path class="st3" d="M685.8,188.3c-1,0-1.8-0.3-2.4-0.9s-0.9-1.4-0.9-2.4c0-1.1,0.3-1.9,0.8-2.5s1.3-0.9,2.2-0.9
			c0.9,0,1.5,0.3,2,0.8s0.7,1.2,0.7,2.1v0.7H684c0,0.6,0.2,1.1,0.5,1.5s0.8,0.5,1.4,0.5c0.4,0,0.7,0,1.1-0.1s0.7-0.2,1.1-0.4v1.1
			c-0.3,0.2-0.7,0.3-1,0.3S686.3,188.3,685.8,188.3z M685.6,182.6c-0.4,0-0.8,0.1-1.1,0.4s-0.4,0.7-0.5,1.2h2.9
			c0-0.5-0.1-0.9-0.4-1.2S686,182.6,685.6,182.6z"/>
		<path class="st3" d="M692.2,188.3c-1,0-1.7-0.3-2.2-0.9s-0.8-1.4-0.8-2.5c0-1.1,0.3-1.9,0.8-2.5s1.3-0.9,2.3-0.9
			c0.7,0,1.3,0.1,1.8,0.4l-0.4,1.1c-0.6-0.2-1.1-0.3-1.4-0.3c-1.1,0-1.7,0.7-1.7,2.2c0,0.7,0.1,1.3,0.4,1.6s0.7,0.5,1.2,0.5
			c0.6,0,1.2-0.2,1.7-0.5v1.2c-0.2,0.1-0.5,0.2-0.8,0.3S692.6,188.3,692.2,188.3z"/>
		<path class="st3" d="M697.7,187.2c0.3,0,0.7-0.1,1-0.2v1c-0.2,0.1-0.3,0.1-0.6,0.2s-0.5,0.1-0.7,0.1c-1.3,0-2-0.7-2-2.1v-3.5h-0.9
			v-0.6l0.9-0.5l0.5-1.4h0.8v1.4h1.8v1h-1.8v3.5c0,0.3,0.1,0.6,0.2,0.7S697.4,187.2,697.7,187.2z"/>
		<path class="st3" d="M705.4,184.9c0,1.1-0.3,1.9-0.8,2.5s-1.3,0.9-2.3,0.9c-0.6,0-1.1-0.1-1.6-0.4s-0.8-0.7-1.1-1.2
			s-0.4-1.1-0.4-1.8c0-1.1,0.3-1.9,0.8-2.5s1.3-0.9,2.3-0.9c0.9,0,1.7,0.3,2.2,0.9S705.4,183.9,705.4,184.9z M700.7,184.9
			c0,1.5,0.6,2.2,1.7,2.2c1.1,0,1.6-0.7,1.6-2.2c0-1.5-0.6-2.2-1.7-2.2c-0.6,0-1,0.2-1.3,0.6S700.7,184.2,700.7,184.9z"/>
		<path class="st3" d="M706.5,187.4c0-0.3,0.1-0.5,0.2-0.7s0.4-0.2,0.6-0.2c0.3,0,0.5,0.1,0.7,0.2s0.2,0.4,0.2,0.6
			c0,0.3-0.1,0.5-0.2,0.7s-0.4,0.2-0.6,0.2s-0.5-0.1-0.6-0.2S706.5,187.7,706.5,187.4z"/>
	</g>
	<g>
		<path class="st3" d="M817.5,139.2h-4.8v-8.6h4.8v1.2H814v2.3h3.2v1.2H814v2.7h3.4V139.2z"/>
		<path class="st3" d="M818.2,142c-0.4,0-0.8,0-1-0.1v-1.1c0.3,0.1,0.5,0.1,0.8,0.1c0.6,0,0.9-0.3,0.9-1v-7.2h1.4v7.3
			c0,0.7-0.2,1.2-0.5,1.5S818.9,142,818.2,142z M818.8,131c0-0.2,0.1-0.4,0.2-0.6s0.3-0.2,0.6-0.2c0.2,0,0.4,0.1,0.6,0.2
			s0.2,0.3,0.2,0.6c0,0.2-0.1,0.4-0.2,0.6s-0.3,0.2-0.6,0.2c-0.2,0-0.4-0.1-0.6-0.2S818.8,131.2,818.8,131z"/>
		<path class="st3" d="M824.8,139.3c-1,0-1.8-0.3-2.4-0.9s-0.9-1.4-0.9-2.4c0-1.1,0.3-1.9,0.8-2.5s1.3-0.9,2.2-0.9
			c0.9,0,1.5,0.3,2,0.8s0.7,1.2,0.7,2.1v0.7H823c0,0.6,0.2,1.1,0.5,1.5s0.8,0.5,1.4,0.5c0.4,0,0.7,0,1.1-0.1s0.7-0.2,1.1-0.4v1.1
			c-0.3,0.2-0.7,0.3-1,0.3S825.2,139.3,824.8,139.3z M824.5,133.6c-0.4,0-0.8,0.1-1.1,0.4s-0.4,0.7-0.5,1.2h2.9
			c0-0.5-0.1-0.9-0.4-1.2S824.9,133.6,824.5,133.6z"/>
		<path class="st3" d="M831.1,139.3c-1,0-1.7-0.3-2.2-0.9s-0.8-1.4-0.8-2.5c0-1.1,0.3-1.9,0.8-2.5s1.3-0.9,2.3-0.9
			c0.7,0,1.3,0.1,1.8,0.4l-0.4,1.1c-0.6-0.2-1.1-0.3-1.4-0.3c-1.1,0-1.7,0.7-1.7,2.2c0,0.7,0.1,1.3,0.4,1.6s0.7,0.5,1.2,0.5
			c0.6,0,1.2-0.2,1.7-0.5v1.2c-0.2,0.1-0.5,0.2-0.8,0.3S831.5,139.3,831.1,139.3z"/>
		<path class="st3" d="M838.7,139.2l-0.2-0.8h-0.1c-0.2,0.3-0.5,0.5-0.8,0.7s-0.8,0.3-1.2,0.3c-0.8,0-1.4-0.2-1.8-0.6
			s-0.6-1-0.6-1.8v-4.2h1.4v4c0,0.5,0.1,0.9,0.3,1.1s0.5,0.4,1,0.4c0.6,0,1-0.2,1.3-0.5s0.4-0.9,0.4-1.7v-3.2h1.4v6.5H838.7z"/>
		<path class="st3" d="M844.1,139.3c-1,0-1.7-0.3-2.2-0.9s-0.8-1.4-0.8-2.5c0-1.1,0.3-1.9,0.8-2.5s1.3-0.9,2.3-0.9
			c0.7,0,1.3,0.1,1.8,0.4l-0.4,1.1c-0.6-0.2-1.1-0.3-1.4-0.3c-1.1,0-1.7,0.7-1.7,2.2c0,0.7,0.1,1.3,0.4,1.6s0.7,0.5,1.2,0.5
			c0.6,0,1.2-0.2,1.7-0.5v1.2c-0.2,0.1-0.5,0.2-0.8,0.3S844.5,139.3,844.1,139.3z"/>
		<path class="st3" d="M847.1,131c0-0.2,0.1-0.4,0.2-0.6s0.3-0.2,0.6-0.2c0.2,0,0.4,0.1,0.6,0.2s0.2,0.3,0.2,0.6
			c0,0.2-0.1,0.4-0.2,0.6s-0.3,0.2-0.6,0.2c-0.2,0-0.4-0.1-0.6-0.2S847.1,131.2,847.1,131z M848.5,139.2h-1.4v-6.5h1.4V139.2z"/>
		<path class="st3" d="M855.9,135.9c0,1.1-0.3,1.9-0.8,2.5s-1.3,0.9-2.3,0.9c-0.6,0-1.1-0.1-1.6-0.4s-0.8-0.7-1.1-1.2
			s-0.4-1.1-0.4-1.8c0-1.1,0.3-1.9,0.8-2.5s1.3-0.9,2.3-0.9c0.9,0,1.7,0.3,2.2,0.9S855.9,134.9,855.9,135.9z M851.2,135.9
			c0,1.5,0.6,2.2,1.7,2.2c1.1,0,1.6-0.7,1.6-2.2c0-1.5-0.6-2.2-1.7-2.2c-0.6,0-1,0.2-1.3,0.6S851.2,135.2,851.2,135.9z M852,131.9
			v-0.1c0.2-0.3,0.5-0.6,0.7-0.9s0.4-0.6,0.6-0.9h1.6v0.1c-0.2,0.2-0.5,0.5-0.9,0.9s-0.7,0.7-1,0.9H852z"/>
		<path class="st3" d="M862.9,139.2h-1.4v-4c0-0.5-0.1-0.9-0.3-1.1s-0.5-0.4-1-0.4c-0.6,0-1,0.2-1.3,0.5s-0.4,0.9-0.4,1.7v3.2h-1.4
			v-6.5h1.1l0.2,0.8h0.1c0.2-0.3,0.5-0.5,0.8-0.7s0.8-0.3,1.2-0.3c1.6,0,2.3,0.8,2.3,2.4V139.2z"/>
		<path class="st3" d="M866.4,132.7h1.5l1.3,3.7c0.2,0.5,0.3,1,0.4,1.5h0c0-0.2,0.1-0.5,0.2-0.8s0.6-1.8,1.5-4.4h1.5L870,140
			c-0.5,1.3-1.3,2-2.5,2c-0.3,0-0.6,0-0.9-0.1v-1.1c0.2,0,0.4,0.1,0.7,0.1c0.7,0,1.1-0.4,1.4-1.2l0.2-0.6L866.4,132.7z"/>
		<path class="st3" d="M817.5,153.2h-4.8v-8.6h4.8v1.2H814v2.3h3.2v1.2H814v2.7h3.4V153.2z"/>
		<path class="st3" d="M824.6,153.2h-1.4v-4c0-0.5-0.1-0.9-0.3-1.1s-0.5-0.4-1-0.4c-0.6,0-1,0.2-1.3,0.5s-0.4,0.9-0.4,1.7v3.2h-1.4
			v-6.5h1.1l0.2,0.8h0.1c0.2-0.3,0.5-0.5,0.8-0.7s0.8-0.3,1.2-0.3c1.6,0,2.3,0.8,2.3,2.4V153.2z"/>
		<path class="st3" d="M828.6,152.2c0.3,0,0.7-0.1,1-0.2v1c-0.2,0.1-0.3,0.1-0.6,0.2s-0.5,0.1-0.7,0.1c-1.3,0-2-0.7-2-2.1v-3.5h-0.9
			v-0.6l0.9-0.5l0.5-1.4h0.8v1.4h1.8v1h-1.8v3.5c0,0.3,0.1,0.6,0.2,0.7S828.3,152.2,828.6,152.2z"/>
		<path class="st3" d="M833.9,146.6c0.3,0,0.5,0,0.7,0.1l-0.1,1.3c-0.2,0-0.4-0.1-0.6-0.1c-0.6,0-1,0.2-1.3,0.5s-0.5,0.8-0.5,1.4
			v3.4h-1.4v-6.5h1.1l0.2,1.1h0.1c0.2-0.4,0.5-0.7,0.8-0.9S833.5,146.6,833.9,146.6z"/>
		<path class="st3" d="M838.3,153.3c-1,0-1.8-0.3-2.4-0.9s-0.9-1.4-0.9-2.4c0-1.1,0.3-1.9,0.8-2.5s1.3-0.9,2.2-0.9
			c0.9,0,1.5,0.3,2,0.8s0.7,1.2,0.7,2.1v0.7h-4.3c0,0.6,0.2,1.1,0.5,1.5s0.8,0.5,1.4,0.5c0.4,0,0.7,0,1.1-0.1s0.7-0.2,1.1-0.4v1.1
			c-0.3,0.2-0.7,0.3-1,0.3S838.8,153.3,838.3,153.3z M838.1,147.6c-0.4,0-0.8,0.1-1.1,0.4s-0.4,0.7-0.5,1.2h2.9
			c0-0.5-0.1-0.9-0.4-1.2S838.5,147.6,838.1,147.6z"/>
		<path class="st3" d="M847.6,146.7v0.8l-1.1,0.2c0.1,0.1,0.2,0.3,0.3,0.5s0.1,0.4,0.1,0.6c0,0.7-0.2,1.2-0.7,1.6s-1.1,0.6-1.9,0.6
			c-0.2,0-0.4,0-0.6,0c-0.3,0.2-0.4,0.4-0.4,0.6c0,0.1,0.1,0.3,0.2,0.3s0.4,0.1,0.8,0.1h1.1c0.7,0,1.3,0.2,1.6,0.5s0.6,0.7,0.6,1.3
			c0,0.7-0.3,1.3-0.9,1.7s-1.5,0.6-2.6,0.6c-0.9,0-1.6-0.2-2-0.5s-0.7-0.8-0.7-1.3c0-0.4,0.1-0.7,0.4-1s0.6-0.5,1.1-0.6
			c-0.2-0.1-0.3-0.2-0.5-0.4s-0.2-0.4-0.2-0.5c0-0.2,0.1-0.4,0.2-0.6s0.3-0.3,0.6-0.5c-0.3-0.1-0.6-0.4-0.8-0.7s-0.3-0.7-0.3-1.1
			c0-0.7,0.2-1.2,0.7-1.6s1.1-0.6,1.9-0.6c0.2,0,0.4,0,0.6,0s0.4,0.1,0.5,0.1H847.6z M842.5,154.2c0,0.3,0.1,0.5,0.4,0.7
			s0.6,0.2,1.1,0.2c0.8,0,1.3-0.1,1.7-0.3s0.6-0.5,0.6-0.9c0-0.3-0.1-0.5-0.3-0.6s-0.6-0.2-1.1-0.2h-1c-0.4,0-0.7,0.1-0.9,0.3
			S842.5,153.8,842.5,154.2z M843.1,148.8c0,0.4,0.1,0.7,0.3,0.9s0.5,0.3,0.9,0.3c0.8,0,1.2-0.4,1.2-1.3c0-0.4-0.1-0.7-0.3-1
			s-0.5-0.3-0.9-0.3c-0.4,0-0.7,0.1-0.9,0.3S843.1,148.3,843.1,148.8z"/>
		<path class="st3" d="M852.5,153.2l-0.3-0.9h0c-0.3,0.4-0.6,0.7-0.9,0.8s-0.7,0.2-1.2,0.2c-0.6,0-1.1-0.2-1.5-0.5s-0.5-0.8-0.5-1.5
			c0-0.7,0.2-1.2,0.7-1.5s1.3-0.5,2.3-0.6l1.1,0v-0.3c0-0.4-0.1-0.7-0.3-0.9s-0.5-0.3-0.9-0.3c-0.3,0-0.7,0-1,0.1s-0.6,0.2-0.9,0.3
			l-0.4-1c0.4-0.2,0.7-0.3,1.2-0.4s0.8-0.1,1.2-0.1c0.8,0,1.4,0.2,1.9,0.5s0.6,0.9,0.6,1.7v4.4H852.5z M850.5,152.2
			c0.5,0,0.9-0.1,1.2-0.4s0.5-0.7,0.5-1.2v-0.6l-0.8,0c-0.6,0-1.1,0.1-1.4,0.3s-0.4,0.5-0.4,0.9c0,0.3,0.1,0.5,0.3,0.7
			S850.1,152.2,850.5,152.2z"/>
		<path class="st3" d="M860.1,153.3c-0.8,0-1.4-0.3-1.9-0.9s-0.7-1.4-0.7-2.5c0-1.1,0.2-1.9,0.7-2.5s1.1-0.9,1.9-0.9
			c0.9,0,1.5,0.3,1.9,0.9h0.1c-0.1-0.5-0.1-0.8-0.1-1.1V144h1.4v9.1h-1.1l-0.2-0.8h-0.1C861.6,153,861,153.3,860.1,153.3z
			 M860.5,152.2c0.6,0,1-0.2,1.2-0.5s0.4-0.8,0.4-1.5v-0.2c0-0.8-0.1-1.4-0.4-1.7s-0.7-0.5-1.2-0.5c-0.5,0-0.9,0.2-1.1,0.6
			s-0.4,1-0.4,1.7c0,0.7,0.1,1.3,0.4,1.6S860,152.2,860.5,152.2z"/>
		<path class="st3" d="M868,153.3c-1,0-1.8-0.3-2.4-0.9s-0.9-1.4-0.9-2.4c0-1.1,0.3-1.9,0.8-2.5s1.3-0.9,2.2-0.9
			c0.9,0,1.5,0.3,2,0.8s0.7,1.2,0.7,2.1v0.7h-4.3c0,0.6,0.2,1.1,0.5,1.5s0.8,0.5,1.4,0.5c0.4,0,0.7,0,1.1-0.1s0.7-0.2,1.1-0.4v1.1
			c-0.3,0.2-0.7,0.3-1,0.3S868.4,153.3,868,153.3z M867.7,147.6c-0.4,0-0.8,0.1-1.1,0.4s-0.4,0.7-0.5,1.2h2.9c0-0.5-0.1-0.9-0.4-1.2
			S868.1,147.6,867.7,147.6z"/>
		<path class="st3" d="M873.1,153.2h-1.4V144h1.4V153.2z"/>
		<path class="st3" d="M818.3,161.2c0,0.9-0.3,1.6-0.9,2.1s-1.4,0.7-2.5,0.7H814v3.2h-1.4v-8.6h2.5c1.1,0,1.9,0.2,2.4,0.7
			S818.3,160.3,818.3,161.2z M814,162.8h0.7c0.7,0,1.2-0.1,1.6-0.4s0.5-0.6,0.5-1.2c0-0.5-0.2-0.9-0.5-1.1s-0.8-0.4-1.4-0.4h-1
			V162.8z"/>
		<path class="st3" d="M822.8,160.6c0.3,0,0.5,0,0.7,0.1l-0.1,1.3c-0.2,0-0.4-0.1-0.6-0.1c-0.6,0-1,0.2-1.3,0.5s-0.5,0.8-0.5,1.4
			v3.4h-1.4v-6.5h1.1l0.2,1.1h0.1c0.2-0.4,0.5-0.7,0.8-0.9S822.4,160.6,822.8,160.6z"/>
		<path class="st3" d="M830.2,163.9c0,1.1-0.3,1.9-0.8,2.5s-1.3,0.9-2.3,0.9c-0.6,0-1.1-0.1-1.6-0.4s-0.8-0.7-1.1-1.2
			s-0.4-1.1-0.4-1.8c0-1.1,0.3-1.9,0.8-2.5s1.3-0.9,2.3-0.9c0.9,0,1.7,0.3,2.2,0.9S830.2,162.9,830.2,163.9z M825.5,163.9
			c0,1.5,0.6,2.2,1.7,2.2c1.1,0,1.6-0.7,1.6-2.2c0-1.5-0.6-2.2-1.7-2.2c-0.6,0-1,0.2-1.3,0.6S825.5,163.2,825.5,163.9z"/>
		<path class="st3" d="M830.5,160.7h1.5l1.3,3.7c0.2,0.5,0.3,1,0.4,1.5h0c0-0.2,0.1-0.5,0.2-0.8s0.6-1.8,1.5-4.4h1.5l-2.8,7.3
			c-0.5,1.3-1.3,2-2.5,2c-0.3,0-0.6,0-0.9-0.1v-1.1c0.2,0,0.4,0.1,0.7,0.1c0.7,0,1.1-0.4,1.4-1.2l0.2-0.6L830.5,160.7z"/>
		<path class="st3" d="M840.4,167.3c-1,0-1.8-0.3-2.4-0.9s-0.9-1.4-0.9-2.4c0-1.1,0.3-1.9,0.8-2.5s1.3-0.9,2.2-0.9
			c0.9,0,1.5,0.3,2,0.8s0.7,1.2,0.7,2.1v0.7h-4.3c0,0.6,0.2,1.1,0.5,1.5s0.8,0.5,1.4,0.5c0.4,0,0.7,0,1.1-0.1s0.7-0.2,1.1-0.4v1.1
			c-0.3,0.2-0.7,0.3-1,0.3S840.9,167.3,840.4,167.3z M840.2,161.6c-0.4,0-0.8,0.1-1.1,0.4s-0.4,0.7-0.5,1.2h2.9
			c0-0.5-0.1-0.9-0.4-1.2S840.6,161.6,840.2,161.6z"/>
		<path class="st3" d="M846.8,167.3c-1,0-1.7-0.3-2.2-0.9s-0.8-1.4-0.8-2.5c0-1.1,0.3-1.9,0.8-2.5s1.3-0.9,2.3-0.9
			c0.7,0,1.3,0.1,1.8,0.4l-0.4,1.1c-0.6-0.2-1.1-0.3-1.4-0.3c-1.1,0-1.7,0.7-1.7,2.2c0,0.7,0.1,1.3,0.4,1.6s0.7,0.5,1.2,0.5
			c0.6,0,1.2-0.2,1.7-0.5v1.2c-0.2,0.1-0.5,0.2-0.8,0.3S847.2,167.3,846.8,167.3z"/>
		<path class="st3" d="M852.3,166.2c0.3,0,0.7-0.1,1-0.2v1c-0.2,0.1-0.3,0.1-0.6,0.2s-0.5,0.1-0.7,0.1c-1.3,0-2-0.7-2-2.1v-3.5h-0.9
			v-0.6l0.9-0.5l0.5-1.4h0.8v1.4h1.8v1h-1.8v3.5c0,0.3,0.1,0.6,0.2,0.7S852,166.2,852.3,166.2z"/>
		<path class="st3" d="M860,163.9c0,1.1-0.3,1.9-0.8,2.5s-1.3,0.9-2.3,0.9c-0.6,0-1.1-0.1-1.6-0.4s-0.8-0.7-1.1-1.2
			s-0.4-1.1-0.4-1.8c0-1.1,0.3-1.9,0.8-2.5s1.3-0.9,2.3-0.9c0.9,0,1.7,0.3,2.2,0.9S860,162.9,860,163.9z M855.3,163.9
			c0,1.5,0.6,2.2,1.7,2.2c1.1,0,1.6-0.7,1.6-2.2c0-1.5-0.6-2.2-1.7-2.2c-0.6,0-1,0.2-1.3,0.6S855.3,163.2,855.3,163.9z"/>
	</g>
	<path class="st4" d="M126.2,98.9l-49.1-0.1c-3.1,0-5.9,1.6-7.4,4.3l-24.6,42.5c-1.5,2.7-1.5,5.9,0,8.6l24.5,42.5
		c1.5,2.7,4.4,4.3,7.4,4.3l49.1,0.1c3.1,0,5.9-1.6,7.4-4.3l24.6-42.5c1.5-2.7,1.5-5.9,0-8.6l-24.5-42.5
		C132.1,100.6,129.3,98.9,126.2,98.9z"/>
	<g>
		<path class="st5" d="M83.2,139h-5.8v-10h5.8v1.7h-3.6v2.2H83v1.7h-3.4v2.6h3.6V139z"/>
		<path class="st5" d="M88.8,139h-2.1v-8.2H84V129h7.5v1.8h-2.7V139z"/>
		<path class="st5" d="M98.8,139l-0.7-2.4h-3.6l-0.7,2.4h-2.3l3.5-10h2.6l3.5,10H98.8z M97.6,134.8c-0.7-2.2-1-3.4-1.1-3.7
			c-0.1-0.3-0.1-0.5-0.2-0.7c-0.2,0.6-0.6,2-1.3,4.3H97.6z"/>
		<path class="st5" d="M108.9,132.1c0,1.1-0.3,1.9-1,2.5c-0.7,0.6-1.6,0.9-2.9,0.9h-0.9v3.6H102v-10h3.2c1.2,0,2.1,0.3,2.8,0.8
			C108.6,130.3,108.9,131.1,108.9,132.1z M104.2,133.7h0.7c0.7,0,1.1-0.1,1.5-0.4c0.3-0.3,0.5-0.6,0.5-1.1c0-0.5-0.1-0.9-0.4-1.1
			c-0.3-0.2-0.7-0.4-1.3-0.4h-1V133.7z"/>
		<path class="st5" d="M116.6,139l-0.7-2.4h-3.6l-0.7,2.4h-2.3l3.5-10h2.6l3.5,10H116.6z M115.4,134.8c-0.7-2.2-1-3.4-1.1-3.7
			c-0.1-0.3-0.1-0.5-0.2-0.7c-0.2,0.6-0.6,2-1.3,4.3H115.4z"/>
		<path class="st5" d="M125.7,136.2c0,0.9-0.3,1.6-1,2.1s-1.6,0.8-2.7,0.8c-1.1,0-2-0.2-2.8-0.6v-2c0.7,0.3,1.2,0.5,1.7,0.6
			c0.5,0.1,0.9,0.2,1.3,0.2c0.5,0,0.8-0.1,1.1-0.3c0.2-0.2,0.4-0.4,0.4-0.8c0-0.2-0.1-0.4-0.2-0.5c-0.1-0.2-0.3-0.3-0.5-0.4
			s-0.6-0.4-1.3-0.7c-0.6-0.3-1.1-0.6-1.4-0.8c-0.3-0.3-0.5-0.6-0.7-0.9c-0.2-0.4-0.3-0.8-0.3-1.2c0-0.9,0.3-1.6,0.9-2.1
			c0.6-0.5,1.4-0.8,2.5-0.8c0.5,0,1,0.1,1.5,0.2s1,0.3,1.5,0.5l-0.7,1.6c-0.5-0.2-1-0.4-1.3-0.5s-0.7-0.1-1-0.1
			c-0.4,0-0.7,0.1-0.9,0.3c-0.2,0.2-0.3,0.4-0.3,0.7c0,0.2,0,0.3,0.1,0.5c0.1,0.1,0.2,0.3,0.4,0.4c0.2,0.1,0.6,0.4,1.3,0.7
			c0.9,0.4,1.6,0.9,1.9,1.3C125.5,135,125.7,135.6,125.7,136.2z"/>
		<path class="st5" d="M73,150c0,1.7-0.4,2.9-1.2,3.8s-2,1.3-3.5,1.3s-2.7-0.4-3.5-1.3c-0.8-0.9-1.2-2.2-1.2-3.8s0.4-2.9,1.2-3.8
			c0.8-0.9,2-1.3,3.5-1.3c1.5,0,2.7,0.4,3.5,1.3S73,148.3,73,150z M65.7,150c0,1.1,0.2,2,0.6,2.5s1.1,0.8,1.9,0.8
			c1.7,0,2.5-1.1,2.5-3.4c0-2.3-0.8-3.4-2.5-3.4c-0.8,0-1.5,0.3-1.9,0.9C65.9,148,65.7,148.9,65.7,150z"/>
		<path class="st5" d="M74.7,145h3.1c1.4,0,2.4,0.2,3.1,0.6c0.6,0.4,1,1,1,1.9c0,0.6-0.1,1.1-0.4,1.5s-0.7,0.6-1.1,0.7v0.1
			c0.6,0.1,1.1,0.4,1.4,0.8s0.4,0.9,0.4,1.5c0,0.9-0.3,1.6-1,2.1c-0.7,0.5-1.6,0.8-2.7,0.8h-3.7V145z M76.8,149H78
			c0.6,0,1-0.1,1.2-0.3c0.3-0.2,0.4-0.5,0.4-0.9c0-0.4-0.1-0.7-0.4-0.8c-0.3-0.2-0.7-0.2-1.3-0.2h-1.1V149z M76.8,150.6v2.6h1.4
			c0.6,0,1-0.1,1.3-0.3c0.3-0.2,0.4-0.6,0.4-1c0-0.8-0.6-1.2-1.8-1.2H76.8z"/>
		<path class="st5" d="M85.9,151.2v3.8h-2.1v-10h2.9c1.4,0,2.4,0.2,3,0.7c0.7,0.5,1,1.2,1,2.3c0,0.6-0.2,1.1-0.5,1.6
			c-0.3,0.5-0.8,0.8-1.4,1.1c1.5,2.2,2.5,3.7,2.9,4.4h-2.4l-2.4-3.8H85.9z M85.9,149.4h0.7c0.7,0,1.2-0.1,1.5-0.3
			c0.3-0.2,0.5-0.6,0.5-1.1c0-0.5-0.2-0.8-0.5-1c-0.3-0.2-0.8-0.3-1.5-0.3h-0.6V149.4z"/>
		<path class="st5" d="M98.8,155l-0.7-2.4h-3.6l-0.7,2.4h-2.3l3.5-10h2.6l3.5,10H98.8z M97.5,150.8c-0.7-2.2-1-3.4-1.1-3.7
			c-0.1-0.3-0.1-0.5-0.2-0.7c-0.2,0.6-0.6,2-1.3,4.3H97.5z"/>
		<path class="st5" d="M107.8,152.2c0,0.9-0.3,1.6-1,2.1s-1.6,0.8-2.7,0.8c-1.1,0-2-0.2-2.8-0.6v-2c0.7,0.3,1.2,0.5,1.7,0.6
			c0.5,0.1,0.9,0.2,1.3,0.2c0.5,0,0.8-0.1,1.1-0.3c0.2-0.2,0.4-0.4,0.4-0.8c0-0.2-0.1-0.4-0.2-0.5c-0.1-0.2-0.3-0.3-0.5-0.4
			s-0.6-0.4-1.3-0.7c-0.6-0.3-1.1-0.6-1.4-0.8c-0.3-0.3-0.5-0.6-0.7-0.9c-0.2-0.4-0.3-0.8-0.3-1.2c0-0.9,0.3-1.6,0.9-2.1
			c0.6-0.5,1.4-0.8,2.5-0.8c0.5,0,1,0.1,1.5,0.2s1,0.3,1.5,0.5l-0.7,1.6c-0.5-0.2-1-0.4-1.3-0.5s-0.7-0.1-1-0.1
			c-0.4,0-0.7,0.1-0.9,0.3c-0.2,0.2-0.3,0.4-0.3,0.7c0,0.2,0,0.3,0.1,0.5c0.1,0.1,0.2,0.3,0.4,0.4c0.2,0.1,0.6,0.4,1.3,0.7
			c0.9,0.4,1.6,0.9,1.9,1.3C107.7,151,107.8,151.6,107.8,152.2z"/>
		<path class="st5" d="M119.5,148.1c0,1.1-0.3,1.9-1,2.5c-0.7,0.6-1.6,0.9-2.9,0.9h-0.9v3.6h-2.1v-10h3.2c1.2,0,2.1,0.3,2.8,0.8
			C119.2,146.3,119.5,147.1,119.5,148.1z M114.7,149.7h0.7c0.7,0,1.1-0.1,1.5-0.4c0.3-0.3,0.5-0.6,0.5-1.1c0-0.5-0.1-0.9-0.4-1.1
			c-0.3-0.2-0.7-0.4-1.3-0.4h-1V149.7z"/>
		<path class="st5" d="M130.1,150c0,1.7-0.4,2.9-1.2,3.8s-2,1.3-3.5,1.3s-2.7-0.4-3.5-1.3s-1.2-2.2-1.2-3.8s0.4-2.9,1.2-3.8
			c0.8-0.9,2-1.3,3.5-1.3c1.5,0,2.7,0.4,3.5,1.3S130.1,148.3,130.1,150z M122.8,150c0,1.1,0.2,2,0.6,2.5s1.1,0.8,1.9,0.8
			c1.7,0,2.5-1.1,2.5-3.4c0-2.3-0.8-3.4-2.5-3.4c-0.8,0-1.5,0.3-1.9,0.9C123,148,122.8,148.9,122.8,150z"/>
		<path class="st5" d="M133.9,151.2v3.8h-2.1v-10h2.9c1.4,0,2.4,0.2,3,0.7c0.7,0.5,1,1.2,1,2.3c0,0.6-0.2,1.1-0.5,1.6
			c-0.3,0.5-0.8,0.8-1.4,1.1c1.5,2.2,2.5,3.7,2.9,4.4h-2.4l-2.4-3.8H133.9z M133.9,149.4h0.7c0.7,0,1.2-0.1,1.5-0.3
			c0.3-0.2,0.5-0.6,0.5-1.1c0-0.5-0.2-0.8-0.5-1c-0.3-0.2-0.8-0.3-1.5-0.3h-0.6V149.4z"/>
		<path class="st5" d="M64,171v-10h2.1v10H64z"/>
		<path class="st5" d="M72.5,171l-2.4-7.8h-0.1c0.1,1.6,0.1,2.7,0.1,3.2v4.6h-1.9v-10h2.9l2.4,7.6h0l2.5-7.6H79v10h-2v-4.7
			c0-0.2,0-0.5,0-0.8s0-1.1,0.1-2.3h-0.1l-2.6,7.8H72.5z"/>
		<path class="st5" d="M88.1,164.1c0,1.1-0.3,1.9-1,2.5c-0.7,0.6-1.6,0.9-2.9,0.9h-0.9v3.6h-2.1v-10h3.2c1.2,0,2.1,0.3,2.8,0.8
			C87.7,162.3,88.1,163.1,88.1,164.1z M83.3,165.7H84c0.7,0,1.1-0.1,1.5-0.4c0.3-0.3,0.5-0.6,0.5-1.1c0-0.5-0.1-0.9-0.4-1.1
			c-0.3-0.2-0.7-0.4-1.3-0.4h-1V165.7z"/>
		<path class="st5" d="M97.7,161v6.5c0,0.7-0.2,1.4-0.5,1.9c-0.3,0.6-0.8,1-1.4,1.3c-0.6,0.3-1.4,0.4-2.2,0.4c-1.3,0-2.3-0.3-3-1
			c-0.7-0.7-1.1-1.6-1.1-2.7V161h2.1v6.1c0,0.8,0.2,1.3,0.5,1.7c0.3,0.4,0.8,0.5,1.5,0.5c0.7,0,1.2-0.2,1.5-0.5
			c0.3-0.4,0.5-0.9,0.5-1.7V161H97.7z"/>
		<path class="st5" d="M105.6,171h-5.8v-10h5.8v1.7h-3.6v2.2h3.4v1.7h-3.4v2.6h3.6V171z"/>
		<path class="st5" d="M113.2,168.2c0,0.9-0.3,1.6-1,2.1s-1.6,0.8-2.7,0.8c-1.1,0-2-0.2-2.8-0.6v-2c0.7,0.3,1.2,0.5,1.7,0.6
			c0.5,0.1,0.9,0.2,1.3,0.2c0.5,0,0.8-0.1,1.1-0.3c0.2-0.2,0.4-0.4,0.4-0.8c0-0.2-0.1-0.4-0.2-0.5c-0.1-0.2-0.3-0.3-0.5-0.4
			s-0.6-0.4-1.3-0.7c-0.6-0.3-1.1-0.6-1.4-0.8c-0.3-0.3-0.5-0.6-0.7-0.9c-0.2-0.4-0.3-0.8-0.3-1.2c0-0.9,0.3-1.6,0.9-2.1
			c0.6-0.5,1.4-0.8,2.5-0.8c0.5,0,1,0.1,1.5,0.2s1,0.3,1.5,0.5l-0.7,1.6c-0.5-0.2-1-0.4-1.3-0.5s-0.7-0.1-1-0.1
			c-0.4,0-0.7,0.1-0.9,0.3c-0.2,0.2-0.3,0.4-0.3,0.7c0,0.2,0,0.3,0.1,0.5c0.1,0.1,0.2,0.3,0.4,0.4c0.2,0.1,0.6,0.4,1.3,0.7
			c0.9,0.4,1.6,0.9,1.9,1.3C113,167,113.2,167.6,113.2,168.2z"/>
		<path class="st5" d="M118.5,171h-2.1v-8.2h-2.7V161h7.5v1.8h-2.7V171z"/>
		<path class="st5" d="M131.5,166c0,1.7-0.4,2.9-1.2,3.8s-2,1.3-3.5,1.3c-1.5,0-2.7-0.4-3.5-1.3s-1.2-2.2-1.2-3.8s0.4-2.9,1.2-3.8
			c0.8-0.9,2-1.3,3.5-1.3c1.5,0,2.7,0.4,3.5,1.3S131.5,164.3,131.5,166z M124.2,166c0,1.1,0.2,2,0.6,2.5s1.1,0.8,1.9,0.8
			c1.7,0,2.5-1.1,2.5-3.4c0-2.3-0.8-3.4-2.5-3.4c-0.8,0-1.5,0.3-1.9,0.9C124.4,164,124.2,164.9,124.2,166z"/>
		<path class="st5" d="M139.1,168.2c0,0.9-0.3,1.6-1,2.1s-1.6,0.8-2.7,0.8c-1.1,0-2-0.2-2.8-0.6v-2c0.7,0.3,1.2,0.5,1.7,0.6
			c0.5,0.1,0.9,0.2,1.3,0.2c0.5,0,0.8-0.1,1.1-0.3c0.2-0.2,0.4-0.4,0.4-0.8c0-0.2-0.1-0.4-0.2-0.5c-0.1-0.2-0.3-0.3-0.5-0.4
			s-0.6-0.4-1.3-0.7c-0.6-0.3-1.1-0.6-1.4-0.8c-0.3-0.3-0.5-0.6-0.7-0.9c-0.2-0.4-0.3-0.8-0.3-1.2c0-0.9,0.3-1.6,0.9-2.1
			c0.6-0.5,1.4-0.8,2.5-0.8c0.5,0,1,0.1,1.5,0.2s1,0.3,1.5,0.5l-0.7,1.6c-0.5-0.2-1-0.4-1.3-0.5s-0.7-0.1-1-0.1
			c-0.4,0-0.7,0.1-0.9,0.3c-0.2,0.2-0.3,0.4-0.3,0.7c0,0.2,0,0.3,0.1,0.5c0.1,0.1,0.2,0.3,0.4,0.4c0.2,0.1,0.6,0.4,1.3,0.7
			c0.9,0.4,1.6,0.9,1.9,1.3C139,167,139.1,167.6,139.1,168.2z"/>
	</g>
	<g>
		<path class="st6" d="M333,135.4h-14.2c-0.9,0-1.7,0.5-2.2,1.2l-7.1,12.1c-0.5,0.8-0.5,1.7,0,2.5l7.1,12.1c0.4,0.8,1.3,1.2,2.2,1.2
			H333c0.9,0,1.7-0.5,2.2-1.2l7.1-12.1c0.5-0.8,0.5-1.7,0-2.5l-7.1-12.1C334.7,135.9,333.9,135.4,333,135.4z"/>
		<g>
			<g>
				<path class="st7" d="M328.1,157.2l-4.3,0l0-8.3c0-1,0-1.9,0.1-2.8c-0.3,0.3-0.6,0.7-1,1l-1.8,1.5l-2.2-2.7l5.4-4.4l3.8,0
					L328.1,157.2z"/>
			</g>
		</g>
	</g>
	<g>
		<path class="st6" d="M479,135.4h-14.2c-0.9,0-1.7,0.5-2.2,1.2l-7.1,12.1c-0.5,0.8-0.5,1.7,0,2.5l7.1,12.1c0.4,0.8,1.3,1.2,2.2,1.2
			H479c0.9,0,1.7-0.5,2.2-1.2l7.1-12.1c0.5-0.8,0.5-1.7,0-2.5l-7.1-12.1C480.7,135.9,479.9,135.4,479,135.4z"/>
		<g>
			<g>
				<path class="st7" d="M476,157.2l-11.4,0l0-2.8l3.8-3.9c1.1-1.1,1.8-1.9,2.2-2.3c0.3-0.4,0.6-0.8,0.7-1.1s0.2-0.6,0.2-0.9
					c0-0.4-0.1-0.7-0.4-1c-0.3-0.2-0.6-0.4-1.1-0.4c-0.5,0-1,0.1-1.5,0.4c-0.5,0.3-1.1,0.7-1.7,1.2l-2.3-2.7c0.8-0.7,1.5-1.2,2-1.6
					c0.6-0.3,1.2-0.5,1.8-0.7c0.6-0.2,1.4-0.2,2.2-0.2c1,0,1.9,0.2,2.7,0.5c0.8,0.4,1.4,0.9,1.9,1.5c0.4,0.7,0.7,1.4,0.7,2.2
					c0,0.6-0.1,1.2-0.2,1.7s-0.4,1-0.7,1.5c-0.3,0.5-0.8,1-1.3,1.6c-0.5,0.6-1.7,1.6-3.4,3.2v0.1l5.9,0L476,157.2z"/>
			</g>
		</g>
	</g>
	<g>
		<path class="st6" d="M626,135.4h-14.2c-0.9,0-1.7,0.5-2.2,1.2l-7.1,12.1c-0.5,0.8-0.5,1.7,0,2.5l7.1,12.1c0.4,0.8,1.3,1.2,2.2,1.2
			H626c0.9,0,1.7-0.5,2.2-1.2l7.1-12.1c0.5-0.8,0.5-1.7,0-2.5l-7.1-12.1C627.7,135.9,626.9,135.4,626,135.4z"/>
		<g>
			<g>
				<path class="st7" d="M622.5,144.9c0,1-0.3,1.8-0.9,2.5c-0.6,0.7-1.5,1.2-2.6,1.5v0.1c2.6,0.3,3.9,1.6,3.9,3.7
					c0,1.5-0.6,2.6-1.7,3.4c-1.2,0.8-2.8,1.3-4.8,1.3c-0.8,0-1.6-0.1-2.3-0.2c-0.7-0.1-1.5-0.3-2.3-0.7l0-3.5
					c0.7,0.4,1.4,0.6,2.1,0.8c0.7,0.2,1.4,0.3,2,0.3c0.9,0,1.6-0.1,2-0.4c0.4-0.3,0.6-0.7,0.6-1.2c0-0.4-0.1-0.8-0.3-1
					c-0.2-0.2-0.6-0.4-1.1-0.5c-0.5-0.1-1.1-0.2-1.9-0.2h-1l0-3.2h1c2.2,0,3.2-0.5,3.2-1.7c0-0.4-0.2-0.7-0.5-0.9
					c-0.3-0.2-0.7-0.3-1.3-0.3c-1,0-2,0.3-3.1,1l-1.8-2.8c0.8-0.6,1.7-1,2.6-1.2c0.9-0.2,1.9-0.4,3-0.4c1.6,0,2.9,0.3,3.8,1
					C622,142.9,622.5,143.8,622.5,144.9z"/>
			</g>
		</g>
	</g>
	<g>
		<path class="st6" d="M773,135.4h-14.2c-0.9,0-1.7,0.5-2.2,1.2l-7.1,12.1c-0.5,0.8-0.5,1.7,0,2.5l7.1,12.1c0.4,0.8,1.3,1.2,2.2,1.2
			H773c0.9,0,1.7-0.5,2.2-1.2l7.1-12.1c0.5-0.8,0.5-1.7,0-2.5l-7.1-12.1C774.7,135.9,773.9,135.4,773,135.4z"/>
		<g>
			<g>
				<path class="st7" d="M770.5,154.2l-1.7,0l0,3l-4.2,0l0-3l-6.3,0l0-3.1l6.5-9.5l3.9,0l0,9.5l1.7,0L770.5,154.2z M764.6,151l0-1.8
					c0-0.3,0-0.8,0-1.4c0-0.6,0-0.9,0.1-0.9h-0.1c-0.2,0.6-0.5,1.1-0.8,1.5L762,151L764.6,151z"/>
			</g>
		</g>
	</g>
	<g>
		<path class="st6" d="M920,135.4h-14.2c-0.9,0-1.7,0.5-2.2,1.2l-7.1,12.1c-0.5,0.8-0.5,1.7,0,2.5l7.1,12.1c0.4,0.8,1.3,1.2,2.2,1.2
			H920c0.9,0,1.7-0.5,2.2-1.2l7.1-12.1c0.5-0.8,0.5-1.7,0-2.5l-7.1-12.1C921.7,135.9,920.9,135.4,920,135.4z"/>
		<g>
			<g>
				<path class="st7" d="M912.1,146.9c0.9,0,1.7,0.2,2.4,0.6c0.7,0.4,1.3,1,1.7,1.8c0.4,0.8,0.6,1.7,0.6,2.7c0,1.8-0.5,3.1-1.6,4
					c-1.1,0.9-2.7,1.4-4.8,1.4c-1.8,0-3.3-0.3-4.5-0.9l0-3.5c0.6,0.3,1.3,0.5,2.1,0.7c0.8,0.2,1.5,0.3,2,0.3c0.8,0,1.4-0.2,1.8-0.5
					c0.4-0.3,0.6-0.8,0.6-1.5c0-0.6-0.2-1.1-0.6-1.4c-0.4-0.3-1.1-0.5-2-0.5c-0.7,0-1.4,0.1-2.2,0.4l-1.6-0.8l0.6-8.3l9,0l0,3.5
					l-5.3,0l-0.2,2.1c0.6-0.1,1-0.2,1.2-0.2C911.7,146.9,911.9,146.9,912.1,146.9z"/>
			</g>
		</g>
	</g>
</g>
</svg>
