<?xml version="1.0" encoding="utf-8"?>
<!-- Generator: Adobe Illustrator 22.1.0, SVG Export Plug-In . SVG Version: 6.00 Build 0)  -->
<svg version="1.1" baseProfile="tiny" id="Capa_1" xmlns="http://www.w3.org/2000/svg" xmlns:xlink="http://www.w3.org/1999/xlink"
	 x="0px" y="0px" viewBox="0 0 30 30" xml:space="preserve">
<g>
	<path fill-rule="evenodd" fill="#0090CC" d="M0,0v30h30V0H0z M19.8,8.3h-2.3c-0.5,0-0.9,0.5-0.9,0.8v2.4h3.3
		c-0.1,1.8-0.4,3.5-0.4,3.5h-2.9v10.4h-4.3V15h-2.1v-3.5h2.1V8.6c0-0.5-0.1-4,4.4-4h3.2V8.3z M19.8,8.3"/>
</g>
</svg>
