<?xml version="1.0" encoding="utf-8"?>
<!-- Generator: Adobe Illustrator 22.1.0, SVG Export Plug-In . SVG Version: 6.00 Build 0)  -->
<svg version="1.1" id="Capa_1" xmlns="http://www.w3.org/2000/svg" xmlns:xlink="http://www.w3.org/1999/xlink" x="0px" y="0px"
	 viewBox="0 0 150 100" style="enable-background:new 0 0 150 100;" xml:space="preserve">
<style type="text/css">
	.st0{fill:#0090CC;}
	.st1{fill:#869095;}
</style>
<g>
	<g>
		<path class="st0" d="M87.5,67.9c-0.7,0-1.2,0.5-1.2,1.2s0.5,1.2,1.2,1.2s1.2-0.5,1.2-1.2S88.2,67.9,87.5,67.9z"/>
		<path class="st0" d="M62.5,67.9c-0.7,0-1.2,0.5-1.2,1.2s0.5,1.2,1.2,1.2c0.7,0,1.2-0.5,1.2-1.2S63.2,67.9,62.5,67.9z"/>
		<path class="st0" d="M57.8,51.4c-0.7,0-1.2,0.5-1.2,1.2s0.5,1.2,1.2,1.2s1.2-0.5,1.2-1.2C59,51.9,58.4,51.4,57.8,51.4z"/>
		<path class="st0" d="M93.2,51.4H62.5c-0.7,0-1.2,0.5-1.2,1.2s0.5,1.2,1.2,1.2h30.7c0.7,0,1.2-0.5,1.2-1.2
			C94.3,51.9,93.8,51.4,93.2,51.4z"/>
		<path class="st0" d="M104,39.6h-4.9L86.2,26.8c-2.3-2.3-6.1-2.3-8.3,0L75,29.7l-2.9-2.9c-2.3-2.3-6.1-2.3-8.3,0L50.9,39.6H46
			c-0.7,0-1.2,0.5-1.2,1.2v4.7c0,1.6,1.1,3,2.5,3.4l4.1,18.6c0.3,1.7,1.8,2.8,3.5,2.8h1.8c0.5,2.7,2.9,4.7,5.8,4.7s5.3-2,5.8-4.7
			h13.4c0.5,2.7,2.9,4.7,5.8,4.7c2.9,0,5.3-2,5.8-4.7h1.8c1.7,0,3.1-1.1,3.5-2.8l4.1-18.6c1.5-0.4,2.5-1.8,2.5-3.4v-4.7
			C105.1,40.2,104.6,39.6,104,39.6z M79.6,28.4c1.4-1.4,3.6-1.4,5,0l11.2,11.2H84.9l-8.3-8.3L79.6,28.4z M65.4,28.4
			c1.4-1.4,3.6-1.4,5,0l11.2,11.2H54.3L65.4,28.4z M47.2,42h55.6v3.5c0,0.7-0.5,1.2-1.2,1.2H48.4c-0.7,0-1.2-0.5-1.2-1.2V42z
			 M62.5,72.6c-1.9,0-3.5-1.6-3.5-3.5s1.6-3.5,3.5-3.5s3.5,1.6,3.5,3.5S64.5,72.6,62.5,72.6z M87.5,72.6c-1.9,0-3.5-1.6-3.5-3.5
			s1.6-3.5,3.5-3.5c1.9,0,3.5,1.6,3.5,3.5S89.4,72.6,87.5,72.6z M96.2,67c-0.1,0.5-0.6,0.9-1.1,0.9h-1.8c-0.5-2.7-2.9-4.7-5.8-4.7
			c-2.9,0-5.3,2-5.8,4.7H68.3c-0.5-2.7-2.9-4.7-5.8-4.7s-5.3,2-5.8,4.7h-1.8c-0.5,0-1.1-0.4-1.1-0.9l-4-18h50.3L96.2,67z"/>
	</g>
	<path class="st1" d="M79.6,28.2c1.4-1.4,3.6-1.4,5,0l11.1,11.2H84.9l-8.3-8.3L79.6,28.2z"/>
	<path class="st1" d="M65.4,28.2c1.4-1.4,3.6-1.4,5,0l11.2,11.2H54.3L65.4,28.2z"/>
</g>
</svg>
