<?xml version="1.0" encoding="utf-8"?>
<!-- Generator: Adobe Illustrator 22.1.0, SVG Export Plug-In . SVG Version: 6.00 Build 0)  -->
<svg version="1.1" baseProfile="tiny" id="Capa_1" xmlns="http://www.w3.org/2000/svg" xmlns:xlink="http://www.w3.org/1999/xlink"
	 x="0px" y="0px" viewBox="0 0 512 512" xml:space="preserve">
<g>
	<rect x="0.9" y="0.9" fill="#D6EEEF" width="510.2" height="510.2"/>
	<g>
		<path fill="#036995" d="M138.6,383.7c0,3.5-1.1,6.1-3.4,7.9c-2.3,1.8-5.5,2.8-9.7,2.8h-3.4v12.4h-5.4v-33.1h9.5
			c4.1,0,7.2,0.8,9.3,2.5C137.5,377.9,138.6,380.4,138.6,383.7z M122.1,389.8h2.9c2.8,0,4.8-0.5,6.1-1.4c1.3-1,1.9-2.5,1.9-4.5
			c0-1.9-0.6-3.3-1.7-4.3c-1.2-0.9-3-1.4-5.4-1.4h-3.8V389.8z"/>
		<path fill="#036995" d="M159.1,406.8l-1.1-3.5h-0.2c-1.2,1.5-2.4,2.6-3.6,3.1c-1.2,0.5-2.8,0.8-4.7,0.8c-2.5,0-4.4-0.7-5.8-2
			c-1.4-1.3-2.1-3.2-2.1-5.6c0-2.6,1-4.5,2.9-5.8c1.9-1.3,4.8-2,8.8-2.1l4.3-0.1v-1.3c0-1.6-0.4-2.8-1.1-3.6
			c-0.7-0.8-1.9-1.2-3.5-1.2c-1.3,0-2.5,0.2-3.7,0.6c-1.2,0.4-2.3,0.8-3.4,1.3l-1.7-3.8c1.4-0.7,2.8-1.2,4.5-1.6
			c1.6-0.4,3.1-0.6,4.6-0.6c3.2,0,5.6,0.7,7.2,2.1c1.6,1.4,2.4,3.6,2.4,6.5v16.9H159.1z M151.2,403.1c1.9,0,3.5-0.5,4.6-1.6
			c1.2-1.1,1.8-2.6,1.8-4.5v-2.2l-3.2,0.1c-2.5,0.1-4.3,0.5-5.5,1.3c-1.1,0.7-1.7,1.9-1.7,3.4c0,1.1,0.3,2,1,2.6
			C148.9,402.8,149.9,403.1,151.2,403.1z"/>
		<path fill="#036995" d="M181.9,381.3c1.1,0,2,0.1,2.6,0.2l-0.5,5c-0.8-0.2-1.5-0.3-2.4-0.3c-2.1,0-3.8,0.7-5.2,2.1
			c-1.3,1.4-2,3.2-2,5.4v13.1h-5.3v-25h4.2l0.7,4.4h0.3c0.8-1.5,1.9-2.7,3.2-3.6C178.9,381.7,180.3,381.3,181.9,381.3z"/>
		<path fill="#036995" d="M197.3,402.9c1.3,0,2.6-0.2,3.9-0.6v4c-0.6,0.3-1.3,0.5-2.3,0.6c-0.9,0.2-1.9,0.3-2.9,0.3
			c-5,0-7.6-2.7-7.6-8v-13.5h-3.4v-2.4l3.7-1.9l1.8-5.3h3.3v5.6h7.1v4h-7.1v13.4c0,1.3,0.3,2.2,1,2.8
			C195.4,402.6,196.3,402.9,197.3,402.9z"/>
		<path fill="#036995" d="M204.7,375.1c0-1,0.3-1.7,0.8-2.2c0.5-0.5,1.3-0.8,2.2-0.8c0.9,0,1.7,0.3,2.2,0.8c0.5,0.5,0.8,1.2,0.8,2.2
			c0,0.9-0.3,1.6-0.8,2.1c-0.5,0.5-1.2,0.8-2.2,0.8c-1,0-1.7-0.3-2.2-0.8C205,376.7,204.7,376,204.7,375.1z M210.4,406.8H205v-25
			h5.3V406.8z"/>
		<path fill="#036995" d="M226.9,407.2c-3.8,0-6.7-1.1-8.6-3.3c-2-2.2-3-5.4-3-9.5c0-4.2,1-7.4,3.1-9.7c2.1-2.3,5-3.4,8.9-3.4
			c2.6,0,5,0.5,7.1,1.5l-1.6,4.3c-2.2-0.9-4.1-1.3-5.6-1.3c-4.3,0-6.5,2.9-6.5,8.6c0,2.8,0.5,4.9,1.6,6.3c1.1,1.4,2.7,2.1,4.7,2.1
			c2.4,0,4.6-0.6,6.7-1.8v4.6c-1,0.6-2,1-3,1.2C229.7,407.1,228.4,407.2,226.9,407.2z"/>
		<path fill="#036995" d="M238.3,375.1c0-1,0.3-1.7,0.8-2.2c0.5-0.5,1.3-0.8,2.2-0.8c0.9,0,1.7,0.3,2.2,0.8c0.5,0.5,0.8,1.2,0.8,2.2
			c0,0.9-0.3,1.6-0.8,2.1c-0.5,0.5-1.2,0.8-2.2,0.8c-1,0-1.7-0.3-2.2-0.8C238.5,376.7,238.3,376,238.3,375.1z M243.9,406.8h-5.3v-25
			h5.3V406.8z"/>
		<path fill="#036995" d="M263,407.2c-3.2,0-5.6-1.1-7.4-3.4h-0.3c0.2,2.1,0.3,3.4,0.3,3.8v10.3h-5.3v-36.2h4.3
			c0.1,0.5,0.4,1.6,0.7,3.3h0.3c1.7-2.5,4.1-3.8,7.5-3.8c3.1,0,5.6,1.1,7.3,3.4c1.7,2.3,2.6,5.4,2.6,9.5c0,4.1-0.9,7.3-2.7,9.6
			C268.6,406.1,266.2,407.2,263,407.2z M261.8,385.6c-2.1,0-3.7,0.6-4.6,1.9c-1,1.2-1.5,3.2-1.5,5.9v0.8c0,3,0.5,5.3,1.4,6.6
			c1,1.4,2.5,2,4.7,2c1.8,0,3.3-0.8,4.3-2.3c1-1.5,1.5-3.7,1.5-6.4c0-2.8-0.5-4.9-1.5-6.4C265.1,386.3,263.7,385.6,261.8,385.6z"/>
		<path fill="#036995" d="M293.7,406.8l-1.1-3.5h-0.2c-1.2,1.5-2.4,2.6-3.6,3.1c-1.2,0.5-2.8,0.8-4.7,0.8c-2.5,0-4.4-0.7-5.8-2
			c-1.4-1.3-2.1-3.2-2.1-5.6c0-2.6,1-4.5,2.9-5.8c1.9-1.3,4.8-2,8.8-2.1l4.3-0.1v-1.3c0-1.6-0.4-2.8-1.1-3.6
			c-0.7-0.8-1.9-1.2-3.5-1.2c-1.3,0-2.5,0.2-3.7,0.6c-1.2,0.4-2.3,0.8-3.4,1.3l-1.7-3.8c1.4-0.7,2.8-1.2,4.5-1.6
			c1.6-0.4,3.1-0.6,4.6-0.6c3.2,0,5.6,0.7,7.2,2.1c1.6,1.4,2.4,3.6,2.4,6.5v16.9H293.7z M285.8,403.1c1.9,0,3.5-0.5,4.6-1.6
			c1.2-1.1,1.8-2.6,1.8-4.5v-2.2l-3.2,0.1c-2.5,0.1-4.3,0.5-5.5,1.3c-1.1,0.7-1.7,1.9-1.7,3.4c0,1.1,0.3,2,1,2.6
			C283.5,402.8,284.5,403.1,285.8,403.1z"/>
		<path fill="#036995" d="M313.9,407.2c-3.8,0-6.7-1.1-8.6-3.3c-2-2.2-3-5.4-3-9.5c0-4.2,1-7.4,3.1-9.7c2.1-2.3,5-3.4,8.9-3.4
			c2.6,0,5,0.5,7.1,1.5l-1.6,4.3c-2.2-0.9-4.1-1.3-5.6-1.3c-4.3,0-6.5,2.9-6.5,8.6c0,2.8,0.5,4.9,1.6,6.3c1.1,1.4,2.7,2.1,4.7,2.1
			c2.4,0,4.6-0.6,6.7-1.8v4.6c-1,0.6-2,1-3,1.2C316.7,407.1,315.4,407.2,313.9,407.2z"/>
		<path fill="#036995" d="M325.3,375.1c0-1,0.3-1.7,0.8-2.2c0.5-0.5,1.3-0.8,2.2-0.8c0.9,0,1.7,0.3,2.2,0.8c0.5,0.5,0.8,1.2,0.8,2.2
			c0,0.9-0.3,1.6-0.8,2.1c-0.5,0.5-1.2,0.8-2.2,0.8c-1,0-1.7-0.3-2.2-0.8C325.5,376.7,325.3,376,325.3,375.1z M330.9,406.8h-5.3v-25
			h5.3V406.8z"/>
		<path fill="#036995" d="M359.5,394.2c0,4.1-1,7.3-3.1,9.6c-2.1,2.3-5,3.4-8.8,3.4c-2.3,0-4.4-0.5-6.2-1.6
			c-1.8-1.1-3.2-2.6-4.1-4.5c-1-2-1.4-4.3-1.4-6.9c0-4.1,1-7.2,3.1-9.5c2.1-2.3,5-3.4,8.8-3.4c3.6,0,6.5,1.2,8.6,3.5
			C358.5,387.1,359.5,390.3,359.5,394.2z M341.3,394.2c0,5.8,2.1,8.7,6.4,8.7c4.2,0,6.3-2.9,6.3-8.7c0-5.7-2.1-8.6-6.4-8.6
			c-2.2,0-3.8,0.7-4.9,2.2C341.8,389.3,341.3,391.4,341.3,394.2z M344.2,378.7v-0.6c0.9-1.1,1.7-2.2,2.7-3.5
			c0.9-1.3,1.6-2.4,2.2-3.3h6.2v0.5c-0.8,0.9-2,2.1-3.5,3.6c-1.6,1.5-2.9,2.6-3.9,3.4H344.2z"/>
		<path fill="#036995" d="M386.5,406.8h-5.3v-15.4c0-1.9-0.4-3.4-1.2-4.3c-0.8-1-2-1.4-3.7-1.4c-2.2,0-3.9,0.7-4.9,2
			c-1,1.3-1.6,3.6-1.6,6.7v12.5h-5.3v-25h4.2l0.7,3.3h0.3c0.8-1.2,1.8-2.1,3.2-2.8c1.4-0.6,2.9-1,4.6-1c6,0,9,3.1,9,9.2V406.8z"/>
		<path fill="#036995" d="M99.7,459.7H81v-33.1h18.7v4.6H86.4v9h12.5v4.5H86.4v10.4h13.3V459.7z"/>
		<path fill="#036995" d="M121.9,452.6c0,2.4-0.9,4.3-2.7,5.6c-1.8,1.3-4.3,2-7.6,2c-3.3,0-6-0.5-8-1.5v-4.6c2.9,1.4,5.7,2,8.2,2
			c3.3,0,4.9-1,4.9-3c0-0.6-0.2-1.2-0.5-1.6c-0.4-0.4-1-0.9-1.8-1.3s-2-1-3.5-1.5c-2.9-1.1-4.8-2.2-5.9-3.3c-1-1.1-1.5-2.6-1.5-4.3
			c0-2.1,0.9-3.8,2.6-5c1.7-1.2,4.1-1.8,7-1.8c2.9,0,5.7,0.6,8.3,1.8l-1.7,4c-2.7-1.1-5-1.7-6.8-1.7c-2.8,0-4.2,0.8-4.2,2.4
			c0,0.8,0.4,1.4,1.1,2c0.7,0.5,2.3,1.3,4.8,2.2c2.1,0.8,3.6,1.5,4.5,2.2c0.9,0.7,1.6,1.4,2.1,2.3
			C121.7,450.3,121.9,451.4,121.9,452.6z"/>
		<path fill="#036995" d="M135.9,455.9c1.3,0,2.6-0.2,3.9-0.6v4c-0.6,0.3-1.3,0.5-2.3,0.6c-0.9,0.2-1.9,0.3-2.9,0.3
			c-5,0-7.6-2.7-7.6-8v-13.5h-3.4v-2.4l3.7-1.9l1.8-5.3h3.3v5.6h7.1v4h-7.1v13.4c0,1.3,0.3,2.2,1,2.8
			C134,455.6,134.8,455.9,135.9,455.9z"/>
		<path fill="#036995" d="M159.2,459.7l-1.1-3.5H158c-1.2,1.5-2.4,2.6-3.6,3.1c-1.2,0.5-2.8,0.8-4.7,0.8c-2.5,0-4.4-0.7-5.8-2
			c-1.4-1.3-2.1-3.2-2.1-5.6c0-2.6,1-4.5,2.9-5.8c1.9-1.3,4.8-2,8.8-2.1l4.3-0.1v-1.3c0-1.6-0.4-2.8-1.1-3.6
			c-0.7-0.8-1.9-1.2-3.5-1.2c-1.3,0-2.5,0.2-3.7,0.6c-1.2,0.4-2.3,0.8-3.4,1.3l-1.7-3.8c1.4-0.7,2.8-1.2,4.5-1.6
			c1.6-0.4,3.1-0.6,4.6-0.6c3.2,0,5.6,0.7,7.2,2.1c1.6,1.4,2.4,3.6,2.4,6.5v16.9H159.2z M151.3,456.1c1.9,0,3.5-0.5,4.6-1.6
			c1.2-1.1,1.8-2.6,1.8-4.5v-2.2l-3.2,0.1c-2.5,0.1-4.3,0.5-5.5,1.3c-1.1,0.7-1.7,1.9-1.7,3.4c0,1.1,0.3,2,1,2.6
			C149,455.8,150,456.1,151.3,456.1z"/>
		<path fill="#036995" d="M178.6,455.9c1.3,0,2.6-0.2,3.9-0.6v4c-0.6,0.3-1.3,0.5-2.3,0.6c-0.9,0.2-1.9,0.3-2.9,0.3
			c-5,0-7.6-2.7-7.6-8v-13.5h-3.4v-2.4l3.7-1.9l1.8-5.3h3.3v5.6h7.1v4h-7.1v13.4c0,1.3,0.3,2.2,1,2.8
			C176.8,455.6,177.6,455.9,178.6,455.9z"/>
		<path fill="#036995" d="M202,459.7l-1.1-3.5h-0.2c-1.2,1.5-2.4,2.6-3.6,3.1c-1.2,0.5-2.8,0.8-4.7,0.8c-2.5,0-4.4-0.7-5.8-2
			c-1.4-1.3-2.1-3.2-2.1-5.6c0-2.6,1-4.5,2.9-5.8c1.9-1.3,4.8-2,8.8-2.1l4.3-0.1v-1.3c0-1.6-0.4-2.8-1.1-3.6
			c-0.7-0.8-1.9-1.2-3.5-1.2c-1.3,0-2.5,0.2-3.7,0.6c-1.2,0.4-2.3,0.8-3.4,1.3l-1.7-3.8c1.4-0.7,2.8-1.2,4.5-1.6
			c1.6-0.4,3.1-0.6,4.6-0.6c3.2,0,5.6,0.7,7.2,2.1c1.6,1.4,2.4,3.6,2.4,6.5v16.9H202z M194.1,456.1c1.9,0,3.5-0.5,4.6-1.6
			c1.2-1.1,1.8-2.6,1.8-4.5v-2.2l-3.2,0.1c-2.5,0.1-4.3,0.5-5.5,1.3c-1.1,0.7-1.7,1.9-1.7,3.4c0,1.1,0.3,2,1,2.6
			C191.8,455.8,192.8,456.1,194.1,456.1z"/>
		<path fill="#036995" d="M217.4,459.7h-5.3v-35.2h5.3V459.7z"/>
		<path fill="#036995" d="M221.7,449.6V445h11.6v4.5H221.7z"/>
		<path fill="#036995" d="M256.9,459.7h-18.7v-33.1h18.7v4.6h-13.3v9H256v4.5h-12.5v10.4h13.3V459.7z"/>
		<path fill="#036995" d="M272.4,460.2c-3.8,0-6.7-1.1-8.6-3.3c-2-2.2-3-5.4-3-9.5c0-4.2,1-7.4,3.1-9.7c2.1-2.3,5-3.4,8.9-3.4
			c2.6,0,5,0.5,7.1,1.5l-1.6,4.3c-2.2-0.9-4.1-1.3-5.6-1.3c-4.3,0-6.5,2.9-6.5,8.6c0,2.8,0.5,4.9,1.6,6.3c1.1,1.4,2.7,2.1,4.7,2.1
			c2.4,0,4.6-0.6,6.7-1.8v4.6c-1,0.6-2,1-3,1.2C275.2,460.1,273.9,460.2,272.4,460.2z"/>
		<path fill="#036995" d="M306.3,447.2c0,4.1-1,7.3-3.1,9.6c-2.1,2.3-5,3.4-8.8,3.4c-2.3,0-4.4-0.5-6.2-1.6
			c-1.8-1.1-3.2-2.6-4.1-4.5c-1-2-1.4-4.3-1.4-6.9c0-4.1,1-7.2,3.1-9.5c2.1-2.3,5-3.4,8.8-3.4c3.6,0,6.5,1.2,8.6,3.5
			C305.2,440.1,306.3,443.2,306.3,447.2z M288.1,447.2c0,5.8,2.1,8.7,6.4,8.7c4.2,0,6.3-2.9,6.3-8.7c0-5.7-2.1-8.6-6.4-8.6
			c-2.2,0-3.8,0.7-4.9,2.2C288.6,442.3,288.1,444.4,288.1,447.2z"/>
		<path fill="#036995" d="M323.9,460.2c-3.2,0-5.6-1.1-7.4-3.4h-0.3c0.2,2.1,0.3,3.4,0.3,3.8v10.3h-5.3v-36.2h4.3
			c0.1,0.5,0.4,1.6,0.7,3.3h0.3c1.7-2.5,4.1-3.8,7.5-3.8c3.1,0,5.6,1.1,7.3,3.4c1.7,2.3,2.6,5.4,2.6,9.5c0,4.1-0.9,7.3-2.7,9.6
			C329.5,459,327.1,460.2,323.9,460.2z M322.6,438.6c-2.1,0-3.7,0.6-4.6,1.9c-1,1.2-1.5,3.2-1.5,5.9v0.8c0,3,0.5,5.3,1.4,6.6
			c1,1.4,2.5,2,4.7,2c1.8,0,3.3-0.8,4.3-2.3c1-1.5,1.5-3.7,1.5-6.4c0-2.8-0.5-4.9-1.5-6.4C326,439.3,324.6,438.6,322.6,438.6z"/>
		<path fill="#036995" d="M349.9,460.2c-3.9,0-6.9-1.1-9.1-3.4c-2.2-2.3-3.3-5.4-3.3-9.4c0-4.1,1-7.3,3.1-9.6c2-2.3,4.8-3.5,8.4-3.5
			c3.3,0,5.9,1,7.8,3c1.9,2,2.9,4.8,2.9,8.3v2.9h-16.7c0.1,2.4,0.7,4.3,2,5.6c1.2,1.3,3,2,5.2,2c1.5,0,2.9-0.1,4.1-0.4
			c1.3-0.3,2.6-0.7,4.1-1.4v4.3c-1.3,0.6-2.6,1.1-3.9,1.3C353.1,460,351.6,460.2,349.9,460.2z M348.9,438.3c-1.7,0-3,0.5-4.1,1.6
			c-1,1.1-1.6,2.6-1.8,4.7h11.4c0-2.1-0.5-3.6-1.5-4.7S350.6,438.3,348.9,438.3z"/>
		<path fill="#036995" d="M373.8,455.9c1.3,0,2.6-0.2,3.9-0.6v4c-0.6,0.3-1.3,0.5-2.3,0.6c-0.9,0.2-1.9,0.3-2.9,0.3
			c-5,0-7.6-2.7-7.6-8v-13.5h-3.4v-2.4l3.7-1.9l1.8-5.3h3.3v5.6h7.1v4h-7.1v13.4c0,1.3,0.3,2.2,1,2.8
			C371.9,455.6,372.8,455.9,373.8,455.9z"/>
		<path fill="#036995" d="M394.2,434.2c1.1,0,2,0.1,2.6,0.2l-0.5,5c-0.8-0.2-1.5-0.3-2.4-0.3c-2.1,0-3.8,0.7-5.2,2.1
			c-1.3,1.4-2,3.2-2,5.4v13.1h-5.3v-25h4.2l0.7,4.4h0.3c0.8-1.5,1.9-2.7,3.2-3.6C391.3,434.7,392.7,434.2,394.2,434.2z"/>
		<path fill="#036995" d="M422.6,447.2c0,4.1-1,7.3-3.1,9.6c-2.1,2.3-5,3.4-8.8,3.4c-2.3,0-4.4-0.5-6.2-1.6
			c-1.8-1.1-3.2-2.6-4.1-4.5c-1-2-1.4-4.3-1.4-6.9c0-4.1,1-7.2,3.1-9.5c2.1-2.3,5-3.4,8.8-3.4c3.6,0,6.5,1.2,8.6,3.5
			C421.5,440.1,422.6,443.2,422.6,447.2z M404.4,447.2c0,5.8,2.1,8.7,6.4,8.7c4.2,0,6.3-2.9,6.3-8.7c0-5.7-2.1-8.6-6.4-8.6
			c-2.2,0-3.8,0.7-4.9,2.2C404.9,442.3,404.4,444.4,404.4,447.2z"/>
		<path fill="#036995" d="M432.8,459.7h-5.3v-35.2h5.3V459.7z"/>
	</g>
	<g>
		<path fill="#0090CC" d="M368.5,137.8L368.5,137.8L257.9,71.6c-0.6-0.3-1.2-0.5-1.8-0.5c-0.6,0-1.3,0.2-1.9,0.5l-110.7,66.1
			c-1.1,0.7-1.8,1.9-1.8,3.2v16c0,2.1,1.7,3.7,3.7,3.7h221.2c2.1,0,3.7-1.7,3.7-3.7v-16C370.3,139.7,369.6,138.4,368.5,137.8z
			 M362.8,153.3H149.2V143L256,79.2l0.8,0.5l106,63.3V153.3z"/>
		<path fill="#0090CC" d="M191.3,267.5v-90.5c0-2.1-1.7-3.7-3.7-3.7h-26.3c-2.1,0-3.7,1.7-3.7,3.7v90.5c0,2.1,1.7,3.7,3.7,3.7h26.3
			C189.6,271.2,191.3,269.5,191.3,267.5z M183.8,263.7H165v-83h18.8V263.7z"/>
		<path fill="#0090CC" d="M269.2,271.2c2.1,0,3.7-1.7,3.7-3.7v-90.5c0-2.1-1.7-3.7-3.7-3.7h-26.3c-2.1,0-3.7,1.7-3.7,3.7v90.5
			c0,2.1,1.7,3.7,3.7,3.7H269.2z M246.6,180.7h18.8v83h-18.8V180.7z"/>
		<path fill="#0090CC" d="M350.7,271.2c2.1,0,3.7-1.7,3.7-3.7v-90.5c0-2.1-1.7-3.7-3.7-3.7h-26.3c-2.1,0-3.7,1.7-3.7,3.7v90.5
			c0,2.1,1.7,3.7,3.7,3.7H350.7z M328.2,180.7H347v83h-18.8V180.7z"/>
		<path fill="#0090CC" d="M256,143.7c11.2,0,20.2-9.1,20.2-20.2c0-11.2-9.1-20.2-20.2-20.2c-11.1,0-20.2,9.1-20.2,20.2
			C235.8,134.6,244.9,143.7,256,143.7z M256,110.7c6.5,0,11.8,4.9,12.6,11.1h0.1l0.1,1.6c0,7-5.7,12.7-12.7,12.7
			c-7,0-12.7-5.7-12.7-12.7C243.3,116.5,249,110.7,256,110.7z"/>
		<path fill="#0090CC" d="M157.9,290.8h196.1c2.1,0,3.7-1.7,3.7-3.7c0-2.1-1.7-3.7-3.7-3.7H157.9c-2.1,0-3.7,1.7-3.7,3.7
			C154.2,289.2,155.9,290.8,157.9,290.8z"/>
		<path fill="#0090CC" d="M366.6,301.2H145.4c-2.1,0-3.7,1.7-3.7,3.7c0,2.1,1.7,3.7,3.7,3.7h221.2c2.1,0,3.7-1.7,3.7-3.7
			C370.3,302.8,368.6,301.2,366.6,301.2z"/>
	</g>
</g>
</svg>
