<?xml version="1.0" encoding="utf-8"?>
<!-- Generator: Adobe Illustrator 22.1.0, SVG Export Plug-In . SVG Version: 6.00 Build 0)  -->
<svg version="1.1" id="Capa_1" xmlns="http://www.w3.org/2000/svg" xmlns:xlink="http://www.w3.org/1999/xlink" x="0px" y="0px"
	 viewBox="0 0 950 250" style="enable-background:new 0 0 950 250;" xml:space="preserve">
<style type="text/css">
	.st0{fill:#FAFAFA;}
	.st1{fill:#FFFFFF;stroke:#35B0B1;stroke-width:3;stroke-miterlimit:10;}
	.st2{fill:#00AFD7;}
	.st3{fill:#ADDCDA;}
	.st4{fill:none;stroke:#0090CC;stroke-width:2.848;stroke-miterlimit:10;}
	.st5{fill:#FFFFFF;stroke:#0090CC;stroke-width:2.848;stroke-linecap:round;stroke-miterlimit:10;}
	.st6{fill:#FFFFFF;stroke:#0090CC;stroke-width:2.848;stroke-miterlimit:10;}
	.st7{fill:#0090CC;}
	.st8{fill:none;stroke:#0090CC;stroke-width:2.848;stroke-linecap:round;stroke-miterlimit:10;}
	.st9{fill:#B8D05E;stroke:#0090CC;stroke-width:2.848;stroke-linecap:round;stroke-miterlimit:10;}
	.st10{fill:#FF7373;}
	.st11{fill:#FFE017;}
	.st12{fill:#FFFFFF;}
</style>
<rect class="st0" width="950" height="250"/>
<path class="st1" d="M417,55.8h-47.4c-3.2,0-6.2,1.7-7.8,4.5l-23.7,41c-1.6,2.8-1.6,6.3,0,9.1l23.7,41c1.6,2.8,4.6,4.5,7.8,4.5H417
	c3.2,0,6.2-1.7,7.8-4.5l23.7-41c1.6-2.8,1.6-6.3,0-9.1l-23.7-41C423.2,57.5,420.2,55.8,417,55.8z"/>
<path class="st1" d="M687.6,55.8h-47.4c-3.2,0-6.2,1.7-7.8,4.5l-23.7,41c-1.6,2.8-1.6,6.3,0,9.1l23.7,41c1.6,2.8,4.6,4.5,7.8,4.5
	h47.4c3.2,0,6.2-1.7,7.8-4.5l23.7-41c1.6-2.8,1.6-6.3,0-9.1l-23.7-41C693.8,57.5,690.9,55.8,687.6,55.8z"/>
<path class="st1" d="M280.7,55.8h-47.4c-3.2,0-6.2,1.7-7.8,4.5l-23.7,41c-1.6,2.8-1.6,6.3,0,9.1l23.7,41c1.6,2.8,4.6,4.5,7.8,4.5
	h47.4c3.2,0,6.2-1.7,7.8-4.5l23.7-41c1.6-2.8,1.6-6.3,0-9.1l-23.7-41C286.9,57.5,283.9,55.8,280.7,55.8z"/>
<path class="st1" d="M143.9,55.8H96.4c-3.2,0-6.2,1.7-7.8,4.5l-23.7,41c-1.6,2.8-1.6,6.3,0,9.1l23.7,41c1.6,2.8,4.6,4.5,7.8,4.5
	h47.4c3.2,0,6.2-1.7,7.8-4.5l23.7-41c1.6-2.8,1.6-6.3,0-9.1l-23.7-41C150.1,57.5,147.1,55.8,143.9,55.8z"/>
<path class="st1" d="M553.7,55.8h-47.4c-3.2,0-6.2,1.7-7.8,4.5l-23.7,41c-1.6,2.8-1.6,6.3,0,9.1l23.7,41c1.6,2.8,4.6,4.5,7.8,4.5
	h47.4c3.2,0,6.2-1.7,7.8-4.5l23.7-41c1.6-2.8,1.6-6.3,0-9.1l-23.7-41C559.9,57.5,556.9,55.8,553.7,55.8z"/>
<path class="st1" d="M824.5,55.8h-47.4c-3.2,0-6.2,1.7-7.8,4.5l-23.7,41c-1.6,2.8-1.6,6.3,0,9.1l23.7,41c1.6,2.8,4.6,4.5,7.8,4.5
	h47.4c3.2,0,6.2-1.7,7.8-4.5l23.7-41c1.6-2.8,1.6-6.3,0-9.1l-23.7-41C830.8,57.5,827.8,55.8,824.5,55.8z"/>
<g>
	<path class="st2" d="M206,192l-7.3,0l0-12.8l7.3,0l0,1.8l-5.2,0l0,3.5l4.8,0l0,1.8l-4.8,0l0,4l5.2,0L206,192z"/>
	<path class="st2" d="M217.8,192l-2.4,0l-3.2-5.3l-3.2,5.3l-2.2,0l4.3-6.7l-4-6.2l2.3,0l3,4.9l3-4.9l2.3,0l-4,6.2L217.8,192z"/>
	<path class="st2" d="M227.6,183c0,1.3-0.4,2.4-1.3,3.1c-0.9,0.7-2.1,1.1-3.8,1.1l-1.3,0l0,4.8l-2.1,0l0-12.8l3.7,0
		c1.6,0,2.8,0.3,3.6,1C227.2,180.8,227.6,181.8,227.6,183z M221.2,185.4l1.1,0c1.1,0,1.9-0.2,2.4-0.6c0.5-0.4,0.8-1,0.8-1.8
		c0-0.7-0.2-1.3-0.7-1.7c-0.5-0.4-1.2-0.5-2.1-0.5l-1.5,0L221.2,185.4z"/>
	<path class="st2" d="M229.7,192l0-12.8l2.1,0l0,11l5.4,0l0,1.8L229.7,192z"/>
	<path class="st2" d="M250.4,185.5c0,2.1-0.5,3.7-1.6,4.9c-1,1.2-2.5,1.7-4.4,1.7c-1.9,0-3.4-0.6-4.5-1.7c-1-1.2-1.6-2.8-1.6-4.9
		s0.5-3.8,1.6-4.9c1-1.1,2.5-1.7,4.5-1.7c1.9,0,3.4,0.6,4.4,1.7C249.9,181.8,250.4,183.4,250.4,185.5z M240.6,185.5
		c0,1.6,0.3,2.8,1,3.6c0.6,0.8,1.6,1.2,2.8,1.2c1.2,0,2.2-0.4,2.8-1.2s1-2,1-3.6c0-1.6-0.3-2.8-0.9-3.6c-0.6-0.8-1.6-1.2-2.8-1.2
		c-1.3,0-2.2,0.4-2.9,1.2C240.9,182.8,240.6,184,240.6,185.5z"/>
	<path class="st2" d="M254.8,186.8l0,5.1l-2.1,0l0-12.8l3.6,0c1.7,0,2.9,0.3,3.7,0.9c0.8,0.6,1.2,1.6,1.2,2.8c0,1.6-0.8,2.7-2.5,3.4
		l3.6,5.7l-2.4,0l-3.1-5.1L254.8,186.8z M254.8,185.1l1.5,0c1,0,1.7-0.2,2.1-0.5c0.4-0.4,0.7-0.9,0.7-1.6c0-0.7-0.2-1.2-0.7-1.6
		c-0.5-0.3-1.2-0.5-2.1-0.5l-1.4,0L254.8,185.1z"/>
	<path class="st2" d="M271.8,192l-1.3-3.6l-4.9,0l-1.3,3.6l-2.2,0l4.8-12.9l2.3,0L274,192L271.8,192z M269.9,186.6l-1.2-3.5
		c-0.1-0.2-0.2-0.6-0.4-1.1s-0.3-0.9-0.3-1.1c-0.2,0.7-0.4,1.5-0.7,2.4l-1.2,3.4L269.9,186.6z"/>
	<path class="st2" d="M280.7,180.7c-1.2,0-2.2,0.4-2.8,1.3c-0.7,0.9-1,2-1,3.5c0,1.6,0.3,2.8,1,3.6c0.7,0.8,1.6,1.2,2.9,1.2
		c0.5,0,1.1-0.1,1.6-0.2c0.5-0.1,1-0.2,1.6-0.4l0,1.8c-1,0.4-2.2,0.6-3.4,0.6c-1.9,0-3.3-0.6-4.3-1.7c-1-1.1-1.5-2.8-1.5-4.9
		c0-1.3,0.2-2.5,0.7-3.5c0.5-1,1.2-1.8,2.1-2.3c0.9-0.5,2-0.8,3.3-0.8c1.3,0,2.5,0.3,3.6,0.8l-0.8,1.8c-0.4-0.2-0.9-0.4-1.4-0.5
		C281.7,180.8,281.2,180.7,280.7,180.7z"/>
	<path class="st2" d="M286.2,191.9l0-12.8l2.1,0l0,12.8L286.2,191.9z"/>
	<path class="st2" d="M302.6,185.5c0,2.1-0.5,3.7-1.6,4.9c-1,1.2-2.5,1.7-4.4,1.7c-1.9,0-3.4-0.6-4.5-1.7c-1-1.2-1.6-2.8-1.6-4.9
		s0.5-3.8,1.6-4.9c1-1.1,2.5-1.7,4.5-1.7c1.9,0,3.4,0.6,4.4,1.7C302.1,181.8,302.6,183.4,302.6,185.5z M292.8,185.5
		c0,1.6,0.3,2.8,1,3.6c0.6,0.8,1.6,1.2,2.8,1.2c1.2,0,2.2-0.4,2.8-1.2c0.6-0.8,1-2,1-3.6c0-1.6-0.3-2.8-0.9-3.6
		c-0.6-0.8-1.6-1.2-2.8-1.2c-1.3,0-2.2,0.4-2.9,1.2C293.1,182.7,292.8,183.9,292.8,185.5z M295.3,178.1l0-0.2c0.3-0.4,0.7-0.9,1-1.4
		c0.4-0.5,0.6-0.9,0.8-1.3l2.4,0l0,0.2c-0.3,0.4-0.8,0.8-1.4,1.4c-0.6,0.6-1.1,1-1.5,1.3L295.3,178.1z"/>
	<path class="st2" d="M315.7,191.9l-2.6,0l-6.3-10.2h-0.1l0,0.6c0.1,1.1,0.1,2.1,0.1,3l0,6.7l-1.9,0l0-12.8l2.5,0l6.3,10.2h0.1
		c0-0.1,0-0.6-0.1-1.5s-0.1-1.5-0.1-2l0-6.7l1.9,0L315.7,191.9z"/>
</g>
<g>
	<path class="st2" d="M616.1,186.9l0,5.1l-2.1,0l0-12.8l3.6,0c1.7,0,2.9,0.3,3.7,0.9s1.2,1.6,1.2,2.8c0,1.6-0.8,2.7-2.5,3.4l3.6,5.7
		l-2.4,0l-3.1-5.1L616.1,186.9z M616.1,185.1l1.5,0c1,0,1.7-0.2,2.1-0.5c0.4-0.4,0.7-0.9,0.7-1.6c0-0.7-0.2-1.2-0.7-1.6
		c-0.5-0.3-1.2-0.5-2.1-0.5l-1.4,0L616.1,185.1z"/>
	<path class="st2" d="M632.3,192l-7.3,0l0-12.8l7.3,0l0,1.8l-5.2,0l0,3.5l4.8,0l0,1.8l-4.8,0l0,4l5.2,0L632.3,192z"/>
	<path class="st2" d="M636.7,192l-2.1,0l0-12.8l7.3,0l0,1.8l-5.2,0l0,4l4.8,0l0,1.8l-4.8,0L636.7,192z"/>
	<path class="st2" d="M643.8,192l0-12.8l2.1,0l0,12.8L643.8,192z"/>
	<path class="st2" d="M659.5,192l-2.6,0l-6.3-10.2h-0.1l0,0.6c0.1,1.1,0.1,2.1,0.1,3l0,6.7l-1.9,0l0-12.8l2.5,0l6.3,10.2h0.1
		c0-0.1,0-0.6-0.1-1.5s-0.1-1.5-0.1-2l0-6.7l1.9,0L659.5,192z"/>
	<path class="st2" d="M670.4,192l-1.3-3.6l-4.9,0L663,192l-2.2,0l4.8-12.9l2.3,0l4.8,12.9L670.4,192z M668.6,186.6l-1.2-3.5
		c-0.1-0.2-0.2-0.6-0.4-1.1c-0.2-0.5-0.3-0.9-0.3-1.1c-0.2,0.7-0.4,1.5-0.7,2.4l-1.2,3.3L668.6,186.6z"/>
	<path class="st2" d="M679.3,180.7c-1.2,0-2.2,0.4-2.8,1.3s-1,2-1,3.5c0,1.6,0.3,2.8,1,3.6s1.6,1.2,2.9,1.2c0.5,0,1.1-0.1,1.6-0.2
		c0.5-0.1,1-0.2,1.6-0.4l0,1.8c-1,0.4-2.2,0.6-3.4,0.6c-1.9,0-3.3-0.6-4.3-1.7c-1-1.1-1.5-2.8-1.5-4.9c0-1.3,0.2-2.5,0.7-3.5
		c0.5-1,1.2-1.8,2.1-2.3c0.9-0.5,2-0.8,3.3-0.8c1.3,0,2.5,0.3,3.6,0.8l-0.8,1.7c-0.4-0.2-0.9-0.4-1.4-0.5
		C680.4,180.8,679.9,180.7,679.3,180.7z"/>
	<path class="st2" d="M684.9,191.9l0-12.8l2.1,0l0,12.8L684.9,191.9z"/>
	<path class="st2" d="M701.3,185.5c0,2.1-0.5,3.7-1.6,4.9c-1,1.2-2.5,1.7-4.4,1.7c-1.9,0-3.4-0.6-4.5-1.7c-1-1.2-1.6-2.8-1.6-4.9
		s0.5-3.8,1.6-4.9c1-1.1,2.5-1.7,4.5-1.7c1.9,0,3.4,0.6,4.4,1.7C700.8,181.8,701.3,183.4,701.3,185.5z M691.5,185.5
		c0,1.6,0.3,2.8,1,3.6c0.6,0.8,1.6,1.2,2.8,1.2c1.2,0,2.2-0.4,2.8-1.2c0.6-0.8,1-2,1-3.6c0-1.6-0.3-2.8-0.9-3.6
		c-0.6-0.8-1.6-1.2-2.8-1.2c-1.3,0-2.2,0.4-2.9,1.2C691.8,182.7,691.5,183.9,691.5,185.5z M694,178.1l0-0.2c0.3-0.4,0.7-0.9,1-1.4
		c0.4-0.5,0.6-0.9,0.8-1.3l2.4,0l0,0.2c-0.3,0.4-0.8,0.8-1.4,1.4c-0.6,0.6-1.1,1-1.5,1.3L694,178.1z"/>
	<path class="st2" d="M714.3,191.9l-2.6,0l-6.3-10.2l-0.1,0l0,0.6c0.1,1.1,0.1,2.1,0.1,3l0,6.7l-1.9,0l0-12.8l2.5,0l6.3,10.2l0.1,0
		c0-0.1,0-0.6-0.1-1.5c0-0.8-0.1-1.5-0.1-2l0-6.7l1.9,0L714.3,191.9z"/>
</g>
<g>
	<path class="st2" d="M729.7,180.8c-1.2,0-2.2,0.4-2.8,1.3s-1,2-1,3.5c0,1.6,0.3,2.8,1,3.6s1.6,1.2,2.9,1.2c0.5,0,1.1-0.1,1.6-0.2
		c0.5-0.1,1-0.2,1.6-0.4l0,1.8c-1,0.4-2.2,0.6-3.4,0.6c-1.9,0-3.3-0.6-4.3-1.7c-1-1.1-1.5-2.8-1.5-4.9c0-1.3,0.2-2.5,0.7-3.5
		c0.5-1,1.2-1.8,2.1-2.3c0.9-0.5,2-0.8,3.3-0.8c1.3,0,2.5,0.3,3.6,0.8l-0.8,1.8c-0.4-0.2-0.9-0.4-1.4-0.5
		C730.7,180.9,730.2,180.8,729.7,180.8z"/>
	<path class="st2" d="M746.6,185.6c0,2.1-0.5,3.7-1.6,4.9c-1,1.2-2.5,1.7-4.4,1.7c-1.9,0-3.4-0.6-4.5-1.7c-1-1.2-1.6-2.8-1.6-4.9
		s0.5-3.8,1.6-4.9c1-1.1,2.5-1.7,4.5-1.7c1.9,0,3.4,0.6,4.4,1.7C746.1,181.9,746.6,183.5,746.6,185.6z M736.8,185.6
		c0,1.6,0.3,2.8,1,3.6c0.6,0.8,1.6,1.2,2.8,1.2c1.2,0,2.2-0.4,2.8-1.2c0.6-0.8,1-2,1-3.6c0-1.6-0.3-2.8-0.9-3.6
		c-0.6-0.8-1.6-1.2-2.8-1.2c-1.3,0-2.2,0.4-2.9,1.2C737.1,182.9,736.8,184,736.8,185.6z"/>
	<path class="st2" d="M754.5,192l-3.7-10.7h-0.1c0.1,1.6,0.2,3.1,0.2,4.5l0,6.2l-1.9,0l0-12.8l3,0l3.6,10.2h0.1l3.7-10.2l3,0l0,12.8
		l-2,0l0-6.4c0-0.6,0-1.5,0-2.5c0-1,0.1-1.6,0.1-1.9h-0.1l-3.8,10.7L754.5,192z"/>
	<path class="st2" d="M772.4,192l-7.3,0l0-12.8l7.3,0l0,1.8l-5.2,0l0,3.5l4.8,0l0,1.8l-4.8,0l0,4l5.2,0L772.4,192z"/>
	<path class="st2" d="M776.8,186.9l0,5.1l-2.1,0l0-12.8l3.6,0c1.7,0,2.9,0.3,3.7,0.9s1.2,1.6,1.2,2.8c0,1.6-0.8,2.7-2.5,3.4l3.6,5.7
		l-2.4,0l-3.1-5.1L776.8,186.9z M776.8,185.1l1.5,0c1,0,1.7-0.2,2.1-0.5c0.4-0.4,0.7-0.9,0.7-1.6c0-0.7-0.2-1.2-0.7-1.6
		c-0.5-0.3-1.2-0.5-2.1-0.5l-1.4,0L776.8,185.1z"/>
	<path class="st2" d="M791.2,180.8c-1.2,0-2.2,0.4-2.8,1.3s-1,2-1,3.5c0,1.6,0.3,2.8,1,3.6s1.6,1.2,2.9,1.2c0.5,0,1.1-0.1,1.6-0.2
		s1-0.2,1.6-0.4l0,1.8c-1,0.4-2.2,0.6-3.4,0.6c-1.9,0-3.3-0.6-4.3-1.7c-1-1.1-1.5-2.8-1.5-4.9c0-1.3,0.2-2.5,0.7-3.5
		c0.5-1,1.2-1.8,2.1-2.3c0.9-0.5,2-0.8,3.3-0.8c1.3,0,2.5,0.3,3.6,0.8l-0.8,1.8c-0.4-0.2-0.9-0.4-1.4-0.5
		C792.2,180.8,791.7,180.8,791.2,180.8z"/>
	<path class="st2" d="M796.7,192l0-12.8l2.1,0l0,12.8L796.7,192z"/>
	<path class="st2" d="M801.7,192l0-12.8l2.1,0l0,11l5.4,0l0,1.8L801.7,192z"/>
	<path class="st2" d="M811,192l0-12.8l2.1,0l0,12.8L811,192z"/>
	<path class="st2" d="M824.2,192l-9.2,0l0-1.5l6.5-9.6l-6.3,0l0-1.8l8.8,0l0,1.5l-6.5,9.6l6.7,0L824.2,192z"/>
	<path class="st2" d="M834,192l-1.3-3.6l-4.9,0l-1.3,3.6l-2.2,0l4.8-12.9l2.3,0l4.8,12.9L834,192z M832.1,186.6l-1.2-3.5
		c-0.1-0.2-0.2-0.6-0.4-1.1c-0.2-0.5-0.3-0.9-0.3-1.1c-0.2,0.7-0.4,1.5-0.7,2.4l-1.2,3.3L832.1,186.6z"/>
	<path class="st2" d="M842.9,180.7c-1.2,0-2.2,0.4-2.8,1.3s-1,2-1,3.5c0,1.6,0.3,2.8,1,3.6s1.6,1.2,2.9,1.2c0.5,0,1.1-0.1,1.6-0.2
		s1-0.2,1.6-0.4l0,1.8c-1,0.4-2.2,0.6-3.4,0.6c-1.9,0-3.3-0.6-4.3-1.7c-1-1.1-1.5-2.8-1.5-4.9c0-1.3,0.2-2.5,0.7-3.5
		c0.5-1,1.2-1.8,2.1-2.3c0.9-0.5,2-0.8,3.3-0.8c1.3,0,2.5,0.3,3.6,0.8l-0.8,1.8c-0.4-0.2-0.9-0.4-1.4-0.5
		C843.9,180.8,843.4,180.7,842.9,180.7z"/>
	<path class="st2" d="M848.4,191.9l0-12.8l2.1,0l0,12.8L848.4,191.9z"/>
	<path class="st2" d="M864.8,185.5c0,2.1-0.5,3.7-1.6,4.9c-1,1.2-2.5,1.7-4.4,1.7c-1.9,0-3.4-0.6-4.5-1.7c-1-1.2-1.6-2.8-1.6-4.9
		s0.5-3.8,1.6-4.9c1-1.1,2.5-1.7,4.5-1.7c1.9,0,3.4,0.6,4.4,1.7C864.3,181.8,864.8,183.4,864.8,185.5z M855,185.5
		c0,1.6,0.3,2.8,1,3.6c0.6,0.8,1.6,1.2,2.8,1.2c1.2,0,2.2-0.4,2.8-1.2c0.6-0.8,1-2,1-3.6c0-1.6-0.3-2.8-0.9-3.6
		c-0.6-0.8-1.6-1.2-2.8-1.2c-1.3,0-2.2,0.4-2.9,1.2C855.4,182.7,855,183.9,855,185.5z M857.5,178.1l0-0.2c0.3-0.4,0.7-0.9,1-1.4
		c0.4-0.5,0.6-0.9,0.8-1.3l2.4,0l0,0.2c-0.3,0.4-0.8,0.8-1.4,1.4c-0.6,0.6-1.1,1-1.5,1.3L857.5,178.1z"/>
	<path class="st2" d="M877.9,191.9l-2.6,0l-6.3-10.2h-0.1l0,0.6c0.1,1.1,0.1,2.1,0.1,3l0,6.7l-1.9,0l0-12.8l2.5,0l6.3,10.2h0.1
		c0-0.1,0-0.6-0.1-1.5s-0.1-1.5-0.1-2l0-6.7l1.9,0L877.9,191.9z"/>
</g>
<g>
	<path class="st2" d="M345.8,183.1c0,1.3-0.4,2.4-1.3,3.1c-0.9,0.7-2.1,1.1-3.8,1.1l-1.3,0l0,4.8l-2.1,0l0-12.8l3.7,0
		c1.6,0,2.8,0.3,3.6,1C345.4,180.8,345.8,181.8,345.8,183.1z M339.4,185.5l1.1,0c1.1,0,1.9-0.2,2.4-0.6c0.5-0.4,0.8-1,0.8-1.8
		c0-0.7-0.2-1.3-0.7-1.7c-0.5-0.4-1.2-0.5-2.1-0.5l-1.5,0L339.4,185.5z"/>
	<path class="st2" d="M350,186.9l0,5.1l-2.1,0l0-12.8l3.6,0c1.7,0,2.9,0.3,3.7,0.9s1.2,1.6,1.2,2.8c0,1.6-0.8,2.7-2.5,3.4l3.6,5.7
		l-2.4,0l-3.1-5.1L350,186.9z M350,185.1l1.5,0c1,0,1.7-0.2,2.1-0.5c0.4-0.4,0.7-0.9,0.7-1.6c0-0.7-0.2-1.2-0.7-1.6
		c-0.5-0.3-1.2-0.5-2.1-0.5l-1.4,0L350,185.1z"/>
	<path class="st2" d="M370.4,185.6c0,2.1-0.5,3.7-1.6,4.9c-1,1.2-2.5,1.7-4.4,1.7c-1.9,0-3.4-0.6-4.5-1.7c-1-1.2-1.6-2.8-1.6-4.9
		s0.5-3.8,1.6-4.9c1-1.1,2.5-1.7,4.5-1.7c1.9,0,3.4,0.6,4.4,1.7C369.8,181.8,370.4,183.5,370.4,185.6z M360.6,185.6
		c0,1.6,0.3,2.8,1,3.6c0.6,0.8,1.6,1.2,2.8,1.2c1.2,0,2.2-0.4,2.8-1.2c0.6-0.8,1-2,1-3.6c0-1.6-0.3-2.8-0.9-3.6
		c-0.6-0.8-1.6-1.2-2.8-1.2c-1.3,0-2.2,0.4-2.9,1.2C360.9,182.8,360.6,184,360.6,185.6z"/>
	<path class="st2" d="M383.1,185.4c0,2.1-0.6,3.7-1.8,4.9c-1.2,1.1-2.9,1.7-5.1,1.7l-3.6,0l0-12.8l4,0c2,0,3.6,0.5,4.8,1.6
		C382.6,181.9,383.1,183.4,383.1,185.4z M380.9,185.5c0-3.1-1.4-4.6-4.3-4.6l-1.8,0l0,9.3l1.5,0
		C379.4,190.2,380.9,188.6,380.9,185.5z"/>
	<path class="st2" d="M395.5,179.1l0,8.3c0,0.9-0.2,1.8-0.6,2.5c-0.4,0.7-1,1.3-1.8,1.6c-0.8,0.4-1.7,0.6-2.8,0.6
		c-1.6,0-2.8-0.4-3.7-1.3s-1.3-2-1.3-3.5l0-8.3l2.1,0l0,8.1c0,1.1,0.2,1.8,0.7,2.3c0.5,0.5,1.2,0.8,2.3,0.8c2,0,3-1,3-3.1l0-8.1
		L395.5,179.1z"/>
	<path class="st2" d="M403.8,180.7c-1.2,0-2.2,0.4-2.8,1.3c-0.7,0.9-1,2-1,3.5c0,1.6,0.3,2.8,1,3.6c0.7,0.8,1.6,1.2,2.9,1.2
		c0.5,0,1.1-0.1,1.6-0.2c0.5-0.1,1-0.2,1.6-0.4l0,1.8c-1,0.4-2.2,0.6-3.4,0.6c-1.9,0-3.3-0.6-4.3-1.7c-1-1.1-1.5-2.8-1.5-4.9
		c0-1.3,0.2-2.5,0.7-3.5c0.5-1,1.2-1.8,2.1-2.3c0.9-0.5,2-0.8,3.3-0.8c1.3,0,2.5,0.3,3.6,0.8l-0.8,1.8c-0.4-0.2-0.9-0.4-1.4-0.5
		C404.9,180.8,404.3,180.7,403.8,180.7z"/>
	<path class="st2" d="M414.8,180.7c-1.2,0-2.2,0.4-2.8,1.3s-1,2-1,3.5c0,1.6,0.3,2.8,1,3.6s1.6,1.2,2.9,1.2c0.5,0,1.1-0.1,1.6-0.2
		c0.5-0.1,1-0.2,1.6-0.4l0,1.8c-1,0.4-2.2,0.6-3.4,0.6c-1.9,0-3.3-0.6-4.3-1.7c-1-1.1-1.5-2.8-1.5-4.9c0-1.3,0.2-2.5,0.7-3.5
		c0.5-1,1.2-1.8,2.1-2.3c0.9-0.5,2-0.8,3.3-0.8c1.3,0,2.5,0.3,3.6,0.8l-0.8,1.8c-0.4-0.2-0.9-0.4-1.4-0.5
		C415.8,180.8,415.3,180.7,414.8,180.7z"/>
	<path class="st2" d="M420.3,191.9l0-12.8l2.1,0l0,12.8L420.3,191.9z"/>
	<path class="st2" d="M436.7,185.5c0,2.1-0.5,3.7-1.6,4.9c-1,1.2-2.5,1.7-4.4,1.7c-1.9,0-3.4-0.6-4.5-1.7c-1-1.2-1.6-2.8-1.6-4.9
		s0.5-3.8,1.6-4.9c1-1.1,2.5-1.7,4.5-1.7c1.9,0,3.4,0.6,4.4,1.7C436.2,181.8,436.7,183.4,436.7,185.5z M426.9,185.5
		c0,1.6,0.3,2.8,1,3.6c0.6,0.8,1.6,1.2,2.8,1.2c1.2,0,2.2-0.4,2.8-1.2s1-2,1-3.6c0-1.6-0.3-2.8-0.9-3.6c-0.6-0.8-1.6-1.2-2.8-1.2
		c-1.3,0-2.2,0.4-2.9,1.2C427.2,182.7,426.9,183.9,426.9,185.5z M429.4,178.1l0-0.2c0.3-0.4,0.7-0.9,1-1.4c0.4-0.5,0.6-0.9,0.8-1.3
		l2.4,0l0,0.2c-0.3,0.4-0.8,0.8-1.4,1.4c-0.6,0.6-1.1,1-1.5,1.3L429.4,178.1z"/>
	<path class="st2" d="M449.7,191.9l-2.6,0l-6.3-10.2h-0.1l0,0.6c0.1,1.1,0.1,2.1,0.1,3l0,6.7l-1.9,0l0-12.8l2.5,0l6.3,10.2h0.1
		c0-0.1,0-0.6-0.1-1.5s-0.1-1.5-0.1-2l0-6.7l1.9,0L449.7,191.9z"/>
</g>
<g>
	<path class="st2" d="M75.6,179.4c-1.2,0-2.2,0.4-2.8,1.3s-1,2-1,3.5c0,1.6,0.3,2.8,1,3.6c0.7,0.8,1.6,1.2,2.9,1.2
		c0.5,0,1.1-0.1,1.6-0.2c0.5-0.1,1-0.2,1.6-0.4l0,1.8c-1,0.4-2.2,0.6-3.4,0.6c-1.9,0-3.3-0.6-4.3-1.7c-1-1.1-1.5-2.8-1.5-4.9
		c0-1.3,0.2-2.5,0.7-3.5c0.5-1,1.2-1.8,2.1-2.3c0.9-0.5,2-0.8,3.3-0.8c1.3,0,2.5,0.3,3.6,0.8l-0.8,1.8c-0.4-0.2-0.9-0.4-1.4-0.5
		C76.6,179.5,76.1,179.4,75.6,179.4z"/>
	<path class="st2" d="M92.5,184.2c0,2.1-0.5,3.7-1.6,4.9c-1,1.2-2.5,1.7-4.4,1.7c-1.9,0-3.4-0.6-4.5-1.7c-1-1.2-1.6-2.8-1.6-4.9
		s0.5-3.8,1.6-4.9c1-1.1,2.5-1.7,4.5-1.7c1.9,0,3.4,0.6,4.4,1.7C91.9,180.5,92.5,182.1,92.5,184.2z M82.6,184.2c0,1.6,0.3,2.8,1,3.6
		c0.6,0.8,1.6,1.2,2.8,1.2c1.2,0,2.2-0.4,2.8-1.2c0.6-0.8,1-2,1-3.6c0-1.6-0.3-2.8-0.9-3.6c-0.6-0.8-1.6-1.2-2.8-1.2
		c-1.3,0-2.2,0.4-2.9,1.2C83,181.5,82.6,182.7,82.6,184.2z"/>
	<path class="st2" d="M105.5,190.6l-2.6,0l-6.3-10.2l-0.1,0l0,0.6c0.1,1.1,0.1,2.1,0.1,3l0,6.7l-1.9,0l0-12.8l2.5,0l6.3,10.2l0.1,0
		c0-0.1,0-0.6-0.1-1.5s-0.1-1.5-0.1-2l0-6.7l1.9,0L105.5,190.6z"/>
	<path class="st2" d="M112.9,190.6l-2.1,0l0-11l-3.8,0l0-1.8l9.7,0l0,1.8l-3.8,0L112.9,190.6z"/>
	<path class="st2" d="M120.3,185.5l0,5.1l-2.1,0l0-12.8l3.6,0c1.7,0,2.9,0.3,3.7,0.9s1.2,1.6,1.2,2.8c0,1.6-0.8,2.7-2.5,3.4l3.6,5.7
		l-2.4,0l-3.1-5.1L120.3,185.5z M120.3,183.8l1.5,0c1,0,1.7-0.2,2.1-0.5c0.4-0.4,0.7-0.9,0.7-1.6c0-0.7-0.2-1.2-0.7-1.6
		c-0.5-0.3-1.2-0.5-2.1-0.5l-1.4,0L120.3,183.8z"/>
	<path class="st2" d="M137.2,190.6l-1.3-3.6l-4.9,0l-1.3,3.6l-2.2,0l4.8-12.9l2.3,0l4.8,12.9L137.2,190.6z M135.3,185.2l-1.2-3.5
		c-0.1-0.2-0.2-0.6-0.4-1.1s-0.3-0.9-0.3-1.1c-0.2,0.7-0.4,1.5-0.7,2.4l-1.2,3.3L135.3,185.2z"/>
	<path class="st2" d="M145.1,190.6l-2.1,0l0-11l-3.8,0l0-1.8l9.7,0l0,1.8l-3.8,0L145.1,190.6z"/>
	<path class="st2" d="M161.8,184.1c0,2.1-0.5,3.7-1.6,4.9c-1,1.2-2.5,1.7-4.4,1.7c-1.9,0-3.4-0.6-4.5-1.7c-1-1.2-1.6-2.8-1.6-4.9
		s0.5-3.8,1.6-4.9c1-1.1,2.5-1.7,4.5-1.7c1.9,0,3.4,0.6,4.4,1.7C161.3,180.4,161.8,182,161.8,184.1z M152,184.2c0,1.6,0.3,2.8,1,3.6
		c0.6,0.8,1.6,1.2,2.8,1.2c1.2,0,2.2-0.4,2.8-1.2s1-2,1-3.6c0-1.6-0.3-2.8-0.9-3.6c-0.6-0.8-1.6-1.2-2.8-1.2c-1.3,0-2.2,0.4-2.9,1.2
		C152.3,181.4,152,182.6,152,184.2z"/>
	<path class="st2" d="M171.5,187.1c0,1.1-0.4,2-1.2,2.7c-0.8,0.7-2,1-3.4,1c-1.5,0-2.6-0.2-3.6-0.7l0-2c0.6,0.3,1.2,0.5,1.9,0.6
		c0.7,0.2,1.3,0.2,1.8,0.2c0.8,0,1.4-0.2,1.8-0.5c0.4-0.3,0.6-0.7,0.6-1.3c0-0.5-0.2-0.9-0.5-1.2c-0.4-0.3-1.1-0.7-2.3-1.2
		c-1.2-0.5-2-1-2.5-1.6c-0.5-0.6-0.7-1.3-0.7-2.2c0-1.1,0.4-1.9,1.1-2.5c0.8-0.6,1.8-0.9,3.1-0.9c1.2,0,2.5,0.3,3.7,0.8l-0.7,1.7
		c-1.1-0.5-2.2-0.7-3.1-0.7c-0.7,0-1.2,0.1-1.5,0.4c-0.4,0.3-0.5,0.7-0.5,1.2c0,0.3,0.1,0.6,0.2,0.9c0.1,0.2,0.4,0.5,0.7,0.7
		s0.9,0.5,1.7,0.8c0.9,0.4,1.6,0.8,2.1,1.1c0.4,0.3,0.8,0.7,1,1.2C171.4,186,171.5,186.5,171.5,187.1z"/>
</g>
<g>
	<g>
		<path class="st2" d="M481,190.7l-2.1,0l0-11l-3.8,0l0-1.8l9.7,0l0,1.8l-3.8,0L481,190.7z"/>
		<path class="st2" d="M488.4,185.5l0,5.1l-2.1,0l0-12.8l3.6,0c1.7,0,2.9,0.3,3.7,0.9c0.8,0.6,1.2,1.6,1.2,2.8
			c0,1.6-0.8,2.7-2.5,3.4l3.6,5.7l-2.4,0l-3.1-5.1L488.4,185.5z M488.4,183.8l1.5,0c1,0,1.7-0.2,2.1-0.5c0.4-0.4,0.7-0.9,0.7-1.6
			c0-0.7-0.2-1.2-0.7-1.6c-0.5-0.3-1.2-0.5-2.1-0.5l-1.4,0L488.4,183.8z"/>
		<path class="st2" d="M505.4,190.7l-1.3-3.6l-4.9,0l-1.3,3.6l-2.2,0l4.8-12.9l2.3,0l4.8,12.9L505.4,190.7z M503.5,185.3l-1.2-3.5
			c-0.1-0.2-0.2-0.6-0.4-1.1c-0.2-0.5-0.3-0.9-0.3-1.1c-0.2,0.7-0.4,1.5-0.7,2.4l-1.2,3.3L503.5,185.3z"/>
		<path class="st2" d="M519.5,190.6l-2.6,0l-6.3-10.2h-0.1l0,0.6c0.1,1.1,0.1,2.1,0.1,3l0,6.7l-1.9,0l0-12.8l2.5,0l6.3,10.2h0.1
			c0-0.1,0-0.6-0.1-1.5s-0.1-1.5-0.1-2l0-6.7l1.9,0L519.5,190.6z"/>
		<path class="st2" d="M529.9,187.1c0,1.1-0.4,2-1.2,2.7s-2,1-3.4,1c-1.5,0-2.6-0.2-3.6-0.7l0-2c0.6,0.3,1.2,0.5,1.9,0.6
			c0.7,0.2,1.3,0.2,1.8,0.2c0.8,0,1.4-0.2,1.8-0.5c0.4-0.3,0.6-0.7,0.6-1.3c0-0.5-0.2-0.9-0.5-1.2c-0.4-0.3-1.1-0.7-2.3-1.2
			c-1.2-0.5-2-1-2.5-1.6c-0.5-0.6-0.7-1.3-0.7-2.2c0-1.1,0.4-1.9,1.1-2.5c0.8-0.6,1.8-0.9,3.1-0.9c1.2,0,2.5,0.3,3.7,0.8l-0.7,1.7
			c-1.1-0.5-2.2-0.7-3.1-0.7c-0.7,0-1.2,0.1-1.5,0.4c-0.4,0.3-0.5,0.7-0.5,1.2c0,0.3,0.1,0.6,0.2,0.9c0.1,0.2,0.4,0.5,0.7,0.7
			c0.3,0.2,0.9,0.5,1.7,0.8c0.9,0.4,1.6,0.8,2.1,1.1c0.4,0.3,0.8,0.7,1,1.2C529.8,186.1,529.9,186.6,529.9,187.1z"/>
		<path class="st2" d="M540.4,181.7c0,1.3-0.4,2.4-1.3,3.1s-2.1,1.1-3.8,1.1l-1.3,0l0,4.8l-2.1,0l0-12.8l3.7,0c1.6,0,2.8,0.3,3.6,1
			C540,179.4,540.4,180.4,540.4,181.7z M534,184.1l1.1,0c1.1,0,1.9-0.2,2.4-0.6c0.5-0.4,0.8-1,0.8-1.8c0-0.7-0.2-1.3-0.7-1.7
			c-0.5-0.4-1.2-0.5-2.1-0.5l-1.5,0L534,184.1z"/>
		<path class="st2" d="M554,184.2c0,2.1-0.5,3.7-1.6,4.9c-1,1.2-2.5,1.7-4.4,1.7c-1.9,0-3.4-0.6-4.5-1.7c-1-1.2-1.6-2.8-1.6-4.9
			c0-2.1,0.5-3.8,1.6-4.9c1-1.1,2.5-1.7,4.5-1.7c1.9,0,3.4,0.6,4.4,1.7S554,182.1,554,184.2z M544.2,184.2c0,1.6,0.3,2.8,1,3.6
			c0.6,0.8,1.6,1.2,2.8,1.2c1.2,0,2.2-0.4,2.8-1.2s1-2,1-3.6c0-1.6-0.3-2.8-0.9-3.6c-0.6-0.8-1.6-1.2-2.8-1.2
			c-1.3,0-2.2,0.4-2.9,1.2C544.5,181.4,544.2,182.6,544.2,184.2z"/>
		<path class="st2" d="M558.4,185.5l0,5.1l-2.1,0l0-12.8l3.6,0c1.7,0,2.9,0.3,3.7,0.9c0.8,0.6,1.2,1.6,1.2,2.8
			c0,1.6-0.8,2.7-2.5,3.4l3.6,5.7l-2.4,0l-3.1-5.1L558.4,185.5z M558.4,183.7l1.5,0c1,0,1.7-0.2,2.1-0.5c0.4-0.4,0.7-0.9,0.7-1.6
			c0-0.7-0.2-1.2-0.7-1.6c-0.5-0.3-1.2-0.5-2.1-0.5l-1.4,0L558.4,183.7z"/>
		<path class="st2" d="M571.8,190.6l-2.1,0l0-11l-3.8,0l0-1.8l9.7,0l0,1.8l-3.8,0L571.8,190.6z"/>
		<path class="st2" d="M584.3,190.6l-7.3,0l0-12.8l7.3,0l0,1.8l-5.2,0l0,3.5l4.8,0l0,1.8l-4.8,0l0,4l5.2,0L584.3,190.6z"/>
	</g>
</g>
<g>
	<path class="st3" d="M134.9,121.4h-30.6c-1.9,0-3.5-1.6-3.5-3.5V76.4c0-1.9,1.6-3.5,3.5-3.5h30.6c1.9,0,3.5,1.6,3.5,3.5V118
		C138.3,119.9,136.8,121.4,134.9,121.4z"/>
	<path class="st4" d="M134.9,121.4h-30.6c-1.9,0-3.5-1.6-3.5-3.5V76.4c0-1.9,1.6-3.5,3.5-3.5h30.6c1.9,0,3.5,1.6,3.5,3.5V118
		C138.3,119.9,136.8,121.4,134.9,121.4z"/>
	<path class="st5" d="M132.9,107.6v15.2c0,1.9-1.5,3.5-3.4,3.5H98.8c-1.9,0-3.4-1.6-3.4-3.5V81.3c0-1.9,1.5-3.5,3.4-3.5h24.3
		l9.8,9.9v11.1"/>
	<path class="st6" d="M131.4,88.2h-8c-0.4,0-0.8-0.3-0.8-0.8v-8.1c0-0.4,0.3-0.8,0.8-0.8l8.8,8.9C132.2,87.8,131.9,88.2,131.4,88.2z
		"/>
	<g>
		<g>
			<path class="st7" d="M132.7,104.9c3.7,0,3.7-5.7,0-5.7C129,99.2,129,104.9,132.7,104.9L132.7,104.9z"/>
		</g>
	</g>
	<line class="st8" x1="101.9" y1="87.2" x2="114.8" y2="87.2"/>
	<line class="st8" x1="101.9" y1="92.7" x2="114.8" y2="92.7"/>
	<line class="st8" x1="101.9" y1="98.2" x2="114.8" y2="98.2"/>
	<path class="st5" d="M144.8,126.4c0,3.1-1.6,5.9-4.3,7.5l-8,4.6l-8-4.6c-2.6-1.5-4.3-4.4-4.3-7.5v-14.5h0.5c4.5,0,8.7-1.9,11.8-5.2
		c3,3.3,7.3,5.2,11.8,5.2h0.5V126.4z"/>
	<path class="st9" d="M132.6,114.9c-4.4,0-8,3.6-8,8.1s3.6,8.1,8,8.1s8-3.6,8-8.1S137,114.9,132.6,114.9L132.6,114.9z"/>
	<path class="st5" d="M132.6,132"/>
	<path class="st8" d="M132.6,114.9c-4.4,0-8,3.6-8,8.1s3.6,8.1,8,8.1s8-3.6,8-8.1S137,114.9,132.6,114.9L132.6,114.9z"/>
	<polyline class="st8" points="136.1,120 131.5,126.3 129.1,123.8 	"/>
</g>
<g>
	<g>
		<rect x="694.3" y="136.2" class="st7" width="2.1" height="2.1"/>
		<path class="st7" d="M696.4,96.3v-2.1h-21v2.1h2.1v9.4h-2.1v2.1h2.1v9.4h-3.2l-4-37.7h2v-6.3h-12.6v6.3h2l-4,37.7H656L639.8,98
			c-0.2-2.1-2-3.8-4.1-3.8c-2.3,0-4.2,1.9-4.2,4.2c0,1.9,1.3,3.6,3.1,4v33.7h-3.1v2.1h60.8v-2.1h-2.1v-10.5h6.3v-8.4h-2.1v-9.4h2.1
			v-2.1h-2.1v-9.4H696.4z M679.6,96.3h12.6v9.4h-12.6V96.3z M679.6,107.9h12.6v9.4h-12.6V107.9z M672.1,116.7l-8.8-8.8h7.9
			L672.1,116.7z M670.9,104.8l-6.7-7.4h5.9L670.9,104.8z M663.3,84.8l0.6-5.2h4.4l0.6,5.2H663.3z M669,86.9l0.7,6.9l-4.8-6.9H669z
			 M668.2,95.3h-6l0.8-7.5L668.2,95.3z M661.8,75.4h8.4v2.1h-8.4V75.4z M661.9,97.9l7,7.8h-7.8L661.9,97.9z M660.8,108.3l9,9h-9.9
			L660.8,108.3z M653.3,117.3h-4.5l-1.4-2.1h4.2L653.3,117.3z M646.6,109.4l3.1,3.7h-3.9l-0.5-0.7L646.6,109.4z M645.1,107.6
			l-1.1,2.8l-3.8-5.5l4.1,1.7L645.1,107.6z M639.2,100.6l2,2.4l-3-1.3C638.6,101.4,638.9,101,639.2,100.6L639.2,100.6z M633.5,98.4
			c0-1.2,0.9-2.1,2.1-2.1c1.2,0,2.1,0.9,2.1,2.1c0,1.2-0.9,2.1-2.1,2.1C634.5,100.5,633.5,99.6,633.5,98.4L633.5,98.4z M645,136.2
			h-8.4v-32.7l6.4,9.3l0,0l0,0l3.1,4.6h-7.4v8.4h6.3V136.2z M655.5,132h-1v2.1h1v2.1h-8.4v-2.1h5.2V132h-5.2v-6.3h8.4V132z
			 M677.5,136.2h-19.9v-10.5h19.9V136.2z M688,132h-1v2.1h1v2.1h-8.4v-2.1h5.2V132h-5.2v-6.3h8.4V132z M694.3,123.6h-53.5v-4.2h53.5
			V123.6z M694.3,123.6"/>
		<rect x="681.7" y="98.4" class="st7" width="2.1" height="2.1"/>
		<rect x="685.9" y="98.4" class="st7" width="2.1" height="2.1"/>
		<rect x="688" y="113.1" class="st7" width="2.1" height="2.1"/>
		<rect x="683.8" y="113.1" class="st7" width="2.1" height="2.1"/>
	</g>
	<rect x="679.6" y="96.3" class="st3" width="12.6" height="9.4"/>
	<rect x="679.6" y="107.9" class="st3" width="12.6" height="9.4"/>
	<rect x="661.8" y="75.4" class="st10" width="8.4" height="2.1"/>
	<path class="st11" d="M633.5,98.4c0-1.2,0.9-2.1,2.1-2.1c1.2,0,2.1,0.9,2.1,2.1c0,1.2-0.9,2.1-2.1,2.1
		C634.5,100.5,633.5,99.6,633.5,98.4L633.5,98.4z"/>
</g>
<g>
	<g>
		<path class="st7" d="M556.5,110.5c6.1,0,11.1-5,11.1-11.1v-2.5c0-6.1-5-11.1-11.1-11.1H536v-4.1c0-0.5-0.4-1-1-1h-7.6
			c-0.5,0-1,0.4-1,1v4.1l-0.3,0c-6.1,0-11.1,5-11.1,11.1v2.5c0,6.1,5,11.1,11.1,11.1h2.8v3.1h-17V99.4c0-0.5-0.4-1-1-1h-12.6
			c-0.4,0-0.7,0.2-0.9,0.5l-5.1,10.1c-0.1,0.1-0.1,0.3-0.1,0.4v12.6c0,0.5,0.4,1,1,1h3l-0.1,0.3c-0.1,0.4-0.1,0.8-0.1,1.2
			c0,3.3,2.7,6,6,6s6-2.7,6-6c0-0.4,0-0.8-0.1-1.2l-0.1-0.3H538l-0.1,0.3c-0.1,0.4-0.1,0.8-0.1,1.2c0,3.3,2.7,6,6,6s6-2.7,6-6
			c0-0.4,0-0.8-0.1-1.2l-0.1-0.3h2.2l-0.1,0.3c-0.1,0.4-0.1,0.8-0.1,1.2c0,3.3,2.7,6,6,6c3.3,0,6-2.7,6-6c0-0.4,0-0.8-0.1-1.2
			l-0.1-0.3h3c0.5,0,1-0.4,1-1v-7.6c0-0.5-0.4-1-1-1h-12.9v-3.1H556.5z M494.3,109.8l4.7-9.4h0.9v10.7h-5.6V109.8z M502.1,128.8
			c-2.2,0-4.1-1.8-4.1-4.1c0-1.3,0.6-2.5,1.6-3.2c1-0.8,2.3-1,3.5-0.7c0.7,0.2,1.3,0.5,1.8,1c0.3,0.3,0.5,0.5,0.7,0.8
			c0.4,0.6,0.6,1.3,0.6,2C506.2,127,504.4,128.8,502.1,128.8z M510,121.2h-2.9l-0.1-0.1c0,0-0.1-0.1-0.1-0.1l-0.1-0.1
			c-0.1-0.1-0.2-0.3-0.3-0.4c0,0-0.1-0.1-0.1-0.1l-0.1-0.1c-0.1-0.1-0.2-0.2-0.3-0.3c-0.1,0-0.1-0.1-0.2-0.1l-0.1-0.1
			c-0.1-0.1-0.2-0.2-0.4-0.2c-0.1-0.1-0.2-0.1-0.3-0.2c-0.1-0.1-0.3-0.1-0.4-0.2c-0.1,0-0.2-0.1-0.3-0.1c-0.1-0.1-0.3-0.1-0.4-0.1
			l-0.1,0c-0.1,0-0.1,0-0.2-0.1c-0.2,0-0.3-0.1-0.5-0.1l-0.1,0c-0.1,0-0.1,0-0.2,0c-0.5-0.1-1-0.1-1.5,0c-0.1,0-0.1,0-0.2,0l-0.1,0
			c-0.2,0-0.3,0.1-0.5,0.1c-0.1,0-0.1,0-0.2,0.1l-0.1,0c-0.1,0-0.3,0.1-0.4,0.1c-0.1,0-0.2,0.1-0.3,0.1c-0.1,0.1-0.3,0.1-0.4,0.2
			c-0.1,0.1-0.2,0.1-0.3,0.2c-0.1,0.1-0.2,0.2-0.4,0.2c-0.1,0.1-0.1,0.1-0.2,0.2c-0.1,0.1-0.3,0.2-0.4,0.3l-0.1,0.1
			c-0.1,0-0.1,0.1-0.2,0.1c-0.1,0.1-0.2,0.2-0.3,0.4l-0.1,0.1c0,0-0.1,0.1-0.1,0.1l-0.1,0.1h-2.9v-4.4h3.8v-2h-3.8v-1.8h6.6
			c0.5,0,1-0.4,1-1v-11.7h8.1V121.2z M547.3,87.8h5.6v4.4h-5.6V87.8z M547.3,94.1h5.6v4.4h-5.6V94.1z M547.3,100.4h5.6v4.4h-5.6
			V100.4z M528.4,82.7h5.6v3.1h-5.6V82.7z M543.8,128.8c-2.2,0-4.1-1.8-4.1-4.1c0-1.3,0.6-2.5,1.6-3.2c1-0.8,2.3-1,3.5-0.7
			c0.7,0.2,1.3,0.5,1.8,1c0.3,0.3,0.5,0.5,0.7,0.8c0.4,0.6,0.6,1.3,0.6,2C547.9,127,546.1,128.8,543.8,128.8z M557.7,128.8
			c-2.2,0-4.1-1.8-4.1-4.1c0-1.3,0.6-2.5,1.6-3.2c1-0.8,2.3-1,3.5-0.7c0.7,0.2,1.3,0.5,1.8,1c0.3,0.3,0.5,0.5,0.7,0.8
			c0.4,0.6,0.6,1.3,0.6,2C561.8,127,560,128.8,557.7,128.8z M565.6,115.6v5.6h-2.9l-0.1-0.1c0,0-0.1-0.1-0.1-0.1l-0.1-0.1
			c-0.1-0.1-0.2-0.3-0.3-0.4c0,0-0.1-0.1-0.1-0.1l-0.1-0.1c-0.1-0.1-0.2-0.2-0.3-0.3c-0.1,0-0.1-0.1-0.2-0.1l-0.1-0.1
			c-0.1-0.1-0.2-0.2-0.4-0.2c-0.1-0.1-0.2-0.1-0.3-0.2c-0.1-0.1-0.3-0.1-0.4-0.2c-0.1,0-0.2-0.1-0.3-0.1c-0.1-0.1-0.3-0.1-0.4-0.1
			l-0.1,0c-0.1,0-0.1,0-0.2-0.1c-0.2,0-0.3-0.1-0.5-0.1l-0.1,0c-0.1,0-0.1,0-0.2,0c-0.5-0.1-1-0.1-1.5,0c-0.1,0-0.1,0-0.2,0l-0.1,0
			c-0.2,0-0.3,0.1-0.5,0.1c-0.1,0-0.1,0-0.2,0.1l-0.1,0c-0.1,0-0.3,0.1-0.4,0.1c-0.1,0-0.2,0.1-0.3,0.1c-0.1,0.1-0.3,0.1-0.4,0.2
			c-0.1,0.1-0.2,0.1-0.3,0.2c-0.1,0.1-0.2,0.1-0.3,0.2L554,120c-0.2,0.1-0.3,0.2-0.4,0.3l-0.1,0.1c0,0-0.1,0.1-0.1,0.1
			c-0.1,0.1-0.2,0.3-0.3,0.4L553,121c0,0-0.1,0.1-0.1,0.1l-0.1,0.1l-0.1,0h-3.9l-0.1-0.1c0,0-0.1-0.1-0.1-0.1l-0.1-0.1
			c-0.1-0.1-0.2-0.3-0.3-0.4c0,0-0.1-0.1-0.1-0.1l-0.1-0.1c-0.1-0.1-0.2-0.2-0.3-0.3c-0.1,0-0.1-0.1-0.2-0.1l-0.1-0.1
			c-0.1-0.1-0.2-0.2-0.4-0.2c-0.1-0.1-0.2-0.1-0.3-0.2c-0.1-0.1-0.3-0.1-0.4-0.2c-0.1,0-0.2-0.1-0.3-0.1c-0.1-0.1-0.3-0.1-0.4-0.1
			l-0.1,0c-0.1,0-0.1,0-0.2-0.1c-0.2,0-0.3-0.1-0.5-0.1l-0.1,0c-0.1,0-0.1,0-0.2,0c-0.5-0.1-1-0.1-1.5,0c-0.1,0-0.1,0-0.2,0l-0.1,0
			c-0.2,0-0.3,0.1-0.5,0.1c-0.1,0-0.1,0-0.2,0.1l-0.1,0c-0.1,0-0.3,0.1-0.4,0.1c-0.1,0-0.2,0.1-0.3,0.1c-0.1,0.1-0.3,0.1-0.4,0.2
			c-0.1,0.1-0.2,0.1-0.3,0.2c-0.1,0.1-0.2,0.1-0.3,0.2l-0.3,0.2c-0.2,0.1-0.3,0.2-0.4,0.3l-0.1,0.1c0,0-0.1,0.1-0.1,0.1
			c-0.1,0.1-0.2,0.3-0.3,0.4l-0.1,0.1c0,0-0.1,0.1-0.1,0.1l-0.1,0.1l-0.1,0H512v-5.6H565.6z M530.9,113.6v-3.1h20.8v3.1H530.9z
			 M526.1,108.6c-5,0-9.1-4.1-9.1-9.1v-2.5c0-5,4.1-9.1,9.1-9.1h19.2v18c0,0.5,0.4,1,1,1h7.6c0.5,0,1-0.4,1-1v-18h1.5
			c5,0,9.1,4.1,9.1,9.1v2.5c0,5-4.1,9.1-9.1,9.1H526.1z"/>
	</g>
	<path class="st3" d="M526.1,108.6c-5,0-9.1-4.1-9.1-9.1v-2.5c0-5,4.1-9.1,9.1-9.1h19.2v18c0,0.5,0.4,1,1,1h7.6c0.5,0,1-0.4,1-1v-18
		h1.5c5,0,9.1,4.1,9.1,9.1v2.5c0,5-4.1,9.1-9.1,9.1H526.1z"/>
	<rect x="528.4" y="82.7" class="st10" width="5.6" height="3.1"/>
</g>
<g>
	<path class="st3" d="M820,138.5h-0.5c-7.2,0-13.1-6-13.1-13.3c0-2.2,0.5-4.4,1.6-6.3l11.8-22.1l11.8,22.1c1,1.9,1.6,4.1,1.6,6.3
		C833.1,132.5,827.2,138.5,820,138.5L820,138.5z"/>
	<g>
		<path class="st7" d="M833.5,117.6l-3.5-6.5c0.6-2.5,0.9-5,0.9-7.6c0-17.8-14.5-32.3-32.3-32.3c-17.8,0-32.3,14.5-32.3,32.3
			c0,17.4,13.9,31.7,31.2,32.3v0h2.2v0c2.7-0.1,5.3-0.5,7.8-1.2c2.8,3.5,7.1,5.7,11.9,5.7h0.5c8.5,0,15.3-6.9,15.3-15.3
			C835.3,122.4,834.7,119.9,833.5,117.6L833.5,117.6z M795,73.7c-3.1,2.6-8,7.6-11.1,14.9c-4.7-1.1-7.7-2.4-9.2-3.2
			C779.5,79.1,786.7,74.7,795,73.7L795,73.7z M773.4,87.2c1.5,0.8,4.7,2.3,9.6,3.5c-1.2,3.4-2.1,7.3-2.2,11.7h-12.2
			C768.8,96.8,770.5,91.6,773.4,87.2L773.4,87.2z M768.6,104.6h12.2c0.1,4.4,0.9,8.3,2.2,11.7c-5,1.2-8.1,2.7-9.6,3.5
			C770.5,115.4,768.8,110.2,768.6,104.6L768.6,104.6z M774.7,121.7c1.5-0.8,4.5-2.1,9.2-3.2c3.1,7.3,8,12.2,11.1,14.9
			C786.7,132.4,779.5,128,774.7,121.7L774.7,121.7z M797.5,132.6c-2.7-2.1-8.1-6.9-11.4-14.5c3.2-0.6,7-1,11.4-1.1V132.6z
			 M797.5,114.7c-4.8,0.1-8.9,0.5-12.3,1.2c-1.2-3.3-2-7-2.2-11.2h14.4V114.7z M797.5,102.4H783c0.1-4.2,0.9-8,2.2-11.2
			c3.4,0.7,7.5,1.1,12.3,1.2V102.4z M797.5,90.1c-4.4-0.1-8.3-0.5-11.4-1.1c3.4-7.6,8.7-12.4,11.4-14.5V90.1z M828.6,102.4h-3.4
			l-5.5-10.1l-3.6,6.7c-0.3-3-1-5.8-1.9-8.3c4.9-1.2,8.1-2.7,9.6-3.5C826.7,91.6,828.4,96.8,828.6,102.4L828.6,102.4z M828.6,104.6
			c0,1.2-0.1,2.3-0.3,3.4l-1.9-3.4H828.6z M822.5,85.4c-1.5,0.8-4.5,2.1-9.1,3.2c-3.1-7.3-7.9-12.2-11.1-14.9
			C810.5,74.7,817.8,79.1,822.5,85.4L822.5,85.4z M799.7,74.5c2.7,2.1,8,6.9,11.4,14.5c-3.2,0.6-7,1-11.4,1.1V74.5z M799.7,92.4
			c4.8-0.1,8.9-0.5,12.3-1.2c1.2,3.3,2,7,2.2,11.2h-14.4V92.4z M799.7,104.6h13.3l-5.7,10.5c-2.5-0.3-5-0.5-7.6-0.5V104.6z
			 M799.7,116.9c2.2,0,4.4,0.2,6.5,0.4l-0.2,0.4c-1.2,2.2-1.9,4.8-1.9,7.3c0,1.1,0.1,2.2,0.3,3.2c-1.8,2-3.6,3.5-4.8,4.4V116.9z
			 M802.3,133.3c0.9-0.7,1.9-1.7,3-2.8c0.3,0.7,0.6,1.4,1,2C804.9,132.9,803.6,133.2,802.3,133.3L802.3,133.3z M820,138h-0.5
			c-7.2,0-13.1-5.9-13.1-13.1c0-2.2,0.5-4.3,1.6-6.2L819.8,97l11.8,21.7c1,1.9,1.6,4.1,1.6,6.2C833.1,132.2,827.2,138,820,138
			L820,138z M820,138"/>
	</g>
	<path class="st7" d="M820.6,121.6v-4c0.9,0.1,1.3,0.3,2.3,0.7c0.5,0.2,1.1,0.1,1.4-0.5c0.3-0.5,0.5-1.3-0.1-1.8
		c-0.9-0.7-2.5-1-3.6-1v-0.6c0-0.3-0.4-0.6-0.8-0.6c-0.4,0-0.8,0.2-0.8,0.6v0.6c-2.7,0.4-4.5,1.8-4.5,4.5c0,2.8,2,3.7,4.5,4.6v4.6
		c-1.2-0.1-1.8-0.6-3-1.5c-0.6-0.4-1.2-0.3-1.6,0.3c-0.5,0.8-0.5,1.4,0,2c0.9,1.2,2.8,1.9,4.6,1.9v0.7c0,0.3,0.4,0.6,0.8,0.6
		c0.4,0,0.8-0.2,0.8-0.6v-0.7c2.4-0.4,4.4-1.8,4.4-4.9C825,123.7,823.2,122.5,820.6,121.6L820.6,121.6z M819.1,121.1
		c-1.4-0.6-1.9-1-1.9-1.9c0-1,0.9-1.5,1.9-1.6V121.1z M820.4,128.7v-4c1.5,0.6,1.8,1.3,1.8,2.1C822.1,127.9,821.4,128.5,820.4,128.7
		L820.4,128.7z M820.4,128.7"/>
</g>
<g>
	<circle class="st3" cx="250.6" cy="99.4" r="22.4"/>
	<circle class="st12" cx="251" cy="99.4" r="15.6"/>
	<g>
		<path class="st7" d="M240,109c-0.5-0.5-1.2-0.5-1.7,0c-0.5,0.5-0.5,1.2,0,1.7l0.1,0.1c0.2,0.2,0.5,0.3,0.8,0.3
			c0.3,0,0.6-0.1,0.8-0.3C240.5,110.3,240.5,109.5,240,109L240,109z M240,109"/>
		<g>
			<path class="st7" d="M261.9,87.2c-6.5-6.5-17-6.5-23.5,0c-5.1,5.1-6.3,12.9-3.1,19.3c0.3,0.6,1,0.8,1.6,0.5
				c0.6-0.3,0.8-1,0.5-1.6c-2.8-5.5-1.8-12.2,2.6-16.6c5.6-5.6,14.6-5.6,20.2,0c5.6,5.6,5.6,14.6,0,20.2c-4.2,4.2-10.7,5.4-16.1,2.9
				c-0.6-0.3-1.3,0-1.6,0.6c-0.3,0.6,0,1.3,0.6,1.6c2.2,1,4.6,1.5,7,1.5c4.3,0,8.6-1.7,11.8-4.9C268.4,104.2,268.4,93.7,261.9,87.2
				L261.9,87.2z M261.9,87.2"/>
			<path class="st7" d="M285.9,127.2l-16-16c2.2-3.6,3.5-7.7,3.5-12.2c0-12.8-10.4-23.2-23.2-23.2C237.4,75.8,227,86.2,227,99
				c0,12.8,10.4,23.2,23.2,23.2c4.5,0,8.7-1.3,12.2-3.5l16,16c0.7,0.7,1.6,1,2.5,1c0.9,0,1.8-0.3,2.5-1l2.5-2.5
				C287.3,130.8,287.3,128.6,285.9,127.2L285.9,127.2z M229.3,99c0-11.5,9.4-20.9,20.9-20.9c11.5,0,20.9,9.4,20.9,20.9
				s-9.4,20.9-20.9,20.9C238.7,119.8,229.3,110.5,229.3,99L229.3,99z M268.5,113.1l2.6,2.6l-4.2,4.2l-2.6-2.6
				C265.9,116.1,267.3,114.7,268.5,113.1L268.5,113.1z M284.3,130.5l-2.5,2.5c-0.5,0.5-1.2,0.5-1.7,0l-11.5-11.5l4.2-4.2l11.5,11.5
				C284.7,129.3,284.7,130.1,284.3,130.5L284.3,130.5z M284.3,130.5"/>
		</g>
		<path class="st7" d="M258.4,99c0,0.6,0.5,1.2,1.2,1.2c0.6,0,1.2-0.5,1.2-1.2c0-4-2.3-7.8-6-9.5c-0.6-0.3-1.3,0-1.6,0.5
			c-0.3,0.6,0,1.3,0.5,1.6C256.6,92.9,258.4,95.8,258.4,99L258.4,99z M258.4,99"/>
		<path class="st7" d="M250.2,90.8c0.6,0,1.2-0.5,1.2-1.2c0-0.6-0.5-1.2-1.2-1.2h0c-0.6,0-1.2,0.5-1.2,1.2
			C249,90.2,249.5,90.8,250.2,90.8L250.2,90.8z M250.2,90.8"/>
	</g>
</g>
<g>
	<path class="st7" d="M383.5,133.3H374c-0.7,0-1.3-0.6-1.3-1.3v-2.8c-1.2-0.4-2.4-0.9-3.5-1.5l-2,2c-0.2,0.2-0.6,0.4-0.9,0.4
		c-0.4,0-0.7-0.1-0.9-0.4l-6.8-6.8c-0.2-0.2-0.4-0.6-0.4-0.9c0-0.4,0.1-0.7,0.4-0.9l2-2c-0.6-1.1-1.1-2.3-1.5-3.5h-2.8
		c-0.7,0-1.3-0.6-1.3-1.3v-9.6c0-0.7,0.6-1.3,1.3-1.3h2.8c0.4-1.2,0.9-2.4,1.5-3.5l-2-2c-0.2-0.2-0.4-0.6-0.4-0.9
		c0-0.4,0.1-0.7,0.4-0.9l6.8-6.8c0.2-0.2,0.6-0.4,0.9-0.4c0.4,0,0.7,0.1,0.9,0.4l2,2c1.1-0.6,2.3-1.1,3.5-1.5v-2.8
		c0-0.7,0.6-1.3,1.3-1.3h9.6c0.7,0,1.3,0.6,1.3,1.3v2.8c1.2,0.4,2.4,0.9,3.5,1.5l2-2c0.5-0.5,1.4-0.5,1.9,0l6.8,6.8
		c0.2,0.2,0.4,0.6,0.4,0.9c0,0.4-0.1,0.7-0.4,0.9l-2,2c0.6,1.1,1.1,2.3,1.5,3.5h2.8c0.7,0,1.3,0.6,1.3,1.3v9.6
		c0,0.7-0.6,1.3-1.3,1.3h-2.8c-0.4,1.2-0.9,2.4-1.5,3.5l2,2c0.2,0.2,0.4,0.6,0.4,0.9c0,0.4-0.1,0.7-0.4,0.9l-6.8,6.8
		c-0.5,0.5-1.4,0.5-1.9,0l-2-2c-1.1,0.6-2.3,1.1-3.5,1.5v2.8C384.8,132.7,384.2,133.3,383.5,133.3L383.5,133.3z M375.3,130.6h6.9
		v-2.5c0-0.6,0.4-1.1,1-1.3c1.7-0.4,3.3-1.1,4.7-2c0.5-0.3,1.2-0.2,1.6,0.2l1.8,1.8l4.9-4.9l-1.8-1.8c-0.4-0.4-0.5-1.1-0.2-1.6
		c0.9-1.5,1.5-3.1,2-4.7c0.1-0.6,0.7-1,1.3-1h2.5v-6.9h-2.5c-0.6,0-1.1-0.4-1.3-1c-0.4-1.7-1.1-3.3-2-4.7c-0.3-0.5-0.2-1.2,0.2-1.6
		l1.8-1.8l-4.9-4.9l-1.8,1.8c-0.4,0.4-1.1,0.5-1.6,0.2c-1.5-0.9-3.1-1.5-4.7-2c-0.6-0.1-1-0.7-1-1.3v-2.5h-6.9v2.5
		c0,0.6-0.4,1.1-1,1.3c-1.7,0.4-3.3,1.1-4.7,2c-0.5,0.3-1.2,0.2-1.6-0.2l-1.8-1.8l-4.9,4.9l1.8,1.8c0.4,0.4,0.5,1.1,0.2,1.6
		c-0.9,1.5-1.5,3.1-2,4.7c-0.1,0.6-0.7,1-1.3,1h-2.5v6.9h2.5c0.6,0,1.1,0.4,1.3,1c0.4,1.7,1.1,3.3,2,4.7c0.3,0.5,0.2,1.2-0.2,1.6
		l-1.8,1.8l4.9,4.9l1.8-1.8c0.4-0.4,1.1-0.5,1.6-0.2c1.5,0.9,3.1,1.5,4.7,2c0.6,0.1,1,0.7,1,1.3L375.3,130.6L375.3,130.6z
		 M375.3,130.6"/>
	<path class="st7" d="M378.7,121.3c-6.6,0-11.9-5.4-11.9-11.9c0-4.4,2.4-8.4,6.3-10.5c0.6-0.3,1.4-0.1,1.8,0.5
		c0.3,0.6,0.1,1.4-0.5,1.8c-3,1.6-4.9,4.8-4.9,8.2c0,5.1,4.2,9.3,9.3,9.3c5.1,0,9.3-4.2,9.3-9.3c0-3.6-2.1-6.9-5.3-8.4
		c-0.7-0.3-0.9-1.1-0.6-1.8c0.3-0.7,1.1-0.9,1.8-0.6c4.2,2,6.8,6.2,6.8,10.8C390.7,116,385.3,121.3,378.7,121.3L378.7,121.3z
		 M378.7,121.3"/>
	<path class="st7" d="M378.7,100.1L378.7,100.1c-0.7,0-1.3-0.6-1.3-1.3c0-0.7,0.6-1.3,1.3-1.3h0c0.7,0,1.3,0.6,1.3,1.3
		C380.1,99.5,379.5,100.1,378.7,100.1L378.7,100.1z M378.7,100.1"/>
	<path class="st7" d="M431.6,91.5l-3-7.7c-0.1-0.3-0.4-0.6-0.7-0.7c-0.3-0.1-0.6-0.1-0.9,0l-2.2,1l0,0c-0.3-0.3-0.7-0.6-1-0.8l0,0
		l0.3-2.4c0.1-0.7-0.4-1.4-1.1-1.5l-7.9-1c-0.7-0.1-1.3,0.4-1.4,1.1l-0.3,2.4l-0.1,0c-0.4,0.1-0.8,0.3-1.2,0.5l-0.1,0l-1.9-1.5
		c-0.3-0.2-0.6-0.3-0.9-0.2c-0.3,0-0.6,0.2-0.8,0.5l-4.9,6.7c-0.2,0.3-0.3,0.6-0.2,1c0,0.3,0.2,0.7,0.5,0.9l1.9,1.5l0,0.1
		c0,0.2-0.1,0.4-0.1,0.6c0,0.2-0.1,0.4-0.1,0.7l0,0.1l-2.2,1c-0.3,0.1-0.5,0.4-0.7,0.7c-0.1,0.3-0.1,0.7,0,1l3,7.7
		c0.1,0.3,0.4,0.6,0.7,0.7c0.3,0.1,0.6,0.1,0.9,0l2.2-1l0,0c0.3,0.3,0.6,0.5,1,0.8l0,0l-0.3,2.4c0,0.3,0,0.7,0.2,1
		c0.2,0.3,0.5,0.4,0.8,0.5l7.9,1c0.7,0.1,1.3-0.4,1.4-1.1l0.3-2.4l0.1,0c0.4-0.2,0.8-0.3,1.2-0.5l0.1,0l1.9,1.5
		c0.3,0.2,0.6,0.3,0.9,0.3c0.3,0,0.6-0.2,0.8-0.5l4.9-6.7c0.4-0.6,0.3-1.4-0.2-1.8l-1.9-1.5l0-0.1c0-0.2,0.1-0.4,0.1-0.6
		c0-0.2,0-0.4,0.1-0.7l0-0.1l2.2-1C431.6,92.9,431.9,92.1,431.6,91.5z M427.1,92.1c-0.5,0.2-0.8,0.7-0.8,1.2c0,0.4,0,0.9-0.1,1.3
		c-0.1,0.4-0.1,0.8-0.2,1.2c-0.1,0.5,0,1,0.4,1.4l1.5,1.2l-3.4,4.6l-1.5-1.2c-0.4-0.3-0.9-0.3-1.4-0.1c-0.7,0.4-1.4,0.8-2.2,1
		c-0.5,0.1-0.8,0.6-0.9,1.1l-0.3,2l-0.1,0l-5.4-0.7l0.3-2c0.1-0.5-0.2-1-0.6-1.3c-0.7-0.4-1.3-0.9-1.9-1.5c-0.4-0.4-0.9-0.5-1.3-0.3
		l-1.8,0.8l-2.1-5.3l1.8-0.8c0.5-0.2,0.8-0.7,0.8-1.2c0-0.4,0-0.9,0.1-1.3c0.1-0.4,0.1-0.8,0.2-1.2c0.1-0.5,0-1-0.4-1.4l-1.5-1.2
		l3.4-4.6l1.5,1.2c0.4,0.3,0.9,0.3,1.4,0.1c0.7-0.4,1.4-0.8,2.2-1c0.5-0.1,0.8-0.6,0.9-1.1l0.3-2l0.1,0l5.4,0.7l-0.3,2
		c-0.1,0.5,0.2,1,0.6,1.3c0.7,0.4,1.3,0.9,1.9,1.5c0.4,0.4,0.9,0.5,1.3,0.3l1.8-0.8l2.1,5.3L427.1,92.1z"/>
	<path class="st7" d="M416.4,99.7c-3.3-0.4-5.7-3.6-5.2-7.2c0.5-3.5,3.5-6,6.9-5.6c3.3,0.4,5.7,3.6,5.2,7.2
		C422.8,97.7,419.7,100.2,416.4,99.7L416.4,99.7z M417.6,89.8c-1.9-0.2-3.6,1.2-3.9,3.2s1.1,3.8,3,4s3.6-1.2,3.9-3.2
		C420.9,91.8,419.5,90,417.6,89.8L417.6,89.8z M417.6,89.8"/>
</g>
</svg>
