<?xml version="1.0" encoding="utf-8"?>
<!-- Generator: Adobe Illustrator 22.1.0, SVG Export Plug-In . SVG Version: 6.00 Build 0)  -->
<svg version="1.1" id="Capa_1" xmlns="http://www.w3.org/2000/svg" xmlns:xlink="http://www.w3.org/1999/xlink" x="0px" y="0px"
	 viewBox="0 0 950 500" style="enable-background:new 0 0 950 500;" xml:space="preserve">
<style type="text/css">
	.st0{fill:#FAFAFA;}
	.st1{fill:#036995;}
	.st2{fill:#FFFFFF;stroke:#35B0B1;stroke-width:3;stroke-miterlimit:10;}
	.st3{fill:#0090CC;}
	.st4{fill:#FF7373;}
	.st5{fill:#FFE017;}
	.st6{fill:none;stroke:#0090CC;stroke-width:3;stroke-linecap:round;stroke-linejoin:round;stroke-miterlimit:10;}
	.st7{fill:#869095;}
	.st8{fill:#FFFFFF;stroke:#35B0B1;stroke-miterlimit:10;}
</style>
<rect class="st0" width="950" height="500"/>
<g>
	<g>
		<path class="st1" d="M139.3,211h-2.1v-8.2h-2.7V201h7.5v1.8h-2.7V211z"/>
		<path class="st1" d="M145.3,207.1v3.8h-2.1v-10h2.9c1.4,0,2.4,0.2,3,0.7c0.7,0.5,1,1.2,1,2.3c0,0.6-0.2,1.1-0.5,1.6
			c-0.3,0.5-0.8,0.8-1.4,1.1c1.5,2.2,2.5,3.7,2.9,4.4h-2.4l-2.4-3.8H145.3z M145.3,205.4h0.7c0.7,0,1.2-0.1,1.5-0.3s0.5-0.6,0.5-1.1
			c0-0.5-0.2-0.8-0.5-1c-0.3-0.2-0.8-0.3-1.5-0.3h-0.6V205.4z"/>
		<path class="st1" d="M158.2,211l-0.7-2.4h-3.6l-0.7,2.4h-2.3l3.5-10h2.6l3.5,10H158.2z M156.9,206.8c-0.7-2.2-1-3.4-1.1-3.7
			c-0.1-0.3-0.1-0.5-0.2-0.7c-0.2,0.6-0.6,2-1.3,4.3H156.9z"/>
		<path class="st1" d="M170.2,211h-2.7l-4.3-7.6h-0.1c0.1,1.3,0.1,2.3,0.1,2.9v4.7h-1.9v-10h2.7l4.3,7.5h0c-0.1-1.3-0.1-2.2-0.1-2.8
			V201h1.9V211z"/>
		<path class="st1" d="M178.3,208.2c0,0.9-0.3,1.6-1,2.1c-0.7,0.5-1.6,0.8-2.7,0.8c-1.1,0-2-0.2-2.8-0.6v-2c0.7,0.3,1.2,0.5,1.7,0.6
			c0.5,0.1,0.9,0.2,1.3,0.2c0.5,0,0.8-0.1,1.1-0.3c0.2-0.2,0.4-0.4,0.4-0.8c0-0.2-0.1-0.4-0.2-0.5c-0.1-0.2-0.3-0.3-0.5-0.4
			c-0.2-0.1-0.6-0.4-1.3-0.7c-0.6-0.3-1.1-0.6-1.4-0.8s-0.5-0.6-0.7-0.9s-0.3-0.8-0.3-1.2c0-0.9,0.3-1.6,0.9-2.1
			c0.6-0.5,1.4-0.8,2.5-0.8c0.5,0,1,0.1,1.5,0.2c0.5,0.1,1,0.3,1.5,0.5l-0.7,1.6c-0.5-0.2-1-0.4-1.3-0.5c-0.3-0.1-0.7-0.1-1-0.1
			c-0.4,0-0.7,0.1-0.9,0.3s-0.3,0.4-0.3,0.7c0,0.2,0,0.3,0.1,0.5c0.1,0.1,0.2,0.3,0.4,0.4c0.2,0.1,0.6,0.4,1.3,0.7
			c0.9,0.4,1.6,0.9,1.9,1.3C178.1,207,178.3,207.5,178.3,208.2z"/>
		<path class="st1" d="M186.7,204.1c0,1.1-0.3,1.9-1,2.5c-0.7,0.6-1.6,0.9-2.9,0.9h-0.9v3.6h-2.1v-10h3.2c1.2,0,2.1,0.3,2.8,0.8
			C186.3,202.3,186.7,203,186.7,204.1z M181.9,205.7h0.7c0.7,0,1.1-0.1,1.5-0.4c0.3-0.3,0.5-0.6,0.5-1.1c0-0.5-0.1-0.9-0.4-1.1
			c-0.3-0.2-0.7-0.4-1.3-0.4h-1V205.7z"/>
		<path class="st1" d="M197.3,205.9c0,1.7-0.4,2.9-1.2,3.8s-2,1.3-3.5,1.3s-2.7-0.4-3.5-1.3s-1.2-2.2-1.2-3.8s0.4-2.9,1.2-3.8
			c0.8-0.9,2-1.3,3.5-1.3s2.7,0.4,3.5,1.3C196.9,203,197.3,204.3,197.3,205.9z M190,205.9c0,1.1,0.2,2,0.6,2.5s1.1,0.8,1.9,0.8
			c1.7,0,2.5-1.1,2.5-3.4c0-2.3-0.8-3.4-2.5-3.4c-0.8,0-1.5,0.3-1.9,0.9C190.2,204,190,204.8,190,205.9z"/>
		<path class="st1" d="M201.1,207.1v3.8H199v-10h2.9c1.4,0,2.4,0.2,3,0.7c0.7,0.5,1,1.2,1,2.3c0,0.6-0.2,1.1-0.5,1.6
			c-0.3,0.5-0.8,0.8-1.4,1.1c1.5,2.2,2.5,3.7,2.9,4.4h-2.4l-2.4-3.8H201.1z M201.1,205.4h0.7c0.7,0,1.2-0.1,1.5-0.3s0.5-0.6,0.5-1.1
			c0-0.5-0.2-0.8-0.5-1c-0.3-0.2-0.8-0.3-1.5-0.3h-0.6V205.4z"/>
		<path class="st1" d="M211.7,211h-2.1v-8.2h-2.7V201h7.5v1.8h-2.7V211z"/>
		<path class="st1" d="M221.4,211h-5.8v-10h5.8v1.7h-3.6v2.2h3.4v1.7h-3.4v2.6h3.6V211z"/>
		<path class="st1" d="M141.9,223.1c0-1.2,0.2-2.3,0.5-3.4c0.4-1.1,0.9-2,1.5-2.8h1.7c-0.6,0.9-1.1,1.8-1.5,2.9s-0.5,2.1-0.5,3.2
			c0,1.1,0.2,2.2,0.5,3.2c0.3,1,0.8,2,1.4,2.8H144c-0.7-0.8-1.2-1.7-1.5-2.7S141.9,224.3,141.9,223.1z"/>
		<path class="st1" d="M151.2,227l-2.4-7.8h-0.1c0.1,1.6,0.1,2.7,0.1,3.2v4.6H147v-10h2.9l2.4,7.6h0l2.5-7.6h2.9v10h-2v-4.7
			c0-0.2,0-0.5,0-0.8c0-0.3,0-1.1,0.1-2.3h-0.1l-2.6,7.8H151.2z"/>
		<path class="st1" d="M159.8,227v-10h2.1v10H159.8z"/>
		<path class="st1" d="M164.1,227v-10h2.1v8.2h4.1v1.8H164.1z"/>
		<path class="st1" d="M171.7,227v-10h2.1v8.2h4.1v1.8H171.7z"/>
		<path class="st1" d="M188.3,221.9c0,1.7-0.4,2.9-1.2,3.8s-2,1.3-3.5,1.3s-2.7-0.4-3.5-1.3s-1.2-2.2-1.2-3.8s0.4-2.9,1.2-3.8
			c0.8-0.9,2-1.3,3.5-1.3s2.7,0.4,3.5,1.3C187.9,219,188.3,220.3,188.3,221.9z M181,221.9c0,1.1,0.2,2,0.6,2.5s1.1,0.8,1.9,0.8
			c1.7,0,2.5-1.1,2.5-3.4c0-2.3-0.8-3.4-2.5-3.4c-0.8,0-1.5,0.3-1.9,0.9C181.2,220,181,220.8,181,221.9z"/>
		<path class="st1" d="M198.9,227h-2.7l-4.3-7.6h-0.1c0.1,1.3,0.1,2.3,0.1,2.9v4.7H190v-10h2.7l4.3,7.5h0c-0.1-1.3-0.1-2.2-0.1-2.8
			V217h1.9V227z"/>
		<path class="st1" d="M206.8,227h-5.8v-10h5.8v1.7h-3.6v2.2h3.4v1.7h-3.4v2.6h3.6V227z"/>
		<path class="st1" d="M214.5,224.2c0,0.9-0.3,1.6-1,2.1c-0.7,0.5-1.6,0.8-2.7,0.8c-1.1,0-2-0.2-2.8-0.6v-2c0.7,0.3,1.2,0.5,1.7,0.6
			c0.5,0.1,0.9,0.2,1.3,0.2c0.5,0,0.8-0.1,1.1-0.3c0.2-0.2,0.4-0.4,0.4-0.8c0-0.2-0.1-0.4-0.2-0.5c-0.1-0.2-0.3-0.3-0.5-0.4
			c-0.2-0.1-0.6-0.4-1.3-0.7c-0.6-0.3-1.1-0.6-1.4-0.8s-0.5-0.6-0.7-0.9s-0.3-0.8-0.3-1.2c0-0.9,0.3-1.6,0.9-2.1
			c0.6-0.5,1.4-0.8,2.5-0.8c0.5,0,1,0.1,1.5,0.2c0.5,0.1,1,0.3,1.5,0.5l-0.7,1.6c-0.5-0.2-1-0.4-1.3-0.5c-0.3-0.1-0.7-0.1-1-0.1
			c-0.4,0-0.7,0.1-0.9,0.3s-0.3,0.4-0.3,0.7c0,0.2,0,0.3,0.1,0.5c0.1,0.1,0.2,0.3,0.4,0.4c0.2,0.1,0.6,0.4,1.3,0.7
			c0.9,0.4,1.6,0.9,1.9,1.3C214.3,223,214.5,223.5,214.5,224.2z"/>
		<path class="st1" d="M148.6,234.6c-0.8,0-1.4,0.3-1.9,0.9c-0.4,0.6-0.7,1.4-0.7,2.5c0,2.2,0.8,3.3,2.5,3.3c0.7,0,1.6-0.2,2.5-0.5
			v1.8c-0.8,0.3-1.7,0.5-2.7,0.5c-1.5,0-2.6-0.4-3.3-1.3c-0.8-0.9-1.2-2.1-1.2-3.8c0-1,0.2-1.9,0.6-2.7c0.4-0.8,0.9-1.4,1.6-1.8
			c0.7-0.4,1.5-0.6,2.5-0.6c1,0,1.9,0.2,2.9,0.7l-0.7,1.7c-0.4-0.2-0.8-0.3-1.1-0.5S149,234.6,148.6,234.6z"/>
		<path class="st1" d="M162,237.9c0,1.7-0.4,2.9-1.2,3.8s-2,1.3-3.5,1.3s-2.7-0.4-3.5-1.3s-1.2-2.2-1.2-3.8s0.4-2.9,1.2-3.8
			c0.8-0.9,2-1.3,3.5-1.3s2.7,0.4,3.5,1.3C161.6,235,162,236.3,162,237.9z M154.7,237.9c0,1.1,0.2,2,0.6,2.5s1.1,0.8,1.9,0.8
			c1.7,0,2.5-1.1,2.5-3.4c0-2.3-0.8-3.4-2.5-3.4c-0.8,0-1.5,0.3-1.9,0.9C154.9,236,154.7,236.8,154.7,237.9z"/>
		<path class="st1" d="M170.6,236.1c0,1.1-0.3,1.9-1,2.5c-0.7,0.6-1.6,0.9-2.9,0.9h-0.9v3.6h-2.1v-10h3.2c1.2,0,2.1,0.3,2.8,0.8
			C170.3,234.3,170.6,235,170.6,236.1z M165.9,237.7h0.7c0.7,0,1.1-0.1,1.5-0.4c0.3-0.3,0.5-0.6,0.5-1.1c0-0.5-0.1-0.9-0.4-1.1
			c-0.3-0.2-0.7-0.4-1.3-0.4h-1V237.7z"/>
		<path class="st1" d="M174.1,241.5c-0.2,0.9-0.6,2-1.2,3.3h-1.5c0.3-1.2,0.5-2.4,0.7-3.4h1.9L174.1,241.5z"/>
		<path class="st1" d="M185.5,243h-7v-1.5l2.5-2.5c0.7-0.8,1.2-1.3,1.5-1.6c0.2-0.3,0.4-0.6,0.5-0.8s0.2-0.5,0.2-0.8
			c0-0.4-0.1-0.7-0.3-0.9c-0.2-0.2-0.5-0.3-0.9-0.3c-0.4,0-0.8,0.1-1.1,0.3s-0.7,0.4-1.1,0.8l-1.1-1.4c0.5-0.4,0.9-0.7,1.2-0.9
			s0.7-0.3,1.1-0.4c0.4-0.1,0.8-0.1,1.3-0.1c0.6,0,1.2,0.1,1.7,0.3s0.8,0.5,1.1,1s0.4,0.9,0.4,1.4c0,0.5-0.1,0.9-0.2,1.3
			c-0.2,0.4-0.4,0.8-0.8,1.2c-0.3,0.4-0.9,1-1.8,1.8l-1.3,1.2v0.1h4.4V243z"/>
		<path class="st1" d="M193.1,238c0,1.7-0.3,3-0.9,3.9c-0.6,0.8-1.5,1.3-2.6,1.3c-1.2,0-2-0.4-2.6-1.3c-0.6-0.9-0.9-2.1-0.9-3.8
			c0-1.8,0.3-3.1,0.9-3.9c0.6-0.8,1.4-1.3,2.6-1.3c1.2,0,2,0.4,2.6,1.3C192.8,235,193.1,236.3,193.1,238z M188.2,238
			c0,1.2,0.1,2.1,0.3,2.6c0.2,0.5,0.6,0.8,1.1,0.8c0.5,0,0.8-0.3,1.1-0.8s0.3-1.4,0.3-2.6c0-1.2-0.1-2.1-0.3-2.6
			c-0.2-0.5-0.6-0.8-1.1-0.8c-0.5,0-0.9,0.3-1.1,0.8C188.3,235.8,188.2,236.7,188.2,238z"/>
		<path class="st1" d="M199,243h-2.1v-5.8l0-1l0-1c-0.4,0.4-0.6,0.6-0.7,0.7l-1.1,0.9l-1-1.3l3.2-2.6h1.7V243z"/>
		<path class="st1" d="M201.3,238.7c0-2,0.4-3.5,1.3-4.4c0.8-1,2.1-1.4,3.8-1.4c0.6,0,1,0,1.3,0.1v1.7c-0.4-0.1-0.8-0.1-1.2-0.1
			c-0.7,0-1.3,0.1-1.8,0.3c-0.5,0.2-0.8,0.5-1,1s-0.4,1-0.4,1.8h0.1c0.5-0.8,1.2-1.2,2.2-1.2c0.9,0,1.6,0.3,2.1,0.8s0.8,1.3,0.8,2.3
			c0,1.1-0.3,1.9-0.9,2.5c-0.6,0.6-1.4,0.9-2.5,0.9c-0.7,0-1.4-0.2-1.9-0.5c-0.5-0.3-1-0.8-1.3-1.5
			C201.5,240.4,201.3,239.6,201.3,238.7z M205,241.4c0.5,0,0.8-0.2,1-0.5c0.2-0.3,0.4-0.7,0.4-1.3c0-0.5-0.1-0.9-0.3-1.2
			c-0.2-0.3-0.6-0.4-1-0.4c-0.4,0-0.8,0.1-1.1,0.4c-0.3,0.3-0.5,0.6-0.5,1c0,0.5,0.1,1,0.4,1.4C204.2,241.2,204.5,241.4,205,241.4z"
			/>
		<path class="st1" d="M212.7,239.1c0,1.2-0.2,2.3-0.5,3.3c-0.4,1-0.9,1.9-1.5,2.7h-1.7c0.6-0.8,1.1-1.8,1.4-2.8
			c0.3-1,0.5-2.1,0.5-3.2c0-1.1-0.2-2.2-0.5-3.2s-0.8-2-1.5-2.9h1.7c0.7,0.8,1.2,1.7,1.5,2.8C212.5,236.8,212.7,237.9,212.7,239.1z"
			/>
	</g>
	<g>
		<path class="st1" d="M153.7,262.5c0,1.1-0.3,1.9-1,2.5c-0.7,0.6-1.6,0.9-2.9,0.9h-0.9v3.6h-2.1v-10h3.2c1.2,0,2.1,0.3,2.8,0.8
			C153.4,260.7,153.7,261.4,153.7,262.5z M148.9,264.1h0.7c0.7,0,1.1-0.1,1.5-0.4c0.3-0.3,0.5-0.6,0.5-1.1c0-0.5-0.1-0.9-0.4-1.1
			c-0.3-0.2-0.7-0.4-1.3-0.4h-1V264.1z"/>
		<path class="st1" d="M163.4,259.4v6.5c0,0.7-0.2,1.4-0.5,1.9c-0.3,0.6-0.8,1-1.4,1.3s-1.4,0.4-2.2,0.4c-1.3,0-2.3-0.3-3-1
			c-0.7-0.7-1.1-1.6-1.1-2.7v-6.4h2.1v6.1c0,0.8,0.2,1.3,0.5,1.7s0.8,0.5,1.5,0.5c0.7,0,1.2-0.2,1.5-0.5c0.3-0.4,0.5-0.9,0.5-1.7
			v-6.1H163.4z"/>
		<path class="st1" d="M171.2,269.4h-5.8v-10h5.8v1.7h-3.6v2.2h3.4v1.7h-3.4v2.6h3.6V269.4z"/>
		<path class="st1" d="M175.1,265.5v3.8h-2.1v-10h2.9c1.4,0,2.4,0.2,3,0.7c0.7,0.5,1,1.2,1,2.3c0,0.6-0.2,1.1-0.5,1.6
			c-0.3,0.5-0.8,0.8-1.4,1.1c1.5,2.2,2.5,3.7,2.9,4.4h-2.4l-2.4-3.8H175.1z M175.1,263.8h0.7c0.7,0,1.2-0.1,1.5-0.3s0.5-0.6,0.5-1.1
			c0-0.5-0.2-0.8-0.5-1c-0.3-0.2-0.8-0.3-1.5-0.3h-0.6V263.8z"/>
		<path class="st1" d="M185.7,269.4h-2.1v-8.2h-2.7v-1.8h7.5v1.8h-2.7V269.4z"/>
		<path class="st1" d="M198.7,264.3c0,1.7-0.4,2.9-1.2,3.8s-2,1.3-3.5,1.3s-2.7-0.4-3.5-1.3s-1.2-2.2-1.2-3.8s0.4-2.9,1.2-3.8
			c0.8-0.9,2-1.3,3.5-1.3s2.7,0.4,3.5,1.3C198.3,261.4,198.7,262.7,198.7,264.3z M191.4,264.3c0,1.1,0.2,2,0.6,2.5s1.1,0.8,1.9,0.8
			c1.7,0,2.5-1.1,2.5-3.4c0-2.3-0.8-3.4-2.5-3.4c-0.8,0-1.5,0.3-1.9,0.9C191.6,262.4,191.4,263.2,191.4,264.3z"/>
		<path class="st1" d="M206.3,266.6c0,0.9-0.3,1.6-1,2.1c-0.7,0.5-1.6,0.8-2.7,0.8c-1.1,0-2-0.2-2.8-0.6v-2c0.7,0.3,1.2,0.5,1.7,0.6
			c0.5,0.1,0.9,0.2,1.3,0.2c0.5,0,0.8-0.1,1.1-0.3c0.2-0.2,0.4-0.4,0.4-0.8c0-0.2-0.1-0.4-0.2-0.5c-0.1-0.2-0.3-0.3-0.5-0.4
			c-0.2-0.1-0.6-0.4-1.3-0.7c-0.6-0.3-1.1-0.6-1.4-0.8s-0.5-0.6-0.7-0.9s-0.3-0.8-0.3-1.2c0-0.9,0.3-1.6,0.9-2.1
			c0.6-0.5,1.4-0.8,2.5-0.8c0.5,0,1,0.1,1.5,0.2c0.5,0.1,1,0.3,1.5,0.5l-0.7,1.6c-0.5-0.2-1-0.4-1.3-0.5c-0.3-0.1-0.7-0.1-1-0.1
			c-0.4,0-0.7,0.1-0.9,0.3s-0.3,0.4-0.3,0.7c0,0.2,0,0.3,0.1,0.5c0.1,0.1,0.2,0.3,0.4,0.4c0.2,0.1,0.6,0.4,1.3,0.7
			c0.9,0.4,1.6,0.9,1.9,1.3C206.1,265.4,206.3,265.9,206.3,266.6z"/>
		<path class="st1" d="M138.3,281.5c0-1.2,0.2-2.3,0.5-3.4c0.4-1.1,0.9-2,1.5-2.8h1.7c-0.6,0.9-1.1,1.8-1.5,2.9s-0.5,2.1-0.5,3.2
			c0,1.1,0.2,2.2,0.5,3.2c0.3,1,0.8,2,1.4,2.8h-1.7c-0.7-0.8-1.2-1.7-1.5-2.7S138.3,282.7,138.3,281.5z"/>
		<path class="st1" d="M147.6,285.4l-2.4-7.8h-0.1c0.1,1.6,0.1,2.7,0.1,3.2v4.6h-1.9v-10h2.9l2.4,7.6h0l2.5-7.6h2.9v10h-2v-4.7
			c0-0.2,0-0.5,0-0.8c0-0.3,0-1.1,0.1-2.3h-0.1l-2.6,7.8H147.6z"/>
		<path class="st1" d="M156.2,285.4v-10h2.1v10H156.2z"/>
		<path class="st1" d="M160.5,285.4v-10h2.1v8.2h4.1v1.8H160.5z"/>
		<path class="st1" d="M168,285.4v-10h2.1v8.2h4.1v1.8H168z"/>
		<path class="st1" d="M184.7,280.3c0,1.7-0.4,2.9-1.2,3.8s-2,1.3-3.5,1.3s-2.7-0.4-3.5-1.3s-1.2-2.2-1.2-3.8s0.4-2.9,1.2-3.8
			c0.8-0.9,2-1.3,3.5-1.3s2.7,0.4,3.5,1.3C184.3,277.4,184.7,278.7,184.7,280.3z M177.4,280.3c0,1.1,0.2,2,0.6,2.5s1.1,0.8,1.9,0.8
			c1.7,0,2.5-1.1,2.5-3.4c0-2.3-0.8-3.4-2.5-3.4c-0.8,0-1.5,0.3-1.9,0.9C177.6,278.4,177.4,279.2,177.4,280.3z"/>
		<path class="st1" d="M195.3,285.4h-2.7l-4.3-7.6h-0.1c0.1,1.3,0.1,2.3,0.1,2.9v4.7h-1.9v-10h2.7l4.3,7.5h0
			c-0.1-1.3-0.1-2.2-0.1-2.8v-4.7h1.9V285.4z"/>
		<path class="st1" d="M203.2,285.4h-5.8v-10h5.8v1.7h-3.6v2.2h3.4v1.7h-3.4v2.6h3.6V285.4z"/>
		<path class="st1" d="M210.8,282.6c0,0.9-0.3,1.6-1,2.1c-0.7,0.5-1.6,0.8-2.7,0.8c-1.1,0-2-0.2-2.8-0.6v-2c0.7,0.3,1.2,0.5,1.7,0.6
			c0.5,0.1,0.9,0.2,1.3,0.2c0.5,0,0.8-0.1,1.1-0.3c0.2-0.2,0.4-0.4,0.4-0.8c0-0.2-0.1-0.4-0.2-0.5c-0.1-0.2-0.3-0.3-0.5-0.4
			c-0.2-0.1-0.6-0.4-1.3-0.7c-0.6-0.3-1.1-0.6-1.4-0.8s-0.5-0.6-0.7-0.9s-0.3-0.8-0.3-1.2c0-0.9,0.3-1.6,0.9-2.1
			c0.6-0.5,1.4-0.8,2.5-0.8c0.5,0,1,0.1,1.5,0.2c0.5,0.1,1,0.3,1.5,0.5l-0.7,1.6c-0.5-0.2-1-0.4-1.3-0.5c-0.3-0.1-0.7-0.1-1-0.1
			c-0.4,0-0.7,0.1-0.9,0.3s-0.3,0.4-0.3,0.7c0,0.2,0,0.3,0.1,0.5c0.1,0.1,0.2,0.3,0.4,0.4c0.2,0.1,0.6,0.4,1.3,0.7
			c0.9,0.4,1.6,0.9,1.9,1.3C210.6,281.4,210.8,281.9,210.8,282.6z"/>
		<path class="st1" d="M146.6,293c-0.8,0-1.4,0.3-1.9,0.9c-0.4,0.6-0.7,1.4-0.7,2.5c0,2.2,0.8,3.3,2.5,3.3c0.7,0,1.6-0.2,2.5-0.5
			v1.8c-0.8,0.3-1.7,0.5-2.7,0.5c-1.5,0-2.6-0.4-3.3-1.3c-0.8-0.9-1.2-2.1-1.2-3.8c0-1,0.2-1.9,0.6-2.7c0.4-0.8,0.9-1.4,1.6-1.8
			c0.7-0.4,1.5-0.6,2.5-0.6c1,0,1.9,0.2,2.9,0.7l-0.7,1.7c-0.4-0.2-0.8-0.3-1.1-0.5S147,293,146.6,293z"/>
		<path class="st1" d="M160,296.3c0,1.7-0.4,2.9-1.2,3.8s-2,1.3-3.5,1.3s-2.7-0.4-3.5-1.3s-1.2-2.2-1.2-3.8s0.4-2.9,1.2-3.8
			c0.8-0.9,2-1.3,3.5-1.3s2.7,0.4,3.5,1.3C159.6,293.4,160,294.7,160,296.3z M152.7,296.3c0,1.1,0.2,2,0.6,2.5s1.1,0.8,1.9,0.8
			c1.7,0,2.5-1.1,2.5-3.4c0-2.3-0.8-3.4-2.5-3.4c-0.8,0-1.5,0.3-1.9,0.9C152.9,294.4,152.7,295.2,152.7,296.3z"/>
		<path class="st1" d="M168.6,294.5c0,1.1-0.3,1.9-1,2.5c-0.7,0.6-1.6,0.9-2.9,0.9h-0.9v3.6h-2.1v-10h3.2c1.2,0,2.1,0.3,2.8,0.8
			C168.3,292.7,168.6,293.4,168.6,294.5z M163.9,296.1h0.7c0.7,0,1.1-0.1,1.5-0.4c0.3-0.3,0.5-0.6,0.5-1.1c0-0.5-0.1-0.9-0.4-1.1
			c-0.3-0.2-0.7-0.4-1.3-0.4h-1V296.1z"/>
		<path class="st1" d="M172.1,299.9c-0.2,0.9-0.6,2-1.2,3.3h-1.5c0.3-1.2,0.5-2.4,0.7-3.4h1.9L172.1,299.9z"/>
		<path class="st1" d="M183.5,301.4h-7v-1.5l2.5-2.5c0.7-0.8,1.2-1.3,1.5-1.6c0.2-0.3,0.4-0.6,0.5-0.8s0.2-0.5,0.2-0.8
			c0-0.4-0.1-0.7-0.3-0.9c-0.2-0.2-0.5-0.3-0.9-0.3c-0.4,0-0.8,0.1-1.1,0.3s-0.7,0.4-1.1,0.8l-1.1-1.4c0.5-0.4,0.9-0.7,1.2-0.9
			s0.7-0.3,1.1-0.4c0.4-0.1,0.8-0.1,1.3-0.1c0.6,0,1.2,0.1,1.7,0.3s0.8,0.5,1.1,1s0.4,0.9,0.4,1.4c0,0.5-0.1,0.9-0.2,1.3
			c-0.2,0.4-0.4,0.8-0.8,1.2c-0.3,0.4-0.9,1-1.8,1.8l-1.3,1.2v0.1h4.4V301.4z"/>
		<path class="st1" d="M191.1,296.4c0,1.7-0.3,3-0.9,3.9c-0.6,0.8-1.5,1.3-2.6,1.3c-1.2,0-2-0.4-2.6-1.3c-0.6-0.9-0.9-2.1-0.9-3.8
			c0-1.8,0.3-3.1,0.9-3.9c0.6-0.8,1.4-1.3,2.6-1.3c1.2,0,2,0.4,2.6,1.3C190.8,293.4,191.1,294.7,191.1,296.4z M186.2,296.4
			c0,1.2,0.1,2.1,0.3,2.6c0.2,0.5,0.6,0.8,1.1,0.8c0.5,0,0.8-0.3,1.1-0.8s0.3-1.4,0.3-2.6c0-1.2-0.1-2.1-0.3-2.6
			c-0.2-0.5-0.6-0.8-1.1-0.8c-0.5,0-0.9,0.3-1.1,0.8C186.3,294.2,186.2,295.1,186.2,296.4z"/>
		<path class="st1" d="M197,301.4h-2.1v-5.8l0-1l0-1c-0.4,0.4-0.6,0.6-0.7,0.7l-1.1,0.9l-1-1.3l3.2-2.6h1.7V301.4z"/>
		<path class="st1" d="M199.3,297.1c0-2,0.4-3.5,1.3-4.4c0.8-1,2.1-1.4,3.8-1.4c0.6,0,1,0,1.3,0.1v1.7c-0.4-0.1-0.8-0.1-1.2-0.1
			c-0.7,0-1.3,0.1-1.8,0.3c-0.5,0.2-0.8,0.5-1,1s-0.4,1-0.4,1.8h0.1c0.5-0.8,1.2-1.2,2.2-1.2c0.9,0,1.6,0.3,2.1,0.8s0.8,1.3,0.8,2.3
			c0,1.1-0.3,1.9-0.9,2.5c-0.6,0.6-1.4,0.9-2.5,0.9c-0.7,0-1.4-0.2-1.9-0.5c-0.5-0.3-1-0.8-1.3-1.5
			C199.5,298.8,199.3,298,199.3,297.1z M203,299.8c0.5,0,0.8-0.2,1-0.5c0.2-0.3,0.4-0.7,0.4-1.3c0-0.5-0.1-0.9-0.3-1.2
			c-0.2-0.3-0.6-0.4-1-0.4c-0.4,0-0.8,0.1-1.1,0.4c-0.3,0.3-0.5,0.6-0.5,1c0,0.5,0.1,1,0.4,1.4C202.2,299.6,202.5,299.8,203,299.8z"
			/>
		<path class="st1" d="M210.7,297.5c0,1.2-0.2,2.3-0.5,3.3c-0.4,1-0.9,1.9-1.5,2.7h-1.7c0.6-0.8,1.1-1.8,1.4-2.8
			c0.3-1,0.5-2.1,0.5-3.2c0-1.1-0.2-2.2-0.5-3.2s-0.8-2-1.5-2.9h1.7c0.7,0.8,1.2,1.7,1.5,2.8C210.5,295.2,210.7,296.3,210.7,297.5z"
			/>
	</g>
	<g>
		<path class="st1" d="M133.9,345.4c0,0.9-0.3,1.6-1,2.1c-0.7,0.5-1.6,0.8-2.7,0.8c-1.1,0-2-0.2-2.8-0.6v-2c0.7,0.3,1.2,0.5,1.7,0.6
			c0.5,0.1,0.9,0.2,1.3,0.2c0.5,0,0.8-0.1,1.1-0.3c0.2-0.2,0.4-0.4,0.4-0.8c0-0.2-0.1-0.4-0.2-0.5c-0.1-0.2-0.3-0.3-0.5-0.4
			c-0.2-0.1-0.6-0.4-1.3-0.7c-0.6-0.3-1.1-0.6-1.4-0.8c-0.3-0.3-0.5-0.6-0.7-0.9c-0.2-0.3-0.3-0.8-0.3-1.2c0-0.9,0.3-1.6,0.9-2.1
			c0.6-0.5,1.4-0.8,2.5-0.8c0.5,0,1,0.1,1.5,0.2c0.5,0.1,1,0.3,1.5,0.5l-0.7,1.6c-0.5-0.2-1-0.4-1.3-0.5c-0.3-0.1-0.7-0.1-1-0.1
			c-0.4,0-0.7,0.1-0.9,0.3c-0.2,0.2-0.3,0.4-0.3,0.7c0,0.2,0,0.3,0.1,0.5c0.1,0.1,0.2,0.3,0.4,0.4c0.2,0.1,0.6,0.4,1.3,0.7
			c0.9,0.4,1.6,0.9,1.9,1.3C133.7,344.2,133.9,344.7,133.9,345.4z"/>
		<path class="st1" d="M143.5,338.2v6.5c0,0.7-0.2,1.4-0.5,1.9c-0.3,0.6-0.8,1-1.4,1.3c-0.6,0.3-1.4,0.4-2.2,0.4c-1.3,0-2.3-0.3-3-1
			s-1.1-1.6-1.1-2.7v-6.4h2.1v6.1c0,0.8,0.2,1.3,0.5,1.7c0.3,0.4,0.8,0.5,1.5,0.5c0.7,0,1.2-0.2,1.5-0.5c0.3-0.4,0.5-0.9,0.5-1.7
			v-6.1H143.5z"/>
		<path class="st1" d="M145.6,338.2h3.1c1.4,0,2.4,0.2,3.1,0.6c0.6,0.4,1,1,1,1.9c0,0.6-0.1,1.1-0.4,1.5c-0.3,0.4-0.7,0.6-1.1,0.7
			v0.1c0.6,0.1,1.1,0.4,1.4,0.8c0.3,0.4,0.4,0.9,0.4,1.5c0,0.9-0.3,1.6-1,2.1c-0.7,0.5-1.6,0.8-2.7,0.8h-3.7V338.2z M147.7,342.1
			h1.2c0.6,0,1-0.1,1.2-0.3c0.3-0.2,0.4-0.5,0.4-0.9c0-0.4-0.1-0.7-0.4-0.8c-0.3-0.2-0.7-0.2-1.3-0.2h-1.1V342.1z M147.7,343.8v2.6
			h1.4c0.6,0,1-0.1,1.3-0.3c0.3-0.2,0.4-0.6,0.4-1c0-0.8-0.6-1.2-1.8-1.2H147.7z"/>
		<path class="st1" d="M163.5,348.2h-2.7l-4.3-7.6h-0.1c0.1,1.3,0.1,2.3,0.1,2.9v4.7h-1.9v-10h2.7l4.3,7.5h0
			c-0.1-1.3-0.1-2.2-0.1-2.8v-4.7h1.9V348.2z"/>
		<path class="st1" d="M171.8,348.2l-0.7-2.4h-3.6l-0.7,2.4h-2.3l3.5-10h2.6l3.5,10H171.8z M170.6,344c-0.7-2.2-1-3.4-1.1-3.7
			c-0.1-0.3-0.1-0.5-0.2-0.7c-0.2,0.6-0.6,2-1.3,4.3H170.6z"/>
		<path class="st1" d="M179.2,339.8c-0.8,0-1.4,0.3-1.9,0.9c-0.4,0.6-0.7,1.4-0.7,2.5c0,2.2,0.8,3.3,2.5,3.3c0.7,0,1.6-0.2,2.5-0.5
			v1.8c-0.8,0.3-1.7,0.5-2.7,0.5c-1.5,0-2.6-0.4-3.3-1.3c-0.8-0.9-1.2-2.1-1.2-3.8c0-1,0.2-1.9,0.6-2.7s0.9-1.4,1.6-1.8
			c0.7-0.4,1.5-0.6,2.5-0.6c1,0,1.9,0.2,2.9,0.7l-0.7,1.7c-0.4-0.2-0.8-0.3-1.1-0.5C180,339.8,179.6,339.8,179.2,339.8z"/>
		<path class="st1" d="M183.6,348.2v-10h2.1v10H183.6z"/>
		<path class="st1" d="M196.9,343.1c0,1.7-0.4,2.9-1.2,3.8s-2,1.3-3.5,1.3s-2.7-0.4-3.5-1.3s-1.2-2.2-1.2-3.8c0-1.7,0.4-2.9,1.2-3.8
			c0.8-0.9,2-1.3,3.5-1.3s2.7,0.4,3.5,1.3C196.5,340.2,196.9,341.5,196.9,343.1z M189.6,343.1c0,1.1,0.2,2,0.6,2.5
			c0.4,0.6,1.1,0.8,1.9,0.8c1.7,0,2.5-1.1,2.5-3.4c0-2.2-0.8-3.4-2.5-3.4c-0.8,0-1.5,0.3-1.9,0.9C189.8,341.2,189.6,342,189.6,343.1
			z"/>
		<path class="st1" d="M207.5,348.2h-2.7l-4.3-7.6h-0.1c0.1,1.3,0.1,2.3,0.1,2.9v4.7h-1.9v-10h2.7l4.3,7.5h0
			c-0.1-1.3-0.1-2.2-0.1-2.8v-4.7h1.9V348.2z"/>
		<path class="st1" d="M215.8,348.2l-0.7-2.4h-3.6l-0.7,2.4h-2.3l3.5-10h2.6l3.5,10H215.8z M214.6,344c-0.7-2.2-1-3.4-1.1-3.7
			c-0.1-0.3-0.1-0.5-0.2-0.7c-0.2,0.6-0.6,2-1.3,4.3H214.6z"/>
		<path class="st1" d="M219,348.2v-10h2.1v8.2h4.1v1.8H219z"/>
	</g>
	<path class="st2" d="M380.2,143.5V69.7c0-4.3-2.3-8.2-6-10.4l-63-36.8c-3.7-2.2-8.4-2.2-12.1,0l-63,36.8c-3.7,2.2-6,6.1-6,10.4
		v73.8c0,4.3,2.3,8.2,6,10.4l63,36.8c3.7,2.2,8.4,2.2,12.1,0l63-36.8C377.9,151.7,380.2,147.8,380.2,143.5z"/>
	<g>
		<path class="st3" d="M335.6,49.8l-4.8-4.2h0h-6.5c0,0,0,0,0,0l-3.1,3.2c0,0,0,0.1,0,0.1l2.4,4.1c0,0,0,0.1,0,0.1L294.5,70
			c-1,0.6-1.8,1.6-2,2.7c-0.3,1.2-0.1,2.4,0.5,3.4c0.6,1,1.5,1.7,2.6,2c0,0,0,0,0,0.1v13.6c0,0,0,0.1-0.1,0.1h-3.7h0l-18.7,15.3l0,0
			v6.4H271c-0.5,0-1,0.4-1,1c0,0.5,0.4,0.9,0.9,1c0,0,0,0,0,0h65l0,0h0c0.5,0,1-0.4,1-1c0-0.5-0.4-1-1-1h-10.1v-3.6l0,0l-4.6-37.2
			c0,0,0-0.1-0.1-0.1h-2c0,0-0.1,0-0.1-0.1v-6.9c0,0,0,0,0-0.1l8.7-5.1c0,0,0.1,0,0.1,0l6.3,10.9c0,0,0,0,0.1,0h3.7c0,0,0.1,0,0.1,0
			l2-6.9c0.4-1.3,0.5-2.6,0.5-4C340.4,56.5,338.7,52.5,335.6,49.8z M275.4,108.3C275.4,108.2,275.4,108.2,275.4,108.3l17.2-14.1h0
			h10.8c0,0,0.1,0,0.1,0.1v4.4c0,0,0,0.1-0.1,0.1h-11.1c0,0-0.1,0-0.1,0.1v14.9h-4.5v-5.8c0,0,0-0.1-0.1-0.1H281c0,0-0.1,0-0.1,0.1
			v5.8h-5.6V108.3z M297.8,91.8V78.1c0,0,0-0.1,0-0.1c0.4-0.1,0.7-0.2,1.1-0.4L300,77v14.8c0,0,0,0.1-0.1,0.1L297.8,91.8
			C297.8,91.9,297.8,91.9,297.8,91.8z M285.5,113.6h-2.2V110c0,0,0-0.1,0.1-0.1h2.1c0,0,0.1,0,0.1,0.1
			C285.5,110,285.5,113.6,285.5,113.6z M305.7,113.6h-11.2V101c0,0,0-0.1,0.1-0.1h11.1c0,0,0.1,0,0.1,0.1V113.6L305.7,113.6z
			 M314.7,113.6h-2.2V110l0,0l2.1-17.3c0-0.1,0.1-0.1,0.1,0L314.7,113.6L314.7,113.6z M316.9,113.6v-4.7c0,0,0-0.1,0.1-0.1h2.1
			c0,0,0.1,0,0.1,0.1v4.7H316.9z M316.9,88.5h2.1c0,0,0.1,0,0.1,0.1V93c0,0,0,0.1-0.1,0.1h-2.1c0,0-0.1,0-0.1-0.1L316.9,88.5
			C316.9,88.5,316.9,88.5,316.9,88.5z M316.9,86.2v-4.4c0,0,0-0.1,0.1-0.1h2.1c0,0,0.1,0,0.1,0.1v4.4c0,0,0,0.1-0.1,0.1L316.9,86.2
			C316.9,86.2,316.9,86.2,316.9,86.2z M316.9,95.3h2.1c0,0,0.1,0,0.1,0.1v4.4c0,0,0,0.1-0.1,0.1h-2.1c0,0-0.1,0-0.1-0.1L316.9,95.3
			C316.9,95.3,316.9,95.3,316.9,95.3z M316.9,102h2.1c0,0,0.1,0,0.1,0.1v4.4c0,0,0,0.1-0.1,0.1h-2.1c0,0-0.1,0-0.1-0.1L316.9,102
			C316.9,102.1,316.9,102,316.9,102z M319.1,79.4C319.1,79.4,319.1,79.5,319.1,79.4l-2.2,0.1c0,0-0.1,0-0.1-0.1V75
			c0,0,0-0.1,0.1-0.1h2.1c0,0,0.1,0,0.1,0.1V79.4z M316.9,72.6C316.9,72.6,316.9,72.7,316.9,72.6l-2.1,0.1c0,0-0.1,0-0.1,0.1
			l-4.6,37.1l0,0v3.8h-2.2V98.7c0,0,0-0.1-0.1-0.1h-2.1c0,0-0.1,0-0.1-0.1v-6.7c0,0,0-0.1-0.1-0.1h-3.3c0,0-0.1,0-0.1-0.1V75.7
			c0,0,0,0,0-0.1l14.5-8.6c0,0,0.1,0,0.1,0.1V72.6L316.9,72.6L316.9,72.6z M320.8,92.7l2.4,17.4l0,0v3.6h-2.1h-0.4v-21
			C320.7,92.7,320.8,92.7,320.8,92.7z M326.7,58.7l-28.7,17c-1.1,0.7-2.6,0.3-3.2-0.8c-0.2-0.5-0.3-1-0.1-1.5c0.1-0.6,0.5-1,1-1.3
			l28.9-17.1c0,0,0.1,0,0.1,0L326.7,58.7C326.8,58.6,326.7,58.6,326.7,58.7z M337.8,64l-1.5,5.3h-0.8l-11.6-20.1c0,0,0-0.1,0-0.1
			l1.3-1.3l0,0h4.7h0l4.1,3.6c2.6,2.3,4.1,5.7,4.1,9.2C338.2,61.8,338.1,62.9,337.8,64z"/>
		<path class="st4" d="M286.6,94.1c1.8,0,3.4-1.5,3.4-3.4c0-1.9-1.5-3.4-3.4-3.4c-1.8,0-3.4,1.5-3.4,3.4
			C283.2,92.6,284.7,94.1,286.6,94.1z M286.6,89.6c0.6,0,1.1,0.5,1.1,1.1c0,0.6-0.5,1.1-1.1,1.1c-0.6,0-1.1-0.5-1.1-1.1
			C285.5,90.1,286,89.6,286.6,89.6z"/>
		<path class="st5" d="M275.4,103.2c1.8,0,3.4-1.5,3.4-3.4c0-1.9-1.5-3.4-3.4-3.4c-1.9,0-3.4,1.5-3.4,3.4S273.5,103.2,275.4,103.2z
			 M275.4,98.7c0.6,0,1.1,0.5,1.1,1.1c0,0.6-0.5,1.1-1.1,1.1c-0.6,0-1.1-0.5-1.1-1.1C274.2,99.2,274.7,98.7,275.4,98.7z"/>
		<rect x="301.2" y="103.2" class="st3" width="2.2" height="2.2"/>
		<rect x="296.7" y="103.2" class="st3" width="2.2" height="2.2"/>
		<rect x="304.6" y="76.1" class="st3" width="2.2" height="2.2"/>
		<rect x="304.6" y="80.6" class="st3" width="2.2" height="2.2"/>
	</g>
	<g>
		<path class="st1" d="M271.2,134.5c0,1.4-0.4,2.4-1.3,3.2s-2.1,1.1-3.7,1.1h-1.2v4.6h-2.7v-12.8h4.1c1.6,0,2.7,0.3,3.6,1
			C270.8,132.2,271.2,133.2,271.2,134.5z M265.1,136.6h0.9c0.8,0,1.5-0.2,1.9-0.5s0.6-0.8,0.6-1.4c0-0.6-0.2-1.1-0.5-1.4
			c-0.3-0.3-0.9-0.5-1.6-0.5h-1.2V136.6z"/>
		<path class="st1" d="M280.6,143.4h-7.4v-12.8h7.4v2.2h-4.7v2.8h4.4v2.2h-4.4v3.3h4.7V143.4z"/>
		<path class="st1" d="M287.8,143.4h-2.7v-10.6h-3.5v-2.3h9.7v2.3h-3.5V143.4z"/>
		<path class="st1" d="M295.5,138.4v4.9h-2.7v-12.8h3.7c1.7,0,3,0.3,3.9,1c0.8,0.6,1.3,1.6,1.3,2.9c0,0.8-0.2,1.4-0.6,2
			c-0.4,0.6-1,1-1.8,1.4c1.9,2.9,3.2,4.8,3.8,5.6h-3l-3.1-4.9H295.5z M295.5,136.2h0.9c0.9,0,1.5-0.1,1.9-0.4s0.6-0.7,0.6-1.4
			c0-0.6-0.2-1-0.6-1.3c-0.4-0.3-1.1-0.4-1.9-0.4h-0.8V136.2z"/>
		<path class="st1" d="M315.9,136.9c0,2.1-0.5,3.8-1.6,4.9s-2.6,1.7-4.5,1.7s-3.5-0.6-4.5-1.7s-1.6-2.8-1.6-4.9s0.5-3.8,1.6-4.9
			c1.1-1.1,2.6-1.7,4.5-1.7s3.5,0.6,4.5,1.7C315.4,133.2,315.9,134.8,315.9,136.9z M306.5,136.9c0,1.4,0.3,2.5,0.8,3.2
			s1.4,1.1,2.4,1.1c2.2,0,3.3-1.4,3.3-4.3c0-2.9-1.1-4.3-3.2-4.3c-1.1,0-1.9,0.4-2.5,1.1C306.8,134.4,306.5,135.5,306.5,136.9z"/>
		<path class="st1" d="M318.1,143.4v-12.8h2.7v10.6h5.2v2.2H318.1z"/>
		<path class="st1" d="M335.2,143.4h-7.4v-12.8h7.4v2.2h-4.7v2.8h4.4v2.2h-4.4v3.3h4.7V143.4z"/>
		<path class="st1" d="M349.1,136.9c0,2.1-0.5,3.8-1.6,4.9s-2.6,1.7-4.5,1.7s-3.5-0.6-4.5-1.7s-1.6-2.8-1.6-4.9s0.5-3.8,1.6-4.9
			c1.1-1.1,2.6-1.7,4.5-1.7s3.5,0.6,4.5,1.7C348.6,133.2,349.1,134.8,349.1,136.9z M339.7,136.9c0,1.4,0.3,2.5,0.8,3.2
			s1.4,1.1,2.4,1.1c2.2,0,3.3-1.4,3.3-4.3c0-2.9-1.1-4.3-3.2-4.3c-1.1,0-1.9,0.4-2.5,1.1C340,134.4,339.7,135.5,339.7,136.9z"/>
		<path class="st1" d="M281.1,152.6c-1,0-1.8,0.4-2.4,1.2c-0.6,0.8-0.8,1.8-0.8,3.2c0,2.9,1.1,4.3,3.2,4.3c0.9,0,2-0.2,3.3-0.7v2.3
			c-1.1,0.4-2.2,0.7-3.5,0.7c-1.9,0-3.3-0.6-4.3-1.7c-1-1.1-1.5-2.8-1.5-4.9c0-1.3,0.2-2.5,0.7-3.5s1.2-1.8,2.1-2.3
			c0.9-0.5,2-0.8,3.2-0.8c1.2,0,2.5,0.3,3.8,0.9l-0.9,2.2c-0.5-0.2-1-0.4-1.5-0.6S281.6,152.6,281.1,152.6z"/>
		<path class="st1" d="M289.4,158.4v4.9h-2.7v-12.8h3.7c1.7,0,3,0.3,3.9,1c0.8,0.6,1.3,1.6,1.3,2.9c0,0.8-0.2,1.4-0.6,2
			c-0.4,0.6-1,1-1.8,1.4c1.9,2.9,3.2,4.8,3.8,5.6h-3l-3.1-4.9H289.4z M289.4,156.2h0.9c0.9,0,1.5-0.1,1.9-0.4s0.6-0.7,0.6-1.4
			c0-0.6-0.2-1-0.6-1.3c-0.4-0.3-1.1-0.4-1.9-0.4h-0.8V156.2z"/>
		<path class="st1" d="M308.6,150.5v8.3c0,0.9-0.2,1.8-0.6,2.5c-0.4,0.7-1,1.3-1.8,1.6s-1.8,0.6-2.8,0.6c-1.7,0-2.9-0.4-3.8-1.3
			s-1.4-2-1.4-3.5v-8.3h2.7v7.9c0,1,0.2,1.7,0.6,2.2s1.1,0.7,2,0.7c0.9,0,1.5-0.2,1.9-0.7c0.4-0.5,0.6-1.2,0.6-2.2v-7.8H308.6z"/>
		<path class="st1" d="M321.9,156.8c0,2.1-0.6,3.7-1.8,4.9c-1.2,1.1-2.9,1.7-5.2,1.7h-3.6v-12.8h4c2.1,0,3.7,0.6,4.9,1.7
			S321.9,154.8,321.9,156.8z M319.1,156.9c0-2.8-1.2-4.1-3.7-4.1H314v8.4h1.2C317.8,161.1,319.1,159.7,319.1,156.9z"/>
		<path class="st1" d="M335.8,156.9c0,2.1-0.5,3.8-1.6,4.9s-2.6,1.7-4.5,1.7s-3.5-0.6-4.5-1.7s-1.6-2.8-1.6-4.9s0.5-3.8,1.6-4.9
			c1.1-1.1,2.6-1.7,4.5-1.7s3.5,0.6,4.5,1.7C335.3,153.2,335.8,154.8,335.8,156.9z M326.4,156.9c0,1.4,0.3,2.5,0.8,3.2
			s1.4,1.1,2.4,1.1c2.2,0,3.3-1.4,3.3-4.3c0-2.9-1.1-4.3-3.2-4.3c-1.1,0-1.9,0.4-2.5,1.1C326.7,154.4,326.4,155.5,326.4,156.9z"/>
	</g>
	<g>
		<path class="st1" d="M278.1,223.9c0,0.8-0.3,1.5-0.9,2s-1.4,0.8-2.5,0.9v1.6h-1.1v-1.6c-1.3,0-2.4-0.2-3.3-0.7v-2.1
			c0.5,0.2,1,0.4,1.6,0.6s1.2,0.3,1.7,0.3v-2.4l-0.5-0.2c-1-0.4-1.8-0.8-2.2-1.3s-0.6-1.1-0.6-1.8c0-0.8,0.3-1.4,0.9-1.9
			s1.4-0.8,2.5-0.9v-1.2h1.1v1.2c1.2,0.1,2.3,0.3,3.2,0.7l-0.7,1.8c-0.8-0.3-1.6-0.5-2.5-0.6v2.3c1,0.4,1.7,0.7,2.2,1
			s0.7,0.6,0.9,0.9S278.1,223.5,278.1,223.9z M272.6,219.3c0,0.2,0.1,0.4,0.2,0.6s0.4,0.3,0.8,0.5v-1.8
			C272.9,218.6,272.6,218.9,272.6,219.3z M275.7,224.1c0-0.2-0.1-0.4-0.3-0.6s-0.4-0.3-0.8-0.5v1.9
			C275.4,224.9,275.7,224.6,275.7,224.1z"/>
		<path class="st1" d="M284.9,227.5h-2.4v-6.6l0-1.1l0-1.2c-0.4,0.4-0.7,0.7-0.8,0.8l-1.3,1.1l-1.2-1.5l3.7-2.9h2V227.5z"/>
		<path class="st1" d="M291.8,220.2c1.1,0,2,0.3,2.6,0.9s1,1.5,1,2.5c0,1.3-0.4,2.3-1.2,2.9s-1.9,1-3.4,1c-1.3,0-2.3-0.2-3.1-0.6
			V225c0.4,0.2,0.9,0.4,1.4,0.5s1.1,0.2,1.6,0.2c1.5,0,2.2-0.6,2.2-1.8c0-1.2-0.8-1.7-2.3-1.7c-0.3,0-0.6,0-0.9,0.1
			s-0.6,0.1-0.8,0.2l-1-0.5l0.4-5.8h6.2v2h-4.1l-0.2,2.2l0.3-0.1C291,220.3,291.4,220.2,291.8,220.2z"/>
		<path class="st1" d="M296.3,222.7c0-2.3,0.5-3.9,1.4-5s2.4-1.7,4.3-1.7c0.7,0,1.2,0,1.5,0.1v1.9c-0.5-0.1-0.9-0.2-1.4-0.2
			c-0.8,0-1.5,0.1-2,0.4s-0.9,0.6-1.2,1.1s-0.4,1.2-0.5,2.1h0.1c0.5-0.9,1.3-1.3,2.5-1.3c1,0,1.8,0.3,2.4,1s0.9,1.5,0.9,2.7
			c0,1.2-0.3,2.2-1,2.9s-1.6,1.1-2.9,1.1c-0.8,0-1.6-0.2-2.2-0.6s-1.1-1-1.5-1.7S296.3,223.7,296.3,222.7z M300.5,225.7
			c0.5,0,0.9-0.2,1.2-0.5s0.4-0.8,0.4-1.5c0-0.6-0.1-1-0.4-1.3s-0.6-0.5-1.2-0.5c-0.5,0-0.9,0.2-1.3,0.5s-0.5,0.7-0.5,1.1
			c0,0.6,0.2,1.1,0.5,1.6S300,225.7,300.5,225.7z"/>
		<path class="st1" d="M305.4,226.4c0-0.4,0.1-0.8,0.4-1s0.6-0.3,1-0.3c0.4,0,0.8,0.1,1,0.3s0.4,0.6,0.4,1c0,0.4-0.1,0.7-0.4,1
			s-0.6,0.4-1,0.4c-0.4,0-0.8-0.1-1-0.3S305.4,226.8,305.4,226.4z"/>
		<path class="st1" d="M317.2,221c0,2.2-0.5,3.9-1.4,5s-2.4,1.7-4.3,1.7c-0.7,0-1.2,0-1.5-0.1v-1.9c0.4,0.1,0.9,0.2,1.4,0.2
			c0.8,0,1.5-0.1,2-0.4s0.9-0.6,1.2-1.1s0.4-1.2,0.5-2.1h-0.1c-0.3,0.5-0.7,0.8-1,1s-0.9,0.3-1.5,0.3c-1,0-1.8-0.3-2.4-1
			s-0.9-1.5-0.9-2.7c0-1.2,0.3-2.2,1-2.9s1.6-1.1,2.8-1.1c0.8,0,1.6,0.2,2.2,0.6s1.1,1,1.5,1.7S317.2,219.9,317.2,221z M313.1,217.9
			c-0.5,0-0.9,0.2-1.2,0.5s-0.4,0.8-0.4,1.5c0,0.6,0.1,1,0.4,1.3s0.6,0.5,1.2,0.5c0.5,0,0.9-0.2,1.3-0.5s0.5-0.7,0.5-1.1
			c0-0.6-0.2-1.1-0.5-1.6S313.6,217.9,313.1,217.9z"/>
		<path class="st1" d="M319.2,227.5l4.3-9.4h-5.6v-2h8.2v1.5l-4.3,9.9H319.2z"/>
		<path class="st1" d="M330.9,220.2c1.1,0,2,0.3,2.6,0.9s1,1.5,1,2.5c0,1.3-0.4,2.3-1.2,2.9s-1.9,1-3.4,1c-1.3,0-2.3-0.2-3.1-0.6
			V225c0.4,0.2,0.9,0.4,1.4,0.5s1.1,0.2,1.6,0.2c1.5,0,2.2-0.6,2.2-1.8c0-1.2-0.8-1.7-2.3-1.7c-0.3,0-0.6,0-0.9,0.1
			s-0.6,0.1-0.8,0.2l-1-0.5l0.4-5.8h6.2v2h-4.1l-0.2,2.2l0.3-0.1C330.1,220.3,330.5,220.2,330.9,220.2z"/>
	</g>
	<g>
		<path class="st1" d="M282.5,282.3c0,0.8-0.3,1.5-0.9,2s-1.4,0.8-2.5,0.9v1.6H278v-1.6c-1.3,0-2.4-0.2-3.3-0.7v-2.1
			c0.5,0.2,1,0.4,1.6,0.6s1.2,0.3,1.7,0.3V281l-0.5-0.2c-1-0.4-1.8-0.8-2.2-1.3s-0.6-1.1-0.6-1.8c0-0.8,0.3-1.4,0.9-1.9
			s1.4-0.8,2.5-0.9v-1.2h1.1v1.2c1.2,0.1,2.3,0.3,3.2,0.7l-0.7,1.8c-0.8-0.3-1.6-0.5-2.5-0.6v2.3c1,0.4,1.7,0.7,2.2,1
			s0.7,0.6,0.9,0.9S282.5,281.9,282.5,282.3z M277,277.7c0,0.2,0.1,0.4,0.2,0.6s0.4,0.3,0.8,0.5v-1.8C277.3,277,277,277.3,277,277.7
			z M280.1,282.5c0-0.2-0.1-0.4-0.3-0.6s-0.4-0.3-0.8-0.5v1.9C279.8,283.3,280.1,283,280.1,282.5z"/>
		<path class="st1" d="M289.3,285.9h-2.4v-6.6l0-1.1l0-1.2c-0.4,0.4-0.7,0.7-0.8,0.8l-1.3,1.1l-1.2-1.5l3.7-2.9h2V285.9z"/>
		<path class="st1" d="M298,285.9h-2.4v-6.6l0-1.1l0-1.2c-0.4,0.4-0.7,0.7-0.8,0.8l-1.3,1.1l-1.2-1.5l3.7-2.9h2V285.9z"/>
		<path class="st1" d="M301,284.8c0-0.4,0.1-0.8,0.4-1s0.6-0.3,1-0.3c0.4,0,0.8,0.1,1,0.3s0.4,0.6,0.4,1c0,0.4-0.1,0.7-0.4,1
			s-0.6,0.4-1,0.4c-0.4,0-0.8-0.1-1-0.3S301,285.2,301,284.8z"/>
		<path class="st1" d="M308.9,274.3c1.1,0,2,0.2,2.6,0.7s1,1.2,1,2c0,0.6-0.2,1.1-0.5,1.6s-0.8,0.9-1.6,1.2c0.9,0.5,1.5,0.9,1.8,1.4
			s0.6,1,0.6,1.6c0,0.9-0.4,1.7-1.1,2.3s-1.7,0.9-2.9,0.9c-1.2,0-2.2-0.3-2.9-0.8s-1.1-1.3-1.1-2.3c0-0.7,0.2-1.2,0.5-1.7
			s0.9-1,1.7-1.3c-0.7-0.4-1.1-0.9-1.4-1.3s-0.4-1-0.4-1.5c0-0.8,0.3-1.5,1-2S307.8,274.3,308.9,274.3z M307.1,282.9
			c0,0.4,0.2,0.8,0.5,1s0.7,0.4,1.3,0.4c0.6,0,1-0.1,1.3-0.4s0.4-0.6,0.4-1c0-0.3-0.1-0.7-0.4-1s-0.8-0.6-1.4-1
			C307.6,281.5,307.1,282.1,307.1,282.9z M308.9,276.1c-0.4,0-0.7,0.1-1,0.3s-0.4,0.5-0.4,0.8c0,0.3,0.1,0.6,0.3,0.8
			s0.6,0.5,1.1,0.8c0.5-0.2,0.9-0.5,1.1-0.7s0.3-0.5,0.3-0.9c0-0.4-0.1-0.6-0.4-0.9S309.3,276.1,308.9,276.1z"/>
		<path class="st1" d="M321.6,280.2c0,2-0.3,3.5-1,4.4s-1.7,1.4-3,1.4c-1.3,0-2.3-0.5-3-1.5s-1-2.5-1-4.4c0-2,0.3-3.5,1-4.5
			s1.7-1.4,3-1.4c1.3,0,2.3,0.5,3,1.5S321.6,278.3,321.6,280.2z M316,280.2c0,1.4,0.1,2.4,0.4,3s0.6,0.9,1.2,0.9
			c0.6,0,1-0.3,1.2-0.9s0.4-1.6,0.4-3c0-1.4-0.1-2.4-0.4-3s-0.7-0.9-1.2-0.9c-0.6,0-1,0.3-1.2,0.9S316,278.8,316,280.2z"/>
		<path class="st1" d="M326.6,278.6c1.1,0,2,0.3,2.6,0.9s1,1.5,1,2.5c0,1.3-0.4,2.3-1.2,2.9s-1.9,1-3.4,1c-1.3,0-2.3-0.2-3.1-0.6
			v-2.1c0.4,0.2,0.9,0.4,1.4,0.5s1.1,0.2,1.6,0.2c1.5,0,2.2-0.6,2.2-1.8c0-1.2-0.8-1.7-2.3-1.7c-0.3,0-0.6,0-0.9,0.1
			s-0.6,0.1-0.8,0.2l-1-0.5l0.4-5.8h6.2v2h-4.1l-0.2,2.2l0.3-0.1C325.7,278.7,326.1,278.6,326.6,278.6z"/>
	</g>
	<g>
		<path class="st1" d="M278.1,345.1c0,0.8-0.3,1.5-0.9,2s-1.4,0.8-2.5,0.9v1.6h-1.1v-1.6c-1.3,0-2.4-0.2-3.3-0.7v-2.1
			c0.5,0.2,1,0.4,1.6,0.6s1.2,0.3,1.7,0.3v-2.4l-0.5-0.2c-1-0.4-1.8-0.8-2.2-1.3s-0.6-1.1-0.6-1.8c0-0.8,0.3-1.4,0.9-1.9
			s1.4-0.8,2.5-0.9v-1.2h1.1v1.2c1.2,0.1,2.3,0.3,3.2,0.7l-0.7,1.8c-0.8-0.3-1.6-0.5-2.5-0.6v2.3c1,0.4,1.7,0.7,2.2,1
			s0.7,0.6,0.9,0.9S278.1,344.7,278.1,345.1z M272.6,340.5c0,0.2,0.1,0.4,0.2,0.6s0.4,0.3,0.8,0.5v-1.8
			C272.9,339.8,272.6,340.1,272.6,340.5z M275.7,345.3c0-0.2-0.1-0.4-0.3-0.6s-0.4-0.3-0.8-0.5v1.9
			C275.4,346.1,275.7,345.8,275.7,345.3z"/>
		<path class="st1" d="M284.9,348.7h-2.4v-6.6l0-1.1l0-1.2c-0.4,0.4-0.7,0.7-0.8,0.8l-1.3,1.1l-1.2-1.5l3.7-2.9h2V348.7z"/>
		<path class="st1" d="M291.8,341.4c1.1,0,2,0.3,2.6,0.9s1,1.5,1,2.5c0,1.3-0.4,2.3-1.2,2.9s-1.9,1-3.4,1c-1.3,0-2.3-0.2-3.1-0.6
			v-2.1c0.4,0.2,0.9,0.4,1.4,0.5s1.1,0.2,1.6,0.2c1.5,0,2.2-0.6,2.2-1.8c0-1.2-0.8-1.7-2.3-1.7c-0.3,0-0.6,0-0.9,0.1
			s-0.6,0.1-0.8,0.2l-1-0.5l0.4-5.8h6.2v2h-4.1l-0.2,2.2l0.3-0.1C291,341.5,291.4,341.4,291.8,341.4z"/>
		<path class="st1" d="M304.3,342.2c0,2.2-0.5,3.9-1.4,5s-2.4,1.7-4.3,1.7c-0.7,0-1.2,0-1.5-0.1v-1.9c0.4,0.1,0.9,0.2,1.4,0.2
			c0.8,0,1.5-0.1,2-0.4s0.9-0.6,1.2-1.1s0.4-1.2,0.5-2.1H302c-0.3,0.5-0.7,0.8-1,1s-0.9,0.3-1.5,0.3c-1,0-1.8-0.3-2.4-1
			s-0.9-1.5-0.9-2.7c0-1.2,0.3-2.2,1-2.9s1.6-1.1,2.8-1.1c0.8,0,1.6,0.2,2.2,0.6s1.1,1,1.5,1.7S304.3,341.1,304.3,342.2z
			 M300.2,339.1c-0.5,0-0.9,0.2-1.2,0.5s-0.4,0.8-0.4,1.5c0,0.6,0.1,1,0.4,1.3s0.6,0.5,1.2,0.5c0.5,0,0.9-0.2,1.3-0.5
			s0.5-0.7,0.5-1.1c0-0.6-0.2-1.1-0.5-1.6S300.7,339.1,300.2,339.1z"/>
		<path class="st1" d="M305.4,347.6c0-0.4,0.1-0.8,0.4-1s0.6-0.3,1-0.3c0.4,0,0.8,0.1,1,0.3s0.4,0.6,0.4,1c0,0.4-0.1,0.7-0.4,1
			s-0.6,0.4-1,0.4c-0.4,0-0.8-0.1-1-0.3S305.4,348,305.4,347.6z"/>
		<path class="st1" d="M316.8,339.9c0,0.7-0.2,1.3-0.6,1.8s-1,0.8-1.8,1v0c0.9,0.1,1.6,0.4,2.1,0.8s0.7,1,0.7,1.8
			c0,1.1-0.4,2-1.2,2.6s-1.9,0.9-3.4,0.9c-1.2,0-2.3-0.2-3.3-0.6v-2.1c0.4,0.2,0.9,0.4,1.5,0.5s1.1,0.2,1.6,0.2
			c0.8,0,1.4-0.1,1.8-0.4s0.6-0.7,0.6-1.3c0-0.5-0.2-0.9-0.7-1.1s-1.1-0.3-2.1-0.3H311v-1.9h0.9c0.9,0,1.5-0.1,1.9-0.3
			s0.6-0.6,0.6-1.2c0-0.9-0.5-1.3-1.6-1.3c-0.4,0-0.8,0.1-1.1,0.2s-0.8,0.3-1.3,0.6l-1.1-1.7c1-0.8,2.3-1.1,3.7-1.1
			c1.2,0,2.1,0.2,2.8,0.7S316.8,339,316.8,339.9z"/>
		<path class="st1" d="M325.6,339.9c0,0.7-0.2,1.3-0.6,1.8s-1,0.8-1.8,1v0c0.9,0.1,1.6,0.4,2.1,0.8s0.7,1,0.7,1.8
			c0,1.1-0.4,2-1.2,2.6s-1.9,0.9-3.4,0.9c-1.2,0-2.3-0.2-3.3-0.6v-2.1c0.4,0.2,0.9,0.4,1.5,0.5s1.1,0.2,1.6,0.2
			c0.8,0,1.4-0.1,1.8-0.4s0.6-0.7,0.6-1.3c0-0.5-0.2-0.9-0.7-1.1s-1.1-0.3-2.1-0.3h-0.9v-1.9h0.9c0.9,0,1.5-0.1,1.9-0.3
			s0.6-0.6,0.6-1.2c0-0.9-0.5-1.3-1.6-1.3c-0.4,0-0.8,0.1-1.1,0.2s-0.8,0.3-1.3,0.6l-1.1-1.7c1-0.8,2.3-1.1,3.7-1.1
			c1.2,0,2.1,0.2,2.8,0.7S325.6,339,325.6,339.9z"/>
		<path class="st1" d="M326.7,343.9c0-2.3,0.5-3.9,1.4-5s2.4-1.7,4.3-1.7c0.7,0,1.2,0,1.5,0.1v1.9c-0.5-0.1-0.9-0.2-1.4-0.2
			c-0.8,0-1.5,0.1-2,0.4s-0.9,0.6-1.2,1.1s-0.4,1.2-0.5,2.1h0.1c0.5-0.9,1.3-1.3,2.5-1.3c1,0,1.8,0.3,2.4,1s0.9,1.5,0.9,2.7
			c0,1.2-0.3,2.2-1,2.9s-1.6,1.1-2.9,1.1c-0.8,0-1.6-0.2-2.2-0.6s-1.1-1-1.5-1.7S326.7,344.9,326.7,343.9z M330.8,346.9
			c0.5,0,0.9-0.2,1.2-0.5s0.4-0.8,0.4-1.5c0-0.6-0.1-1-0.4-1.3s-0.6-0.5-1.2-0.5c-0.5,0-0.9,0.2-1.3,0.5s-0.5,0.7-0.5,1.1
			c0,0.6,0.2,1.1,0.5,1.6S330.3,346.9,330.8,346.9z"/>
	</g>
	<path class="st2" d="M542.1,143.5V69.7c0-4.3-2.3-8.2-6-10.4l-63-36.8c-3.7-2.2-8.4-2.2-12.1,0l-63,36.8c-3.7,2.2-6,6.1-6,10.4
		v73.8c0,4.3,2.3,8.2,6,10.4l63,36.8c3.7,2.2,8.4,2.2,12.1,0l63-36.8C539.9,151.7,542.1,147.8,542.1,143.5z"/>
	<g>
		<path class="st5" d="M450.2,108.3c-3.4-3.9-6.9-8-9.1-12.8c-2.2-5.2-2.8-11.1-1.7-16.7c1.1-5.6,3.6-11,7.2-15.5
			c-0.3,3.9,1.1,8,3.8,11c-1.6-7.5,0.9-15.6,5.9-21.6s11.9-9.9,19.1-12.5c-3.6,3.8-4.1,9.7-2.7,14.7s4.4,9.4,7,13.9
			c2.7,4.5,5.2,9.2,5.3,14.4c1.4-2.7,3-5.3,3.9-8.3c0.9-3,1.4-6.1,0.6-9.1c2.8,3.4,4.4,6.9,5.2,11.3c0.8,4.4,0.6,8.9,0.2,13.3
			c-0.6,4.9-1.9,9.9-4.5,13.9c-3.1,4.9-8.1,8.3-13.6,10.2C467.1,116.1,457.6,114.7,450.2,108.3z"/>
		<path class="st4" d="M462.1,114.1c12.8,5,25.5-10.2,18.5-21.9c0-0.2-0.2-0.2-0.2-0.3c0.6,6.4-0.9,11.1-3.9,13.8
			c1.6-3.8,0.5-8.1-1.4-11.9c-1.9-3.6-4.5-6.9-6.6-10.3c-2-3.6-3.6-7.7-2.7-11.7c-3.8,2.8-6.4,7-7.5,11.6c-1.1,4.5-0.5,9.5,1.6,13.8
			c-2.3-1.7-4.1-4.5-4.2-7.5c-2.5,3-4.1,6.9-3.9,10.8C451.8,106.4,456.6,111.9,462.1,114.1z"/>
		<path class="st6" d="M450.2,108.3c-3.4-3.9-6.9-8-9.1-12.8c-2.2-5.2-2.8-11.1-1.7-16.7c1.1-5.6,3.6-11,7.2-15.5
			c-0.3,3.9,1.1,8,3.8,11c-1.6-7.5,0.9-15.6,5.9-21.6s11.9-9.9,19.1-12.5c-3.6,3.8-4.1,9.7-2.7,14.7s4.4,9.4,7,13.9
			c2.7,4.5,5.2,9.2,5.3,14.4c1.4-2.7,3-5.3,3.9-8.3c0.9-3,1.4-6.1,0.6-9.1c2.8,3.4,4.4,6.9,5.2,11.3c0.8,4.4,0.6,8.9,0.2,13.3
			c-0.6,4.9-1.9,9.9-4.5,13.9c-3.1,4.9-8.1,8.3-13.6,10.2C467.1,116.1,457.6,114.7,450.2,108.3z"/>
		<path class="st6" d="M462.1,114.1c12.8,5,25.5-10.2,18.5-21.9c0-0.2-0.2-0.2-0.2-0.3c0.6,6.4-0.9,11.1-3.9,13.8
			c1.6-3.8,0.5-8.1-1.4-11.9c-1.9-3.6-4.5-6.9-6.6-10.3c-2-3.6-3.6-7.7-2.7-11.7c-3.8,2.8-6.4,7-7.5,11.6c-1.1,4.5-0.5,9.5,1.6,13.8
			c-2.3-1.7-4.1-4.5-4.2-7.5c-2.5,3-4.1,6.9-3.9,10.8C451.8,106.4,456.6,111.9,462.1,114.1z"/>
	</g>
	<g>
		<path class="st1" d="M456.6,136.2h5.1v6.7c-0.8,0.3-1.6,0.5-2.3,0.6c-0.7,0.1-1.5,0.2-2.2,0.2c-1.9,0-3.4-0.6-4.4-1.7
			c-1-1.1-1.5-2.8-1.5-4.9c0-2.1,0.6-3.7,1.8-4.9c1.2-1.2,2.8-1.7,4.9-1.7c1.3,0,2.6,0.3,3.8,0.8l-0.9,2.2c-0.9-0.5-1.9-0.7-2.9-0.7
			c-1.2,0-2.1,0.4-2.8,1.2s-1.1,1.9-1.1,3.2c0,1.4,0.3,2.5,0.9,3.2c0.6,0.7,1.4,1.1,2.5,1.1c0.6,0,1.1-0.1,1.7-0.2v-2.7h-2.4V136.2z
			"/>
		<path class="st1" d="M472.2,143.4l-0.9-3.1h-4.7l-0.9,3.1h-2.9l4.5-12.9h3.3l4.6,12.9H472.2z M470.6,138c-0.9-2.8-1.3-4.3-1.5-4.7
			c-0.1-0.4-0.2-0.7-0.2-0.9c-0.2,0.8-0.7,2.6-1.7,5.6H470.6z"/>
		<path class="st1" d="M483.9,139.8c0,1.2-0.4,2.1-1.3,2.7c-0.8,0.7-2,1-3.5,1c-1.4,0-2.6-0.3-3.6-0.8v-2.5c0.9,0.4,1.6,0.7,2.2,0.8
			s1.2,0.2,1.6,0.2c0.6,0,1.1-0.1,1.4-0.3s0.5-0.6,0.5-1c0-0.3-0.1-0.5-0.2-0.7c-0.1-0.2-0.3-0.4-0.6-0.6c-0.3-0.2-0.8-0.5-1.7-0.9
			c-0.8-0.4-1.4-0.7-1.8-1.1s-0.7-0.7-0.9-1.2s-0.4-1-0.4-1.6c0-1.1,0.4-2,1.2-2.7s1.8-1,3.2-1c0.7,0,1.3,0.1,1.9,0.2
			c0.6,0.2,1.2,0.4,1.9,0.7l-0.9,2.1c-0.7-0.3-1.3-0.5-1.7-0.6c-0.4-0.1-0.9-0.2-1.3-0.2c-0.5,0-0.9,0.1-1.2,0.4s-0.4,0.6-0.4,0.9
			c0,0.2,0.1,0.5,0.2,0.6c0.1,0.2,0.3,0.4,0.5,0.5c0.2,0.2,0.8,0.5,1.7,0.9c1.2,0.6,2,1.2,2.5,1.7
			C483.6,138.3,483.9,139,483.9,139.8z"/>
		<path class="st1" d="M438.9,163.4h-3.5l-5.6-9.7h-0.1c0.1,1.7,0.2,2.9,0.2,3.7v6h-2.4v-12.8h3.4l5.6,9.6h0.1
			c-0.1-1.7-0.1-2.9-0.1-3.5v-6.1h2.5V163.4z"/>
		<path class="st1" d="M449.6,163.4l-0.9-3.1H444l-0.9,3.1h-2.9l4.5-12.9h3.3l4.6,12.9H449.6z M448,158c-0.9-2.8-1.3-4.3-1.5-4.7
			c-0.1-0.4-0.2-0.7-0.2-0.9c-0.2,0.8-0.7,2.6-1.7,5.6H448z"/>
		<path class="st1" d="M458.6,163.4h-2.7v-10.6h-3.5v-2.3h9.7v2.3h-3.5V163.4z"/>
		<path class="st1" d="M474.1,150.5v8.3c0,0.9-0.2,1.8-0.6,2.5c-0.4,0.7-1,1.3-1.8,1.6s-1.8,0.6-2.8,0.6c-1.7,0-2.9-0.4-3.8-1.3
			s-1.4-2-1.4-3.5v-8.3h2.7v7.9c0,1,0.2,1.7,0.6,2.2s1.1,0.7,2,0.7c0.9,0,1.5-0.2,1.9-0.7c0.4-0.5,0.6-1.2,0.6-2.2v-7.8H474.1z"/>
		<path class="st1" d="M479.5,158.4v4.9h-2.7v-12.8h3.7c1.7,0,3,0.3,3.9,1c0.8,0.6,1.3,1.6,1.3,2.9c0,0.8-0.2,1.4-0.6,2
			c-0.4,0.6-1,1-1.8,1.4c1.9,2.9,3.2,4.8,3.8,5.6h-3l-3.1-4.9H479.5z M479.5,156.2h0.9c0.9,0,1.5-0.1,1.9-0.4s0.6-0.7,0.6-1.4
			c0-0.6-0.2-1-0.6-1.3c-0.4-0.3-1.1-0.4-1.9-0.4h-0.8V156.2z"/>
		<path class="st1" d="M496.1,163.4l-0.9-3.1h-4.7l-0.9,3.1h-2.9l4.5-12.9h3.3l4.6,12.9H496.1z M494.5,158c-0.9-2.8-1.3-4.3-1.5-4.7
			c-0.1-0.4-0.2-0.7-0.2-0.9c-0.2,0.8-0.7,2.6-1.7,5.6H494.5z"/>
		<path class="st1" d="M500.2,163.4v-12.8h2.7v10.6h5.2v2.2H500.2z"/>
	</g>
	<g>
		<path class="st1" d="M445.1,223.9c0,0.8-0.3,1.5-0.9,2s-1.4,0.8-2.5,0.9v1.6h-1.1v-1.6c-1.3,0-2.4-0.2-3.3-0.7v-2.1
			c0.5,0.2,1,0.4,1.6,0.6s1.2,0.3,1.7,0.3v-2.4l-0.5-0.2c-1-0.4-1.8-0.8-2.2-1.3s-0.6-1.1-0.6-1.8c0-0.8,0.3-1.4,0.9-1.9
			s1.4-0.8,2.5-0.9v-1.2h1.1v1.2c1.2,0.1,2.3,0.3,3.2,0.7l-0.7,1.8c-0.8-0.3-1.6-0.5-2.5-0.6v2.3c1,0.4,1.7,0.7,2.2,1
			s0.7,0.6,0.9,0.9S445.1,223.5,445.1,223.9z M439.6,219.3c0,0.2,0.1,0.4,0.2,0.6s0.4,0.3,0.8,0.5v-1.8
			C439.9,218.6,439.6,218.9,439.6,219.3z M442.7,224.1c0-0.2-0.1-0.4-0.3-0.6s-0.4-0.3-0.8-0.5v1.9
			C442.4,224.9,442.7,224.6,442.7,224.1z"/>
		<path class="st1" d="M445.9,222.7c0-2.3,0.5-3.9,1.4-5s2.4-1.7,4.3-1.7c0.7,0,1.2,0,1.5,0.1v1.9c-0.5-0.1-0.9-0.2-1.4-0.2
			c-0.8,0-1.5,0.1-2,0.4s-0.9,0.6-1.2,1.1s-0.4,1.2-0.5,2.1h0.1c0.5-0.9,1.3-1.3,2.5-1.3c1,0,1.8,0.3,2.4,1s0.9,1.5,0.9,2.7
			c0,1.2-0.3,2.2-1,2.9s-1.6,1.1-2.9,1.1c-0.8,0-1.6-0.2-2.2-0.6s-1.1-1-1.5-1.7S445.9,223.7,445.9,222.7z M450,225.7
			c0.5,0,0.9-0.2,1.2-0.5s0.4-0.8,0.4-1.5c0-0.6-0.1-1-0.4-1.3s-0.6-0.5-1.2-0.5c-0.5,0-0.9,0.2-1.3,0.5s-0.5,0.7-0.5,1.1
			c0,0.6,0.2,1.1,0.5,1.6S449.5,225.7,450,225.7z"/>
		<path class="st1" d="M455.8,227.5l4.3-9.4h-5.6v-2h8.2v1.5l-4.3,9.9H455.8z"/>
		<path class="st1" d="M463.7,226.4c0-0.4,0.1-0.8,0.4-1s0.6-0.3,1-0.3c0.4,0,0.8,0.1,1,0.3s0.4,0.6,0.4,1c0,0.4-0.1,0.7-0.4,1
			s-0.6,0.4-1,0.4c-0.4,0-0.8-0.1-1-0.3S463.7,226.8,463.7,226.4z"/>
		<path class="st1" d="M475.5,221c0,2.2-0.5,3.9-1.4,5s-2.4,1.7-4.3,1.7c-0.7,0-1.2,0-1.5-0.1v-1.9c0.4,0.1,0.9,0.2,1.4,0.2
			c0.8,0,1.5-0.1,2-0.4s0.9-0.6,1.2-1.1s0.4-1.2,0.5-2.1h-0.1c-0.3,0.5-0.7,0.8-1,1s-0.9,0.3-1.5,0.3c-1,0-1.8-0.3-2.4-1
			s-0.9-1.5-0.9-2.7c0-1.2,0.3-2.2,1-2.9s1.6-1.1,2.8-1.1c0.8,0,1.6,0.2,2.2,0.6s1.1,1,1.5,1.7S475.5,219.9,475.5,221z M471.4,217.9
			c-0.5,0-0.9,0.2-1.2,0.5s-0.4,0.8-0.4,1.5c0,0.6,0.1,1,0.4,1.3s0.6,0.5,1.2,0.5c0.5,0,0.9-0.2,1.3-0.5s0.5-0.7,0.5-1.1
			c0-0.6-0.2-1.1-0.5-1.6S471.9,217.9,471.4,217.9z"/>
		<path class="st1" d="M483.8,218.6c0,0.7-0.2,1.3-0.6,1.8s-1,0.8-1.8,1v0c0.9,0.1,1.6,0.4,2.1,0.8s0.7,1,0.7,1.8
			c0,1.1-0.4,2-1.2,2.6s-1.9,0.9-3.4,0.9c-1.2,0-2.3-0.2-3.3-0.6V225c0.4,0.2,0.9,0.4,1.5,0.5s1.1,0.2,1.6,0.2
			c0.8,0,1.4-0.1,1.8-0.4s0.6-0.7,0.6-1.3c0-0.5-0.2-0.9-0.7-1.1s-1.1-0.3-2.1-0.3H478v-1.9h0.9c0.9,0,1.5-0.1,1.9-0.3
			s0.6-0.6,0.6-1.2c0-0.9-0.5-1.3-1.6-1.3c-0.4,0-0.8,0.1-1.1,0.2s-0.8,0.3-1.3,0.6l-1.1-1.7c1-0.8,2.3-1.1,3.7-1.1
			c1.2,0,2.1,0.2,2.8,0.7S483.8,217.8,483.8,218.6z"/>
		<path class="st1" d="M493,221c0,2.2-0.5,3.9-1.4,5s-2.4,1.7-4.3,1.7c-0.7,0-1.2,0-1.5-0.1v-1.9c0.4,0.1,0.9,0.2,1.4,0.2
			c0.8,0,1.5-0.1,2-0.4s0.9-0.6,1.2-1.1s0.4-1.2,0.5-2.1h-0.1c-0.3,0.5-0.7,0.8-1,1s-0.9,0.3-1.5,0.3c-1,0-1.8-0.3-2.4-1
			s-0.9-1.5-0.9-2.7c0-1.2,0.3-2.2,1-2.9s1.6-1.1,2.8-1.1c0.8,0,1.6,0.2,2.2,0.6s1.1,1,1.5,1.7S493,219.9,493,221z M488.8,217.9
			c-0.5,0-0.9,0.2-1.2,0.5s-0.4,0.8-0.4,1.5c0,0.6,0.1,1,0.4,1.3s0.6,0.5,1.2,0.5c0.5,0,0.9-0.2,1.3-0.5s0.5-0.7,0.5-1.1
			c0-0.6-0.2-1.1-0.5-1.6S489.3,217.9,488.8,217.9z"/>
	</g>
	<g>
		<path class="st1" d="M461.5,285.9h-3.1l-5-8.6h-0.1c0.1,1.5,0.1,2.6,0.1,3.3v5.4h-2.2v-11.4h3.1l5,8.6h0.1
			c-0.1-1.5-0.1-2.5-0.1-3.1v-5.4h2.2V285.9z"/>
		<path class="st1" d="M469,274.5l-4.3,11.4h-2.2l4.3-11.4H469z"/>
		<path class="st1" d="M477.2,285.9l-0.8-2.7h-4.2l-0.8,2.7h-2.6l4-11.5h3l4,11.5H477.2z M475.7,281.2c-0.8-2.5-1.2-3.9-1.3-4.2
			c-0.1-0.3-0.2-0.6-0.2-0.8c-0.2,0.7-0.7,2.3-1.5,4.9H475.7z"/>
	</g>
	<g>
		<path class="st1" d="M445.1,345.1c0,0.8-0.3,1.5-0.9,2s-1.4,0.8-2.5,0.9v1.6h-1.1v-1.6c-1.3,0-2.4-0.2-3.3-0.7v-2.1
			c0.5,0.2,1,0.4,1.6,0.6s1.2,0.3,1.7,0.3v-2.4l-0.5-0.2c-1-0.4-1.8-0.8-2.2-1.3s-0.6-1.1-0.6-1.8c0-0.8,0.3-1.4,0.9-1.9
			s1.4-0.8,2.5-0.9v-1.2h1.1v1.2c1.2,0.1,2.3,0.3,3.2,0.7l-0.7,1.8c-0.8-0.3-1.6-0.5-2.5-0.6v2.3c1,0.4,1.7,0.7,2.2,1
			s0.7,0.6,0.9,0.9S445.1,344.7,445.1,345.1z M439.6,340.5c0,0.2,0.1,0.4,0.2,0.6s0.4,0.3,0.8,0.5v-1.8
			C439.9,339.8,439.6,340.1,439.6,340.5z M442.7,345.3c0-0.2-0.1-0.4-0.3-0.6s-0.4-0.3-0.8-0.5v1.9
			C442.4,346.1,442.7,345.8,442.7,345.3z"/>
		<path class="st1" d="M445.9,343.9c0-2.3,0.5-3.9,1.4-5s2.4-1.7,4.3-1.7c0.7,0,1.2,0,1.5,0.1v1.9c-0.5-0.1-0.9-0.2-1.4-0.2
			c-0.8,0-1.5,0.1-2,0.4s-0.9,0.6-1.2,1.1s-0.4,1.2-0.5,2.1h0.1c0.5-0.9,1.3-1.3,2.5-1.3c1,0,1.8,0.3,2.4,1s0.9,1.5,0.9,2.7
			c0,1.2-0.3,2.2-1,2.9s-1.6,1.1-2.9,1.1c-0.8,0-1.6-0.2-2.2-0.6s-1.1-1-1.5-1.7S445.9,344.9,445.9,343.9z M450,346.9
			c0.5,0,0.9-0.2,1.2-0.5s0.4-0.8,0.4-1.5c0-0.6-0.1-1-0.4-1.3s-0.6-0.5-1.2-0.5c-0.5,0-0.9,0.2-1.3,0.5s-0.5,0.7-0.5,1.1
			c0,0.6,0.2,1.1,0.5,1.6S449.5,346.9,450,346.9z"/>
		<path class="st1" d="M455.8,348.7l4.3-9.4h-5.6v-2h8.2v1.5l-4.3,9.9H455.8z"/>
		<path class="st1" d="M463.7,347.6c0-0.4,0.1-0.8,0.4-1s0.6-0.3,1-0.3c0.4,0,0.8,0.1,1,0.3s0.4,0.6,0.4,1c0,0.4-0.1,0.7-0.4,1
			s-0.6,0.4-1,0.4c-0.4,0-0.8-0.1-1-0.3S463.7,348,463.7,347.6z"/>
		<path class="st1" d="M475.5,342.2c0,2.2-0.5,3.9-1.4,5s-2.4,1.7-4.3,1.7c-0.7,0-1.2,0-1.5-0.1v-1.9c0.4,0.1,0.9,0.2,1.4,0.2
			c0.8,0,1.5-0.1,2-0.4s0.9-0.6,1.2-1.1s0.4-1.2,0.5-2.1h-0.1c-0.3,0.5-0.7,0.8-1,1s-0.9,0.3-1.5,0.3c-1,0-1.8-0.3-2.4-1
			s-0.9-1.5-0.9-2.7c0-1.2,0.3-2.2,1-2.9s1.6-1.1,2.8-1.1c0.8,0,1.6,0.2,2.2,0.6s1.1,1,1.5,1.7S475.5,341.1,475.5,342.2z
			 M471.4,339.1c-0.5,0-0.9,0.2-1.2,0.5s-0.4,0.8-0.4,1.5c0,0.6,0.1,1,0.4,1.3s0.6,0.5,1.2,0.5c0.5,0,0.9-0.2,1.3-0.5
			s0.5-0.7,0.5-1.1c0-0.6-0.2-1.1-0.5-1.6S471.9,339.1,471.4,339.1z"/>
		<path class="st1" d="M483.8,339.9c0,0.7-0.2,1.3-0.6,1.8s-1,0.8-1.8,1v0c0.9,0.1,1.6,0.4,2.1,0.8s0.7,1,0.7,1.8
			c0,1.1-0.4,2-1.2,2.6s-1.9,0.9-3.4,0.9c-1.2,0-2.3-0.2-3.3-0.6v-2.1c0.4,0.2,0.9,0.4,1.5,0.5s1.1,0.2,1.6,0.2
			c0.8,0,1.4-0.1,1.8-0.4s0.6-0.7,0.6-1.3c0-0.5-0.2-0.9-0.7-1.1s-1.1-0.3-2.1-0.3H478v-1.9h0.9c0.9,0,1.5-0.1,1.9-0.3
			s0.6-0.6,0.6-1.2c0-0.9-0.5-1.3-1.6-1.3c-0.4,0-0.8,0.1-1.1,0.2s-0.8,0.3-1.3,0.6l-1.1-1.7c1-0.8,2.3-1.1,3.7-1.1
			c1.2,0,2.1,0.2,2.8,0.7S483.8,339,483.8,339.9z"/>
		<path class="st1" d="M493,342.2c0,2.2-0.5,3.9-1.4,5s-2.4,1.7-4.3,1.7c-0.7,0-1.2,0-1.5-0.1v-1.9c0.4,0.1,0.9,0.2,1.4,0.2
			c0.8,0,1.5-0.1,2-0.4s0.9-0.6,1.2-1.1s0.4-1.2,0.5-2.1h-0.1c-0.3,0.5-0.7,0.8-1,1s-0.9,0.3-1.5,0.3c-1,0-1.8-0.3-2.4-1
			s-0.9-1.5-0.9-2.7c0-1.2,0.3-2.2,1-2.9s1.6-1.1,2.8-1.1c0.8,0,1.6,0.2,2.2,0.6s1.1,1,1.5,1.7S493,341.1,493,342.2z M488.8,339.1
			c-0.5,0-0.9,0.2-1.2,0.5s-0.4,0.8-0.4,1.5c0,0.6,0.1,1,0.4,1.3s0.6,0.5,1.2,0.5c0.5,0,0.9-0.2,1.3-0.5s0.5-0.7,0.5-1.1
			c0-0.6-0.2-1.1-0.5-1.6S489.3,339.1,488.8,339.1z"/>
	</g>
	<g>
		<path class="st1" d="M604.1,223.9c0,0.8-0.3,1.5-0.9,2s-1.4,0.8-2.5,0.9v1.6h-1.1v-1.6c-1.3,0-2.4-0.2-3.3-0.7v-2.1
			c0.5,0.2,1,0.4,1.6,0.6s1.2,0.3,1.7,0.3v-2.4l-0.5-0.2c-1-0.4-1.8-0.8-2.2-1.3s-0.6-1.1-0.6-1.8c0-0.8,0.3-1.4,0.9-1.9
			s1.4-0.8,2.5-0.9v-1.2h1.1v1.2c1.2,0.1,2.3,0.3,3.2,0.7l-0.7,1.8c-0.8-0.3-1.6-0.5-2.5-0.6v2.3c1,0.4,1.7,0.7,2.2,1
			s0.7,0.6,0.9,0.9S604.1,223.5,604.1,223.9z M598.6,219.3c0,0.2,0.1,0.4,0.2,0.6s0.4,0.3,0.8,0.5v-1.8
			C598.9,218.6,598.6,218.9,598.6,219.3z M601.7,224.1c0-0.2-0.1-0.4-0.3-0.6s-0.4-0.3-0.8-0.5v1.9
			C601.3,224.9,601.7,224.6,601.7,224.1z"/>
		<path class="st1" d="M612.9,227.5h-8v-1.7l2.9-2.9c0.8-0.9,1.4-1.5,1.7-1.8s0.4-0.6,0.6-0.9s0.2-0.6,0.2-0.9c0-0.5-0.1-0.8-0.4-1
			s-0.6-0.3-1-0.3c-0.4,0-0.9,0.1-1.3,0.3s-0.9,0.5-1.3,0.9l-1.3-1.6c0.6-0.5,1-0.8,1.4-1s0.8-0.4,1.2-0.5s0.9-0.2,1.5-0.2
			c0.7,0,1.3,0.1,1.9,0.4s1,0.6,1.3,1.1s0.5,1,0.5,1.6c0,0.5-0.1,1-0.3,1.5s-0.5,0.9-0.9,1.4s-1.1,1.2-2.1,2.1l-1.5,1.4v0.1h5V227.5
			z"/>
		<path class="st1" d="M621.5,221.8c0,2-0.3,3.5-1,4.4s-1.7,1.4-3,1.4c-1.3,0-2.3-0.5-3-1.5s-1-2.5-1-4.4c0-2,0.3-3.5,1-4.5
			s1.7-1.4,3-1.4c1.3,0,2.3,0.5,3,1.5S621.5,219.9,621.5,221.8z M616,221.8c0,1.4,0.1,2.4,0.4,3s0.6,0.9,1.2,0.9
			c0.6,0,1-0.3,1.2-0.9s0.4-1.6,0.4-3c0-1.4-0.1-2.4-0.4-3s-0.7-0.9-1.2-0.9c-0.6,0-1,0.3-1.2,0.9S616,220.4,616,221.8z"/>
		<path class="st1" d="M630.3,221c0,2.2-0.5,3.9-1.4,5s-2.4,1.7-4.3,1.7c-0.7,0-1.2,0-1.5-0.1v-1.9c0.4,0.1,0.9,0.2,1.4,0.2
			c0.8,0,1.5-0.1,2-0.4s0.9-0.6,1.2-1.1s0.4-1.2,0.5-2.1H628c-0.3,0.5-0.7,0.8-1,1s-0.9,0.3-1.5,0.3c-1,0-1.8-0.3-2.4-1
			s-0.9-1.5-0.9-2.7c0-1.2,0.3-2.2,1-2.9s1.6-1.1,2.8-1.1c0.8,0,1.6,0.2,2.2,0.6s1.1,1,1.5,1.7S630.3,219.9,630.3,221z M626.2,217.9
			c-0.5,0-0.9,0.2-1.2,0.5s-0.4,0.8-0.4,1.5c0,0.6,0.1,1,0.4,1.3s0.6,0.5,1.2,0.5c0.5,0,0.9-0.2,1.3-0.5s0.5-0.7,0.5-1.1
			c0-0.6-0.2-1.1-0.5-1.6S626.7,217.9,626.2,217.9z"/>
		<path class="st1" d="M631.4,226.4c0-0.4,0.1-0.8,0.4-1s0.6-0.3,1-0.3c0.4,0,0.8,0.1,1,0.3s0.4,0.6,0.4,1c0,0.4-0.1,0.7-0.4,1
			s-0.6,0.4-1,0.4c-0.4,0-0.8-0.1-1-0.3S631.4,226.8,631.4,226.4z"/>
		<path class="st1" d="M636.4,227.5l4.3-9.4H635v-2h8.2v1.5l-4.3,9.9H636.4z"/>
		<path class="st1" d="M652,227.5h-8v-1.7l2.9-2.9c0.8-0.9,1.4-1.5,1.7-1.8s0.4-0.6,0.6-0.9s0.2-0.6,0.2-0.9c0-0.5-0.1-0.8-0.4-1
			s-0.6-0.3-1-0.3c-0.4,0-0.9,0.1-1.3,0.3s-0.9,0.5-1.3,0.9l-1.3-1.6c0.6-0.5,1-0.8,1.4-1s0.8-0.4,1.2-0.5s0.9-0.2,1.5-0.2
			c0.7,0,1.3,0.1,1.9,0.4s1,0.6,1.3,1.1s0.5,1,0.5,1.6c0,0.5-0.1,1-0.3,1.5s-0.5,0.9-0.9,1.4s-1.1,1.2-2.1,2.1l-1.5,1.4v0.1h5V227.5
			z"/>
		<path class="st1" d="M656.7,215.9c1.1,0,2,0.2,2.6,0.7s1,1.2,1,2c0,0.6-0.2,1.1-0.5,1.6s-0.8,0.9-1.6,1.2c0.9,0.5,1.5,0.9,1.8,1.4
			s0.6,1,0.6,1.6c0,0.9-0.4,1.7-1.1,2.3s-1.7,0.9-2.9,0.9c-1.2,0-2.2-0.3-2.9-0.8s-1.1-1.3-1.1-2.3c0-0.7,0.2-1.2,0.5-1.7
			s0.9-1,1.7-1.3c-0.7-0.4-1.1-0.9-1.4-1.3s-0.4-1-0.4-1.5c0-0.8,0.3-1.5,1-2S655.6,215.9,656.7,215.9z M654.9,224.5
			c0,0.4,0.2,0.8,0.5,1s0.7,0.4,1.3,0.4c0.6,0,1-0.1,1.3-0.4s0.4-0.6,0.4-1c0-0.3-0.1-0.7-0.4-1s-0.8-0.6-1.4-1
			C655.4,223.1,654.9,223.7,654.9,224.5z M656.6,217.7c-0.4,0-0.7,0.1-1,0.3s-0.4,0.5-0.4,0.8c0,0.3,0.1,0.6,0.3,0.8
			s0.6,0.5,1.1,0.8c0.5-0.2,0.9-0.5,1.1-0.7s0.3-0.5,0.3-0.9c0-0.4-0.1-0.6-0.4-0.9S657,217.7,656.6,217.7z"/>
	</g>
	<g>
		<path class="st1" d="M608.4,282.3c0,0.8-0.3,1.5-0.9,2c-0.6,0.5-1.4,0.8-2.5,0.9v1.6h-1.1v-1.6c-1.3,0-2.4-0.2-3.3-0.7v-2.1
			c0.5,0.2,1,0.4,1.6,0.6s1.2,0.3,1.7,0.3V281l-0.5-0.2c-1-0.4-1.8-0.8-2.2-1.3s-0.6-1.1-0.6-1.8c0-0.8,0.3-1.4,0.9-1.9
			c0.6-0.5,1.4-0.8,2.5-0.9v-1.2h1.1v1.2c1.2,0.1,2.3,0.3,3.2,0.7l-0.7,1.8c-0.8-0.3-1.6-0.5-2.5-0.6v2.3c1,0.4,1.7,0.7,2.2,1
			c0.4,0.3,0.7,0.6,0.9,0.9S608.4,281.9,608.4,282.3z M602.9,277.7c0,0.2,0.1,0.4,0.2,0.6s0.4,0.3,0.8,0.5v-1.8
			C603.3,277,602.9,277.3,602.9,277.7z M606.1,282.5c0-0.2-0.1-0.4-0.3-0.6c-0.2-0.2-0.4-0.3-0.8-0.5v1.9
			C605.7,283.3,606.1,283,606.1,282.5z"/>
		<path class="st1" d="M613.4,278.6c1.1,0,2,0.3,2.6,0.9c0.7,0.6,1,1.5,1,2.5c0,1.3-0.4,2.3-1.2,2.9s-1.9,1-3.4,1
			c-1.3,0-2.3-0.2-3.1-0.6v-2.1c0.4,0.2,0.9,0.4,1.4,0.5c0.5,0.1,1.1,0.2,1.6,0.2c1.5,0,2.2-0.6,2.2-1.8c0-1.2-0.8-1.7-2.3-1.7
			c-0.3,0-0.6,0-0.9,0.1s-0.6,0.1-0.8,0.2l-1-0.5l0.4-5.8h6.2v2h-4.1l-0.2,2.2l0.3-0.1C612.6,278.7,612.9,278.6,613.4,278.6z"/>
		<path class="st1" d="M625.9,279.4c0,2.2-0.5,3.9-1.4,5s-2.4,1.7-4.3,1.7c-0.7,0-1.2,0-1.5-0.1V284c0.4,0.1,0.9,0.2,1.4,0.2
			c0.8,0,1.5-0.1,2-0.4c0.5-0.2,0.9-0.6,1.2-1.1s0.4-1.2,0.5-2.1h-0.1c-0.3,0.5-0.7,0.8-1,1c-0.4,0.2-0.9,0.3-1.5,0.3
			c-1,0-1.8-0.3-2.4-1c-0.6-0.6-0.9-1.5-0.9-2.7c0-1.2,0.3-2.2,1-2.9s1.6-1.1,2.8-1.1c0.8,0,1.6,0.2,2.2,0.6c0.6,0.4,1.1,1,1.5,1.7
			C625.8,277.4,625.9,278.3,625.9,279.4z M621.8,276.3c-0.5,0-0.9,0.2-1.2,0.5s-0.4,0.8-0.4,1.5c0,0.6,0.1,1,0.4,1.3
			c0.3,0.3,0.6,0.5,1.2,0.5c0.5,0,0.9-0.2,1.3-0.5s0.5-0.7,0.5-1.1c0-0.6-0.2-1.1-0.5-1.6C622.7,276.5,622.3,276.3,621.8,276.3z"/>
		<path class="st1" d="M627,284.8c0-0.4,0.1-0.8,0.4-1c0.2-0.2,0.6-0.3,1-0.3c0.4,0,0.8,0.1,1,0.3c0.2,0.2,0.4,0.6,0.4,1
			c0,0.4-0.1,0.7-0.4,1c-0.2,0.2-0.6,0.4-1,0.4c-0.4,0-0.8-0.1-1-0.3C627.1,285.5,627,285.2,627,284.8z"/>
		<path class="st1" d="M638.9,285.9h-8v-1.7l2.9-2.9c0.8-0.9,1.4-1.5,1.7-1.8s0.4-0.6,0.6-0.9c0.1-0.3,0.2-0.6,0.2-0.9
			c0-0.5-0.1-0.8-0.4-1c-0.3-0.2-0.6-0.3-1-0.3c-0.4,0-0.9,0.1-1.3,0.3s-0.9,0.5-1.3,0.9l-1.3-1.6c0.6-0.5,1-0.8,1.4-1
			c0.4-0.2,0.8-0.4,1.2-0.5c0.4-0.1,0.9-0.2,1.5-0.2c0.7,0,1.3,0.1,1.9,0.4c0.5,0.3,1,0.6,1.3,1.1s0.5,1,0.5,1.6
			c0,0.5-0.1,1-0.3,1.5s-0.5,0.9-0.9,1.4s-1.1,1.2-2.1,2.1l-1.5,1.4v0.1h5V285.9z"/>
		<path class="st1" d="M647.6,279.4c0,2.2-0.5,3.9-1.4,5s-2.4,1.7-4.3,1.7c-0.7,0-1.2,0-1.5-0.1V284c0.4,0.1,0.9,0.2,1.4,0.2
			c0.8,0,1.5-0.1,2-0.4c0.5-0.2,0.9-0.6,1.2-1.1s0.4-1.2,0.5-2.1h-0.1c-0.3,0.5-0.7,0.8-1,1c-0.4,0.2-0.9,0.3-1.5,0.3
			c-1,0-1.8-0.3-2.4-1c-0.6-0.6-0.9-1.5-0.9-2.7c0-1.2,0.3-2.2,1-2.9s1.6-1.1,2.8-1.1c0.8,0,1.6,0.2,2.2,0.6c0.6,0.4,1.1,1,1.5,1.7
			C647.4,277.4,647.6,278.3,647.6,279.4z M643.4,276.3c-0.5,0-0.9,0.2-1.2,0.5s-0.4,0.8-0.4,1.5c0,0.6,0.1,1,0.4,1.3
			c0.3,0.3,0.6,0.5,1.2,0.5c0.5,0,0.9-0.2,1.3-0.5s0.5-0.7,0.5-1.1c0-0.6-0.2-1.1-0.5-1.6C644.3,276.5,643.9,276.3,643.4,276.3z"/>
		<path class="st1" d="M652.3,274.3c1.1,0,2,0.2,2.6,0.7c0.7,0.5,1,1.2,1,2c0,0.6-0.2,1.1-0.5,1.6c-0.3,0.5-0.8,0.9-1.6,1.2
			c0.9,0.5,1.5,0.9,1.8,1.4c0.4,0.5,0.6,1,0.6,1.6c0,0.9-0.4,1.7-1.1,2.3s-1.7,0.9-2.9,0.9c-1.2,0-2.2-0.3-2.9-0.8s-1.1-1.3-1.1-2.3
			c0-0.7,0.2-1.2,0.5-1.7c0.3-0.5,0.9-1,1.7-1.3c-0.7-0.4-1.1-0.9-1.4-1.3s-0.4-1-0.4-1.5c0-0.8,0.3-1.5,1-2
			C650.3,274.6,651.2,274.3,652.3,274.3z M650.5,282.9c0,0.4,0.2,0.8,0.5,1s0.7,0.4,1.3,0.4c0.6,0,1-0.1,1.3-0.4s0.4-0.6,0.4-1
			c0-0.3-0.1-0.7-0.4-1s-0.8-0.6-1.4-1C651.1,281.5,650.5,282.1,650.5,282.9z M652.3,276.1c-0.4,0-0.7,0.1-1,0.3s-0.4,0.5-0.4,0.8
			c0,0.3,0.1,0.6,0.3,0.8c0.2,0.2,0.6,0.5,1.1,0.8c0.5-0.2,0.9-0.5,1.1-0.7s0.3-0.5,0.3-0.9c0-0.4-0.1-0.6-0.4-0.9
			C653,276.2,652.7,276.1,652.3,276.1z"/>
	</g>
	<g>
		<path class="st1" d="M604.1,345.1c0,0.8-0.3,1.5-0.9,2s-1.4,0.8-2.5,0.9v1.6h-1.1v-1.6c-1.3,0-2.4-0.2-3.3-0.7v-2.1
			c0.5,0.2,1,0.4,1.6,0.6s1.2,0.3,1.7,0.3v-2.4l-0.5-0.2c-1-0.4-1.8-0.8-2.2-1.3s-0.6-1.1-0.6-1.8c0-0.8,0.3-1.4,0.9-1.9
			s1.4-0.8,2.5-0.9v-1.2h1.1v1.2c1.2,0.1,2.3,0.3,3.2,0.7l-0.7,1.8c-0.8-0.3-1.6-0.5-2.5-0.6v2.3c1,0.4,1.7,0.7,2.2,1
			s0.7,0.6,0.9,0.9S604.1,344.7,604.1,345.1z M598.6,340.5c0,0.2,0.1,0.4,0.2,0.6s0.4,0.3,0.8,0.5v-1.8
			C598.9,339.8,598.6,340.1,598.6,340.5z M601.7,345.3c0-0.2-0.1-0.4-0.3-0.6s-0.4-0.3-0.8-0.5v1.9
			C601.3,346.1,601.7,345.8,601.7,345.3z"/>
		<path class="st1" d="M612.9,348.7h-8V347l2.9-2.9c0.8-0.9,1.4-1.5,1.7-1.8s0.4-0.6,0.6-0.9s0.2-0.6,0.2-0.9c0-0.5-0.1-0.8-0.4-1
			s-0.6-0.3-1-0.3c-0.4,0-0.9,0.1-1.3,0.3s-0.9,0.5-1.3,0.9l-1.3-1.6c0.6-0.5,1-0.8,1.4-1s0.8-0.4,1.2-0.5s0.9-0.2,1.5-0.2
			c0.7,0,1.3,0.1,1.9,0.4s1,0.6,1.3,1.1s0.5,1,0.5,1.6c0,0.5-0.1,1-0.3,1.5s-0.5,0.9-0.9,1.4s-1.1,1.2-2.1,2.1l-1.5,1.4v0.1h5V348.7
			z"/>
		<path class="st1" d="M621.2,339.9c0,0.7-0.2,1.3-0.6,1.8s-1,0.8-1.8,1v0c0.9,0.1,1.6,0.4,2.1,0.8s0.7,1,0.7,1.8
			c0,1.1-0.4,2-1.2,2.6s-1.9,0.9-3.4,0.9c-1.2,0-2.3-0.2-3.3-0.6v-2.1c0.4,0.2,0.9,0.4,1.5,0.5s1.1,0.2,1.6,0.2
			c0.8,0,1.4-0.1,1.8-0.4s0.6-0.7,0.6-1.3c0-0.5-0.2-0.9-0.7-1.1s-1.1-0.3-2.1-0.3h-0.9v-1.9h0.9c0.9,0,1.5-0.1,1.9-0.3
			s0.6-0.6,0.6-1.2c0-0.9-0.5-1.3-1.6-1.3c-0.4,0-0.8,0.1-1.1,0.2s-0.8,0.3-1.3,0.6l-1.1-1.7c1-0.8,2.3-1.1,3.7-1.1
			c1.2,0,2.1,0.2,2.8,0.7S621.2,339,621.2,339.9z"/>
		<path class="st1" d="M626.3,337.1c1.1,0,2,0.2,2.6,0.7s1,1.2,1,2c0,0.6-0.2,1.1-0.5,1.6s-0.8,0.9-1.6,1.2c0.9,0.5,1.5,0.9,1.8,1.4
			s0.6,1,0.6,1.6c0,0.9-0.4,1.7-1.1,2.3s-1.7,0.9-2.9,0.9c-1.2,0-2.2-0.3-2.9-0.8s-1.1-1.3-1.1-2.3c0-0.7,0.2-1.2,0.5-1.7
			s0.9-1,1.7-1.3c-0.7-0.4-1.1-0.9-1.4-1.3s-0.4-1-0.4-1.5c0-0.8,0.3-1.5,1-2S625.2,337.1,626.3,337.1z M624.5,345.7
			c0,0.4,0.2,0.8,0.5,1s0.7,0.4,1.3,0.4c0.6,0,1-0.1,1.3-0.4s0.4-0.6,0.4-1c0-0.3-0.1-0.7-0.4-1s-0.8-0.6-1.4-1
			C625.1,344.3,624.5,344.9,624.5,345.7z M626.3,338.9c-0.4,0-0.7,0.1-1,0.3s-0.4,0.5-0.4,0.8c0,0.3,0.1,0.6,0.3,0.8
			s0.6,0.5,1.1,0.8c0.5-0.2,0.9-0.5,1.1-0.7s0.3-0.5,0.3-0.9c0-0.4-0.1-0.6-0.4-0.9S626.7,338.9,626.3,338.9z"/>
		<path class="st1" d="M631.4,347.6c0-0.4,0.1-0.8,0.4-1s0.6-0.3,1-0.3c0.4,0,0.8,0.1,1,0.3s0.4,0.6,0.4,1c0,0.4-0.1,0.7-0.4,1
			s-0.6,0.4-1,0.4c-0.4,0-0.8-0.1-1-0.3S631.4,348,631.4,347.6z"/>
		<path class="st1" d="M639.4,341.4c1.1,0,2,0.3,2.6,0.9s1,1.5,1,2.5c0,1.3-0.4,2.3-1.2,2.9s-1.9,1-3.4,1c-1.3,0-2.3-0.2-3.1-0.6
			v-2.1c0.4,0.2,0.9,0.4,1.4,0.5s1.1,0.2,1.6,0.2c1.5,0,2.2-0.6,2.2-1.8c0-1.2-0.8-1.7-2.3-1.7c-0.3,0-0.6,0-0.9,0.1
			s-0.6,0.1-0.8,0.2l-1-0.5l0.4-5.8h6.2v2h-4.1l-0.2,2.2l0.3-0.1C638.5,341.5,638.9,341.4,639.4,341.4z"/>
		<path class="st1" d="M651.5,339.9c0,0.7-0.2,1.3-0.6,1.8s-1,0.8-1.8,1v0c0.9,0.1,1.6,0.4,2.1,0.8s0.7,1,0.7,1.8
			c0,1.1-0.4,2-1.2,2.6s-1.9,0.9-3.4,0.9c-1.2,0-2.3-0.2-3.3-0.6v-2.1c0.4,0.2,0.9,0.4,1.5,0.5s1.1,0.2,1.6,0.2
			c0.8,0,1.4-0.1,1.8-0.4s0.6-0.7,0.6-1.3c0-0.5-0.2-0.9-0.7-1.1s-1.1-0.3-2.1-0.3h-0.9v-1.9h0.9c0.9,0,1.5-0.1,1.9-0.3
			s0.6-0.6,0.6-1.2c0-0.9-0.5-1.3-1.6-1.3c-0.4,0-0.8,0.1-1.1,0.2s-0.8,0.3-1.3,0.6l-1.1-1.7c1-0.8,2.3-1.1,3.7-1.1
			c1.2,0,2.1,0.2,2.8,0.7S651.5,339,651.5,339.9z"/>
		<path class="st1" d="M652.6,343.9c0-2.3,0.5-3.9,1.4-5s2.4-1.7,4.3-1.7c0.7,0,1.2,0,1.5,0.1v1.9c-0.5-0.1-0.9-0.2-1.4-0.2
			c-0.8,0-1.5,0.1-2,0.4s-0.9,0.6-1.2,1.1s-0.4,1.2-0.5,2.1h0.1c0.5-0.9,1.3-1.3,2.5-1.3c1,0,1.8,0.3,2.4,1s0.9,1.5,0.9,2.7
			c0,1.2-0.3,2.2-1,2.9s-1.6,1.1-2.9,1.1c-0.8,0-1.6-0.2-2.2-0.6s-1.1-1-1.5-1.7S652.6,344.9,652.6,343.9z M656.8,346.9
			c0.5,0,0.9-0.2,1.2-0.5s0.4-0.8,0.4-1.5c0-0.6-0.1-1-0.4-1.3s-0.6-0.5-1.2-0.5c-0.5,0-0.9,0.2-1.3,0.5s-0.5,0.7-0.5,1.1
			c0,0.6,0.2,1.1,0.5,1.6S656.3,346.9,656.8,346.9z"/>
	</g>
	<g>
		<path class="st1" d="M197.9,399.1h-2.7v-10.6h-3.5v-2.3h9.7v2.3h-3.5V399.1z"/>
		<path class="st1" d="M214.6,392.7c0,2.1-0.5,3.8-1.6,4.9s-2.6,1.7-4.5,1.7s-3.5-0.6-4.5-1.7s-1.6-2.8-1.6-4.9s0.5-3.8,1.6-4.9
			c1.1-1.1,2.6-1.7,4.5-1.7s3.5,0.6,4.5,1.7C214,388.9,214.6,390.6,214.6,392.7z M205.2,392.7c0,1.4,0.3,2.5,0.8,3.2
			s1.4,1.1,2.4,1.1c2.2,0,3.3-1.4,3.3-4.3c0-2.9-1.1-4.3-3.2-4.3c-1.1,0-1.9,0.4-2.5,1.1C205.5,390.2,205.2,391.2,205.2,392.7z"/>
		<path class="st1" d="M221.7,399.1H219v-10.6h-3.5v-2.3h9.7v2.3h-3.5V399.1z"/>
		<path class="st1" d="M234.6,399.1l-0.9-3.1H229l-0.9,3.1h-2.9l4.5-12.9h3.3l4.6,12.9H234.6z M233,393.8c-0.9-2.8-1.3-4.3-1.5-4.7
			c-0.1-0.4-0.2-0.7-0.2-0.9c-0.2,0.8-0.7,2.6-1.7,5.6H233z"/>
		<path class="st1" d="M238.7,399.1v-12.8h2.7v10.6h5.2v2.2H238.7z"/>
		<path class="st1" d="M252.7,399.1v-12.8h2.7v12.8H252.7z"/>
		<path class="st1" d="M269.6,399.1h-3.5l-5.6-9.7h-0.1c0.1,1.7,0.2,2.9,0.2,3.7v6h-2.4v-12.8h3.4l5.6,9.6h0.1
			c-0.1-1.7-0.1-2.9-0.1-3.5v-6.1h2.5V399.1z"/>
		<path class="st1" d="M277.2,391.9h5.1v6.7c-0.8,0.3-1.6,0.5-2.3,0.6c-0.7,0.1-1.5,0.2-2.2,0.2c-1.9,0-3.4-0.6-4.4-1.7
			c-1-1.1-1.5-2.8-1.5-4.9c0-2.1,0.6-3.7,1.8-4.9c1.2-1.2,2.8-1.7,4.9-1.7c1.3,0,2.6,0.3,3.8,0.8l-0.9,2.2c-0.9-0.5-1.9-0.7-2.9-0.7
			c-1.2,0-2.1,0.4-2.8,1.2s-1.1,1.9-1.1,3.2c0,1.4,0.3,2.5,0.9,3.2c0.6,0.7,1.4,1.1,2.5,1.1c0.6,0,1.1-0.1,1.7-0.2v-2.7h-2.4V391.9z
			"/>
		<path class="st1" d="M287.7,394.2v4.9h-2.7v-12.8h3.7c1.7,0,3,0.3,3.9,1c0.8,0.6,1.3,1.6,1.3,2.9c0,0.8-0.2,1.4-0.6,2
			c-0.4,0.6-1,1-1.8,1.4c1.9,2.9,3.2,4.8,3.8,5.6h-3l-3.1-4.9H287.7z M287.7,392h0.9c0.9,0,1.5-0.1,1.9-0.4s0.6-0.7,0.6-1.4
			c0-0.6-0.2-1-0.6-1.3c-0.4-0.3-1.1-0.4-1.9-0.4h-0.8V392z"/>
		<path class="st1" d="M303.8,399.1h-7.4v-12.8h7.4v2.2h-4.7v2.8h4.4v2.2h-4.4v3.3h4.7V399.1z"/>
		<path class="st1" d="M313.6,395.6c0,1.2-0.4,2.1-1.3,2.7c-0.8,0.7-2,1-3.5,1c-1.4,0-2.6-0.3-3.6-0.8V396c0.9,0.4,1.6,0.7,2.2,0.8
			s1.2,0.2,1.6,0.2c0.6,0,1.1-0.1,1.4-0.3s0.5-0.6,0.5-1c0-0.3-0.1-0.5-0.2-0.7c-0.1-0.2-0.3-0.4-0.6-0.6c-0.3-0.2-0.8-0.5-1.7-0.9
			c-0.8-0.4-1.4-0.7-1.8-1.1s-0.7-0.7-0.9-1.2s-0.4-1-0.4-1.6c0-1.1,0.4-2,1.2-2.7s1.8-1,3.2-1c0.7,0,1.3,0.1,1.9,0.2
			c0.6,0.2,1.2,0.4,1.9,0.7l-0.9,2.1c-0.7-0.3-1.3-0.5-1.7-0.6c-0.4-0.1-0.9-0.2-1.3-0.2c-0.5,0-0.9,0.1-1.2,0.4s-0.4,0.6-0.4,0.9
			c0,0.2,0.1,0.5,0.2,0.6c0.1,0.2,0.3,0.4,0.5,0.5c0.2,0.2,0.8,0.5,1.7,0.9c1.2,0.6,2,1.2,2.5,1.7
			C313.4,394,313.6,394.7,313.6,395.6z"/>
		<path class="st1" d="M327.1,392.7c0,2.1-0.5,3.8-1.6,4.9s-2.6,1.7-4.5,1.7s-3.5-0.6-4.5-1.7s-1.6-2.8-1.6-4.9s0.5-3.8,1.6-4.9
			c1.1-1.1,2.6-1.7,4.5-1.7s3.5,0.6,4.5,1.7C326.6,388.9,327.1,390.6,327.1,392.7z M317.7,392.7c0,1.4,0.3,2.5,0.8,3.2
			s1.4,1.1,2.4,1.1c2.2,0,3.3-1.4,3.3-4.3c0-2.9-1.1-4.3-3.2-4.3c-1.1,0-1.9,0.4-2.5,1.1C318,390.2,317.7,391.2,317.7,392.7z"/>
		<path class="st1" d="M336.9,395.6c0,1.2-0.4,2.1-1.3,2.7c-0.8,0.7-2,1-3.5,1c-1.4,0-2.6-0.3-3.6-0.8V396c0.9,0.4,1.6,0.7,2.2,0.8
			s1.2,0.2,1.6,0.2c0.6,0,1.1-0.1,1.4-0.3s0.5-0.6,0.5-1c0-0.3-0.1-0.5-0.2-0.7c-0.1-0.2-0.3-0.4-0.6-0.6c-0.3-0.2-0.8-0.5-1.7-0.9
			c-0.8-0.4-1.4-0.7-1.8-1.1s-0.7-0.7-0.9-1.2s-0.4-1-0.4-1.6c0-1.1,0.4-2,1.2-2.7s1.8-1,3.2-1c0.7,0,1.3,0.1,1.9,0.2
			c0.6,0.2,1.2,0.4,1.9,0.7l-0.9,2.1c-0.7-0.3-1.3-0.5-1.7-0.6c-0.4-0.1-0.9-0.2-1.3-0.2c-0.5,0-0.9,0.1-1.2,0.4s-0.4,0.6-0.4,0.9
			c0,0.2,0.1,0.5,0.2,0.6c0.1,0.2,0.3,0.4,0.5,0.5c0.2,0.2,0.8,0.5,1.7,0.9c1.2,0.6,2,1.2,2.5,1.7
			C336.7,394,336.9,394.7,336.9,395.6z"/>
		<path class="st1" d="M177.5,419.1h-7.4v-12.8h7.4v2.2h-4.7v2.8h4.4v2.2h-4.4v3.3h4.7V419.1z"/>
		<path class="st1" d="M187.3,415.6c0,1.2-0.4,2.1-1.3,2.7c-0.8,0.7-2,1-3.5,1c-1.4,0-2.6-0.3-3.6-0.8V416c0.9,0.4,1.6,0.7,2.2,0.8
			s1.2,0.2,1.6,0.2c0.6,0,1.1-0.1,1.4-0.3s0.5-0.6,0.5-1c0-0.3-0.1-0.5-0.2-0.7c-0.1-0.2-0.3-0.4-0.6-0.6c-0.3-0.2-0.8-0.5-1.7-0.9
			c-0.8-0.4-1.4-0.7-1.8-1.1s-0.7-0.7-0.9-1.2s-0.4-1-0.4-1.6c0-1.1,0.4-2,1.2-2.7s1.8-1,3.2-1c0.7,0,1.3,0.1,1.9,0.2
			c0.6,0.2,1.2,0.4,1.9,0.7l-0.9,2.1c-0.7-0.3-1.3-0.5-1.7-0.6c-0.4-0.1-0.9-0.2-1.3-0.2c-0.5,0-0.9,0.1-1.2,0.4s-0.4,0.6-0.4,0.9
			c0,0.2,0.1,0.5,0.2,0.6c0.1,0.2,0.3,0.4,0.5,0.5c0.2,0.2,0.8,0.5,1.7,0.9c1.2,0.6,2,1.2,2.5,1.7
			C187.1,414,187.3,414.7,187.3,415.6z"/>
		<path class="st1" d="M194.2,419.1h-2.7v-10.6h-3.5v-2.3h9.7v2.3h-3.5V419.1z"/>
		<path class="st1" d="M209.6,406.3v8.3c0,0.9-0.2,1.8-0.6,2.5c-0.4,0.7-1,1.3-1.8,1.6s-1.8,0.6-2.8,0.6c-1.7,0-2.9-0.4-3.8-1.3
			s-1.4-2-1.4-3.5v-8.3h2.7v7.9c0,1,0.2,1.7,0.6,2.2s1.1,0.7,2,0.7c0.9,0,1.5-0.2,1.9-0.7c0.4-0.5,0.6-1.2,0.6-2.2v-7.8H209.6z"/>
		<path class="st1" d="M223,412.6c0,2.1-0.6,3.7-1.8,4.9c-1.2,1.1-2.9,1.7-5.2,1.7h-3.6v-12.8h4c2.1,0,3.7,0.6,4.9,1.7
			S223,410.6,223,412.6z M220.2,412.6c0-2.8-1.2-4.1-3.7-4.1h-1.5v8.4h1.2C218.9,416.9,220.2,415.5,220.2,412.6z"/>
		<path class="st1" d="M225.2,419.1v-12.8h2.7v12.8H225.2z"/>
		<path class="st1" d="M242.4,412.7c0,2.1-0.5,3.8-1.6,4.9s-2.6,1.7-4.5,1.7s-3.5-0.6-4.5-1.7s-1.6-2.8-1.6-4.9s0.5-3.8,1.6-4.9
			c1.1-1.1,2.6-1.7,4.5-1.7s3.5,0.6,4.5,1.7C241.9,408.9,242.4,410.6,242.4,412.7z M233,412.7c0,1.4,0.3,2.5,0.8,3.2
			s1.4,1.1,2.4,1.1c2.2,0,3.3-1.4,3.3-4.3c0-2.9-1.1-4.3-3.2-4.3c-1.1,0-1.9,0.4-2.5,1.1C233.3,410.2,233,411.2,233,412.7z"/>
		<path class="st1" d="M253.8,419.1h-2.7v-10.6h-3.5v-2.3h9.7v2.3h-3.5V419.1z"/>
		<path class="st1" d="M261.5,414.2v4.9h-2.7v-12.8h3.7c1.7,0,3,0.3,3.9,1c0.8,0.6,1.3,1.6,1.3,2.9c0,0.8-0.2,1.4-0.6,2
			c-0.4,0.6-1,1-1.8,1.4c1.9,2.9,3.2,4.8,3.8,5.6h-3l-3.1-4.9H261.5z M261.5,412h0.9c0.9,0,1.5-0.1,1.9-0.4s0.6-0.7,0.6-1.4
			c0-0.6-0.2-1-0.6-1.3c-0.4-0.3-1.1-0.4-1.9-0.4h-0.8V412z"/>
		<path class="st1" d="M278.1,419.1l-0.9-3.1h-4.7l-0.9,3.1h-2.9l4.5-12.9h3.3l4.6,12.9H278.1z M276.5,413.8
			c-0.9-2.8-1.3-4.3-1.5-4.7c-0.1-0.4-0.2-0.7-0.2-0.9c-0.2,0.8-0.7,2.6-1.7,5.6H276.5z"/>
		<path class="st1" d="M293.6,419.1h-3.5l-5.6-9.7h-0.1c0.1,1.7,0.2,2.9,0.2,3.7v6h-2.4v-12.8h3.4l5.6,9.6h0.1
			c-0.1-1.7-0.1-2.9-0.1-3.5v-6.1h2.5V419.1z"/>
		<path class="st1" d="M304,415.6c0,1.2-0.4,2.1-1.3,2.7c-0.8,0.7-2,1-3.5,1c-1.4,0-2.6-0.3-3.6-0.8V416c0.9,0.4,1.6,0.7,2.2,0.8
			s1.2,0.2,1.6,0.2c0.6,0,1.1-0.1,1.4-0.3s0.5-0.6,0.5-1c0-0.3-0.1-0.5-0.2-0.7c-0.1-0.2-0.3-0.4-0.6-0.6c-0.3-0.2-0.8-0.5-1.7-0.9
			c-0.8-0.4-1.4-0.7-1.8-1.1s-0.7-0.7-0.9-1.2s-0.4-1-0.4-1.6c0-1.1,0.4-2,1.2-2.7s1.8-1,3.2-1c0.7,0,1.3,0.1,1.9,0.2
			c0.6,0.2,1.2,0.4,1.9,0.7l-0.9,2.1c-0.7-0.3-1.3-0.5-1.7-0.6c-0.4-0.1-0.9-0.2-1.3-0.2c-0.5,0-0.9,0.1-1.2,0.4s-0.4,0.6-0.4,0.9
			c0,0.2,0.1,0.5,0.2,0.6c0.1,0.2,0.3,0.4,0.5,0.5c0.2,0.2,0.8,0.5,1.7,0.9c1.2,0.6,2,1.2,2.5,1.7C303.7,414,304,414.7,304,415.6z"
			/>
		<path class="st1" d="M314.7,410.3c0,1.4-0.4,2.4-1.3,3.2s-2.1,1.1-3.7,1.1h-1.2v4.6h-2.7v-12.8h4.1c1.6,0,2.7,0.3,3.6,1
			C314.3,408,314.7,409,314.7,410.3z M308.6,412.3h0.9c0.8,0,1.5-0.2,1.9-0.5s0.6-0.8,0.6-1.4c0-0.6-0.2-1.1-0.5-1.4
			c-0.3-0.3-0.9-0.5-1.6-0.5h-1.2V412.3z"/>
		<path class="st1" d="M328.4,412.7c0,2.1-0.5,3.8-1.6,4.9s-2.6,1.7-4.5,1.7s-3.5-0.6-4.5-1.7s-1.6-2.8-1.6-4.9s0.5-3.8,1.6-4.9
			c1.1-1.1,2.6-1.7,4.5-1.7s3.5,0.6,4.5,1.7C327.8,408.9,328.4,410.6,328.4,412.7z M319,412.7c0,1.4,0.3,2.5,0.8,3.2
			s1.4,1.1,2.4,1.1c2.2,0,3.3-1.4,3.3-4.3c0-2.9-1.1-4.3-3.2-4.3c-1.1,0-1.9,0.4-2.5,1.1C319.3,410.2,319,411.2,319,412.7z"/>
		<path class="st1" d="M333.3,414.2v4.9h-2.7v-12.8h3.7c1.7,0,3,0.3,3.9,1c0.8,0.6,1.3,1.6,1.3,2.9c0,0.8-0.2,1.4-0.6,2
			c-0.4,0.6-1,1-1.8,1.4c1.9,2.9,3.2,4.8,3.8,5.6h-3l-3.1-4.9H333.3z M333.3,412h0.9c0.9,0,1.5-0.1,1.9-0.4s0.6-0.7,0.6-1.4
			c0-0.6-0.2-1-0.6-1.3c-0.4-0.3-1.1-0.4-1.9-0.4h-0.8V412z"/>
		<path class="st1" d="M347,419.1h-2.7v-10.6h-3.5v-2.3h9.7v2.3H347V419.1z"/>
		<path class="st1" d="M359.4,419.1H352v-12.8h7.4v2.2h-4.7v2.8h4.4v2.2h-4.4v3.3h4.7V419.1z"/>
	</g>
	<g>
		<path class="st1" d="M739,111.9h-3v-11.8h-3.9v-2.5h10.8v2.5H739V111.9z"/>
		<path class="st1" d="M757.6,104.7c0,2.4-0.6,4.2-1.8,5.4s-2.9,1.9-5,1.9s-3.9-0.6-5-1.9s-1.8-3.1-1.8-5.5s0.6-4.2,1.8-5.4
			c1.2-1.3,2.9-1.9,5.1-1.9c2.2,0,3.9,0.6,5,1.9S757.6,102.4,757.6,104.7z M747.1,104.7c0,1.6,0.3,2.8,0.9,3.6s1.5,1.2,2.7,1.2
			c2.4,0,3.6-1.6,3.6-4.8c0-3.2-1.2-4.8-3.6-4.8c-1.2,0-2.1,0.4-2.7,1.2C747.5,101.9,747.1,103.1,747.1,104.7z"/>
		<path class="st1" d="M765.5,111.9h-3v-11.8h-3.9v-2.5h10.8v2.5h-3.9V111.9z"/>
		<path class="st1" d="M779.8,111.9l-1-3.4h-5.2l-1,3.4h-3.3l5-14.3h3.7l5.1,14.3H779.8z M778.1,106c-1-3.1-1.5-4.8-1.6-5.2
			c-0.1-0.4-0.2-0.7-0.3-1c-0.2,0.8-0.8,2.9-1.8,6.2H778.1z"/>
		<path class="st1" d="M784.4,111.9V97.6h3v11.8h5.8v2.5H784.4z"/>
	</g>
	<g>
		<path class="st1" d="M738.5,223.9c0,0.8-0.3,1.5-0.9,2c-0.6,0.5-1.4,0.8-2.5,0.9v1.6H734v-1.6c-1.3,0-2.4-0.2-3.3-0.7v-2.1
			c0.5,0.2,1,0.4,1.6,0.6c0.6,0.2,1.2,0.3,1.7,0.3v-2.4l-0.5-0.2c-1-0.4-1.8-0.8-2.2-1.3s-0.6-1.1-0.6-1.8c0-0.8,0.3-1.4,0.9-1.9
			c0.6-0.5,1.4-0.8,2.5-0.9v-1.2h1.1v1.2c1.2,0.1,2.3,0.3,3.2,0.7l-0.7,1.8c-0.8-0.3-1.6-0.5-2.5-0.6v2.3c1,0.4,1.7,0.7,2.2,1
			s0.7,0.6,0.9,0.9C738.4,223.1,738.5,223.5,738.5,223.9z M733,219.3c0,0.2,0.1,0.4,0.2,0.6c0.2,0.1,0.4,0.3,0.8,0.5v-1.8
			C733.3,218.6,733,218.9,733,219.3z M736.1,224.1c0-0.2-0.1-0.4-0.3-0.6c-0.2-0.2-0.4-0.3-0.8-0.5v1.9
			C735.7,224.9,736.1,224.6,736.1,224.1z"/>
		<path class="st1" d="M747.5,225.1h-1.4v2.4h-2.4v-2.4h-4.9v-1.7l5-7.4h2.2v7.2h1.4V225.1z M743.8,223.3v-1.9c0-0.3,0-0.8,0-1.4
			c0-0.6,0-1,0.1-1.1h-0.1c-0.2,0.4-0.4,0.8-0.7,1.2l-2.1,3.2H743.8z"/>
		<path class="st1" d="M755.6,218.6c0,0.7-0.2,1.3-0.6,1.8c-0.4,0.5-1,0.8-1.8,1v0c0.9,0.1,1.6,0.4,2.1,0.8c0.5,0.4,0.7,1,0.7,1.8
			c0,1.1-0.4,2-1.2,2.6s-1.9,0.9-3.4,0.9c-1.2,0-2.3-0.2-3.3-0.6V225c0.4,0.2,0.9,0.4,1.5,0.5s1.1,0.2,1.6,0.2
			c0.8,0,1.4-0.1,1.8-0.4c0.4-0.3,0.6-0.7,0.6-1.3c0-0.5-0.2-0.9-0.7-1.1s-1.1-0.3-2.1-0.3h-0.9v-1.9h0.9c0.9,0,1.5-0.1,1.9-0.3
			c0.4-0.2,0.6-0.6,0.6-1.2c0-0.9-0.5-1.3-1.6-1.3c-0.4,0-0.8,0.1-1.1,0.2c-0.4,0.1-0.8,0.3-1.3,0.6l-1.1-1.7c1-0.8,2.3-1.1,3.7-1.1
			c1.2,0,2.1,0.2,2.8,0.7C755.2,217.1,755.6,217.8,755.6,218.6z"/>
		<path class="st1" d="M765,225.1h-1.4v2.4h-2.4v-2.4h-4.9v-1.7l5-7.4h2.2v7.2h1.4V225.1z M761.3,223.3v-1.9c0-0.3,0-0.8,0-1.4
			c0-0.6,0-1,0.1-1.1h-0.1c-0.2,0.4-0.4,0.8-0.7,1.2l-2.1,3.2H761.3z"/>
		<path class="st1" d="M765.8,226.4c0-0.4,0.1-0.8,0.4-1s0.6-0.3,1-0.3c0.4,0,0.8,0.1,1,0.3c0.2,0.2,0.4,0.6,0.4,1
			c0,0.4-0.1,0.7-0.4,1c-0.2,0.2-0.6,0.4-1,0.4c-0.4,0-0.8-0.1-1-0.3C765.9,227.1,765.8,226.8,765.8,226.4z"/>
		<path class="st1" d="M769.6,222.7c0-2.3,0.5-3.9,1.4-5c1-1.1,2.4-1.7,4.3-1.7c0.7,0,1.2,0,1.5,0.1v1.9c-0.5-0.1-0.9-0.2-1.4-0.2
			c-0.8,0-1.5,0.1-2,0.4s-0.9,0.6-1.2,1.1c-0.3,0.5-0.4,1.2-0.5,2.1h0.1c0.5-0.9,1.3-1.3,2.5-1.3c1,0,1.8,0.3,2.4,1s0.9,1.5,0.9,2.7
			c0,1.2-0.3,2.2-1,2.9s-1.6,1.1-2.9,1.1c-0.8,0-1.6-0.2-2.2-0.6c-0.6-0.4-1.1-1-1.5-1.7C769.7,224.6,769.6,223.7,769.6,222.7z
			 M773.7,225.7c0.5,0,0.9-0.2,1.2-0.5c0.3-0.3,0.4-0.8,0.4-1.5c0-0.6-0.1-1-0.4-1.3s-0.6-0.5-1.2-0.5c-0.5,0-0.9,0.2-1.3,0.5
			c-0.3,0.3-0.5,0.7-0.5,1.1c0,0.6,0.2,1.1,0.5,1.6C772.8,225.5,773.2,225.7,773.7,225.7z"/>
		<path class="st1" d="M786.6,225.1h-1.4v2.4h-2.4v-2.4H778v-1.7l5-7.4h2.2v7.2h1.4V225.1z M782.9,223.3v-1.9c0-0.3,0-0.8,0-1.4
			c0-0.6,0-1,0.1-1.1h-0.1c-0.2,0.4-0.4,0.8-0.7,1.2l-2.1,3.2H782.9z"/>
		<path class="st1" d="M795.1,227.5h-8v-1.7l2.9-2.9c0.8-0.9,1.4-1.5,1.7-1.8c0.3-0.3,0.4-0.6,0.6-0.9c0.1-0.3,0.2-0.6,0.2-0.9
			c0-0.5-0.1-0.8-0.4-1c-0.3-0.2-0.6-0.3-1-0.3c-0.4,0-0.9,0.1-1.3,0.3c-0.4,0.2-0.9,0.5-1.3,0.9l-1.3-1.6c0.6-0.5,1-0.8,1.4-1
			c0.4-0.2,0.8-0.4,1.2-0.5s0.9-0.2,1.5-0.2c0.7,0,1.3,0.1,1.9,0.4s1,0.6,1.3,1.1c0.3,0.5,0.5,1,0.5,1.6c0,0.5-0.1,1-0.3,1.5
			c-0.2,0.5-0.5,0.9-0.9,1.4c-0.4,0.5-1.1,1.2-2.1,2.1l-1.5,1.4v0.1h5V227.5z"/>
	</g>
	<g>
		<path class="st1" d="M742.8,282.3c0,0.8-0.3,1.5-0.9,2c-0.6,0.5-1.4,0.8-2.5,0.9v1.6h-1.1v-1.6c-1.3,0-2.4-0.2-3.3-0.7v-2.1
			c0.5,0.2,1,0.4,1.6,0.6c0.6,0.2,1.2,0.3,1.7,0.3V281l-0.5-0.2c-1-0.4-1.8-0.8-2.2-1.3s-0.6-1.1-0.6-1.8c0-0.8,0.3-1.4,0.9-1.9
			c0.6-0.5,1.4-0.8,2.5-0.9v-1.2h1.1v1.2c1.2,0.1,2.3,0.3,3.2,0.7l-0.7,1.8c-0.8-0.3-1.6-0.5-2.5-0.6v2.3c1,0.4,1.7,0.7,2.2,1
			s0.7,0.6,0.9,0.9C742.7,281.5,742.8,281.9,742.8,282.3z M737.3,277.7c0,0.2,0.1,0.4,0.2,0.6c0.2,0.1,0.4,0.3,0.8,0.5v-1.8
			C737.7,277,737.3,277.3,737.3,277.7z M740.5,282.5c0-0.2-0.1-0.4-0.3-0.6c-0.2-0.2-0.4-0.3-0.8-0.5v1.9
			C740.1,283.3,740.5,283,740.5,282.5z"/>
		<path class="st1" d="M743.6,281.1c0-2.3,0.5-3.9,1.4-5c1-1.1,2.4-1.7,4.3-1.7c0.7,0,1.2,0,1.5,0.1v1.9c-0.5-0.1-0.9-0.2-1.4-0.2
			c-0.8,0-1.5,0.1-2,0.4s-0.9,0.6-1.2,1.1c-0.3,0.5-0.4,1.2-0.5,2.1h0.1c0.5-0.9,1.3-1.3,2.5-1.3c1,0,1.8,0.3,2.4,1s0.9,1.5,0.9,2.7
			c0,1.2-0.3,2.2-1,2.9s-1.6,1.1-2.9,1.1c-0.8,0-1.6-0.2-2.2-0.6c-0.6-0.4-1.1-1-1.5-1.7C743.8,283,743.6,282.1,743.6,281.1z
			 M747.7,284.1c0.5,0,0.9-0.2,1.2-0.5c0.3-0.3,0.4-0.8,0.4-1.5c0-0.6-0.1-1-0.4-1.3s-0.6-0.5-1.2-0.5c-0.5,0-0.9,0.2-1.3,0.5
			c-0.3,0.3-0.5,0.7-0.5,1.1c0,0.6,0.2,1.1,0.5,1.6C746.8,283.9,747.2,284.1,747.7,284.1z"/>
		<path class="st1" d="M756.3,274.3c1.1,0,2,0.2,2.6,0.7c0.7,0.5,1,1.2,1,2c0,0.6-0.2,1.1-0.5,1.6c-0.3,0.5-0.8,0.9-1.6,1.2
			c0.9,0.5,1.5,0.9,1.8,1.4c0.4,0.5,0.6,1,0.6,1.6c0,0.9-0.4,1.7-1.1,2.3s-1.7,0.9-2.9,0.9c-1.2,0-2.2-0.3-2.9-0.8
			c-0.7-0.5-1.1-1.3-1.1-2.3c0-0.7,0.2-1.2,0.5-1.7c0.3-0.5,0.9-1,1.7-1.3c-0.7-0.4-1.1-0.9-1.4-1.3c-0.3-0.5-0.4-1-0.4-1.5
			c0-0.8,0.3-1.5,1-2C754.4,274.6,755.2,274.3,756.3,274.3z M754.6,282.9c0,0.4,0.2,0.8,0.5,1s0.7,0.4,1.3,0.4c0.6,0,1-0.1,1.3-0.4
			s0.4-0.6,0.4-1c0-0.3-0.1-0.7-0.4-1c-0.3-0.3-0.8-0.6-1.4-1C755.1,281.5,754.6,282.1,754.6,282.9z M756.3,276.1
			c-0.4,0-0.7,0.1-1,0.3c-0.3,0.2-0.4,0.5-0.4,0.8c0,0.3,0.1,0.6,0.3,0.8c0.2,0.2,0.6,0.5,1.1,0.8c0.5-0.2,0.9-0.5,1.1-0.7
			s0.3-0.5,0.3-0.9c0-0.4-0.1-0.6-0.4-0.9C757.1,276.2,756.7,276.1,756.3,276.1z"/>
		<path class="st1" d="M761.4,284.8c0-0.4,0.1-0.8,0.4-1s0.6-0.3,1-0.3c0.4,0,0.8,0.1,1,0.3c0.2,0.2,0.4,0.6,0.4,1
			c0,0.4-0.1,0.7-0.4,1c-0.2,0.2-0.6,0.4-1,0.4c-0.4,0-0.8-0.1-1-0.3C761.5,285.5,761.4,285.2,761.4,284.8z"/>
		<path class="st1" d="M771.3,285.9h-2.4v-6.6l0-1.1l0-1.2c-0.4,0.4-0.7,0.7-0.8,0.8l-1.3,1.1l-1.2-1.5l3.7-2.9h2V285.9z"/>
		<path class="st1" d="M781.9,280.2c0,2-0.3,3.5-1,4.4c-0.7,1-1.7,1.4-3,1.4c-1.3,0-2.3-0.5-3-1.5c-0.7-1-1-2.5-1-4.4
			c0-2,0.3-3.5,1-4.5c0.7-1,1.7-1.4,3-1.4c1.3,0,2.3,0.5,3,1.5C781.6,276.8,781.9,278.3,781.9,280.2z M776.4,280.2
			c0,1.4,0.1,2.4,0.4,3s0.6,0.9,1.2,0.9c0.6,0,1-0.3,1.2-0.9s0.4-1.6,0.4-3c0-1.4-0.1-2.4-0.4-3c-0.3-0.6-0.7-0.9-1.2-0.9
			c-0.6,0-1,0.3-1.2,0.9C776.5,277.8,776.4,278.8,776.4,280.2z"/>
		<path class="st1" d="M790.3,277c0,0.7-0.2,1.3-0.6,1.8c-0.4,0.5-1,0.8-1.8,1v0c0.9,0.1,1.6,0.4,2.1,0.8c0.5,0.4,0.7,1,0.7,1.8
			c0,1.1-0.4,2-1.2,2.6s-1.9,0.9-3.4,0.9c-1.2,0-2.3-0.2-3.3-0.6v-2.1c0.4,0.2,0.9,0.4,1.5,0.5s1.1,0.2,1.6,0.2
			c0.8,0,1.4-0.1,1.8-0.4c0.4-0.3,0.6-0.7,0.6-1.3c0-0.5-0.2-0.9-0.7-1.1s-1.1-0.3-2.1-0.3h-0.9v-1.9h0.9c0.9,0,1.5-0.1,1.9-0.3
			c0.4-0.2,0.6-0.6,0.6-1.2c0-0.9-0.5-1.3-1.6-1.3c-0.4,0-0.8,0.1-1.1,0.2c-0.4,0.1-0.8,0.3-1.3,0.6l-1.1-1.7c1-0.8,2.3-1.1,3.7-1.1
			c1.2,0,2.1,0.2,2.8,0.7C790,275.5,790.3,276.2,790.3,277z"/>
	</g>
	<g>
		<path class="st1" d="M742.8,345.1c0,0.8-0.3,1.5-0.9,2c-0.6,0.5-1.4,0.8-2.5,0.9v1.6h-1.1v-1.6c-1.3,0-2.4-0.2-3.3-0.7v-2.1
			c0.5,0.2,1,0.4,1.6,0.6c0.6,0.2,1.2,0.3,1.7,0.3v-2.4l-0.5-0.2c-1-0.4-1.8-0.8-2.2-1.3s-0.6-1.1-0.6-1.8c0-0.8,0.3-1.4,0.9-1.9
			c0.6-0.5,1.4-0.8,2.5-0.9v-1.2h1.1v1.2c1.2,0.1,2.3,0.3,3.2,0.7l-0.7,1.8c-0.8-0.3-1.6-0.5-2.5-0.6v2.3c1,0.4,1.7,0.7,2.2,1
			c0.4,0.3,0.7,0.6,0.9,0.9C742.7,344.3,742.8,344.7,742.8,345.1z M737.3,340.5c0,0.2,0.1,0.4,0.2,0.6c0.2,0.1,0.4,0.3,0.8,0.5v-1.8
			C737.7,339.8,737.3,340.1,737.3,340.5z M740.5,345.3c0-0.2-0.1-0.4-0.3-0.6c-0.2-0.2-0.4-0.3-0.8-0.5v1.9
			C740.1,346.1,740.5,345.8,740.5,345.3z"/>
		<path class="st1" d="M743.6,343.9c0-2.3,0.5-3.9,1.4-5c1-1.1,2.4-1.7,4.3-1.7c0.7,0,1.2,0,1.5,0.1v1.9c-0.5-0.1-0.9-0.2-1.4-0.2
			c-0.8,0-1.5,0.1-2,0.4s-0.9,0.6-1.2,1.1c-0.3,0.5-0.4,1.2-0.5,2.1h0.1c0.5-0.9,1.3-1.3,2.5-1.3c1,0,1.8,0.3,2.4,1s0.9,1.5,0.9,2.7
			c0,1.2-0.3,2.2-1,2.9s-1.6,1.1-2.9,1.1c-0.8,0-1.6-0.2-2.2-0.6c-0.6-0.4-1.1-1-1.5-1.7C743.8,345.8,743.6,344.9,743.6,343.9z
			 M747.7,346.9c0.5,0,0.9-0.2,1.2-0.5c0.3-0.3,0.4-0.8,0.4-1.5c0-0.6-0.1-1-0.4-1.3s-0.6-0.5-1.2-0.5c-0.5,0-0.9,0.2-1.3,0.5
			c-0.3,0.3-0.5,0.7-0.5,1.1c0,0.6,0.2,1.1,0.5,1.6C746.8,346.7,747.2,346.9,747.7,346.9z"/>
		<path class="st1" d="M756.3,337.1c1.1,0,2,0.2,2.6,0.7c0.7,0.5,1,1.2,1,2c0,0.6-0.2,1.1-0.5,1.6c-0.3,0.5-0.8,0.9-1.6,1.2
			c0.9,0.5,1.5,0.9,1.8,1.4c0.4,0.5,0.6,1,0.6,1.6c0,0.9-0.4,1.7-1.1,2.3s-1.7,0.9-2.9,0.9c-1.2,0-2.2-0.3-2.9-0.8
			c-0.7-0.5-1.1-1.3-1.1-2.3c0-0.7,0.2-1.2,0.5-1.7c0.3-0.5,0.9-0.9,1.7-1.3c-0.7-0.4-1.1-0.9-1.4-1.3c-0.3-0.5-0.4-1-0.4-1.5
			c0-0.8,0.3-1.5,1-2C754.4,337.4,755.2,337.1,756.3,337.1z M754.6,345.7c0,0.4,0.2,0.8,0.5,1s0.7,0.4,1.3,0.4c0.6,0,1-0.1,1.3-0.4
			s0.4-0.6,0.4-1c0-0.3-0.1-0.7-0.4-1c-0.3-0.3-0.8-0.6-1.4-1C755.1,344.3,754.6,344.9,754.6,345.7z M756.3,338.9
			c-0.4,0-0.7,0.1-1,0.3c-0.3,0.2-0.4,0.5-0.4,0.8c0,0.3,0.1,0.6,0.3,0.8c0.2,0.2,0.6,0.5,1.1,0.8c0.5-0.2,0.9-0.5,1.1-0.7
			s0.3-0.5,0.3-0.9c0-0.4-0.1-0.6-0.4-0.9C757.1,339,756.7,338.9,756.3,338.9z"/>
		<path class="st1" d="M761.4,347.6c0-0.4,0.1-0.8,0.4-1c0.2-0.2,0.6-0.3,1-0.3c0.4,0,0.8,0.1,1,0.3c0.2,0.2,0.4,0.6,0.4,1
			c0,0.4-0.1,0.7-0.4,1c-0.2,0.2-0.6,0.4-1,0.4c-0.4,0-0.8-0.1-1-0.3C761.5,348.3,761.4,348,761.4,347.6z"/>
		<path class="st1" d="M771.3,348.7h-2.4v-6.6l0-1.1l0-1.2c-0.4,0.4-0.7,0.7-0.8,0.8l-1.3,1.1l-1.2-1.5l3.7-2.9h2V348.7z"/>
		<path class="st1" d="M781.9,343c0,2-0.3,3.5-1,4.4c-0.7,1-1.7,1.4-3,1.4c-1.3,0-2.3-0.5-3-1.5c-0.7-1-1-2.4-1-4.4
			c0-2,0.3-3.5,1-4.5c0.7-1,1.7-1.4,3-1.4c1.3,0,2.3,0.5,3,1.5C781.6,339.6,781.9,341.1,781.9,343z M776.4,343c0,1.4,0.1,2.4,0.4,3
			c0.2,0.6,0.6,0.9,1.2,0.9c0.6,0,1-0.3,1.2-0.9c0.2-0.6,0.4-1.6,0.4-3c0-1.4-0.1-2.4-0.4-3c-0.3-0.6-0.7-0.9-1.2-0.9
			c-0.6,0-1,0.3-1.2,0.9C776.5,340.6,776.4,341.6,776.4,343z"/>
		<path class="st1" d="M790.3,339.8c0,0.7-0.2,1.3-0.6,1.8c-0.4,0.5-1,0.8-1.8,1v0c0.9,0.1,1.6,0.4,2.1,0.8c0.5,0.4,0.7,1,0.7,1.8
			c0,1.1-0.4,2-1.2,2.6c-0.8,0.6-1.9,0.9-3.4,0.9c-1.2,0-2.3-0.2-3.3-0.6v-2.1c0.4,0.2,0.9,0.4,1.5,0.5s1.1,0.2,1.6,0.2
			c0.8,0,1.4-0.1,1.8-0.4c0.4-0.3,0.6-0.7,0.6-1.3c0-0.5-0.2-0.9-0.7-1.1c-0.4-0.2-1.1-0.3-2.1-0.3h-0.9v-1.9h0.9
			c0.9,0,1.5-0.1,1.9-0.3c0.4-0.2,0.6-0.6,0.6-1.2c0-0.9-0.5-1.3-1.6-1.3c-0.4,0-0.8,0.1-1.1,0.2c-0.4,0.1-0.8,0.3-1.3,0.6l-1.1-1.7
			c1-0.8,2.3-1.1,3.7-1.1c1.2,0,2.1,0.2,2.8,0.7C790,338.3,790.3,339,790.3,339.8z"/>
	</g>
	<g>
		<g>
			<path class="st1" d="M440.7,404.4c0,0.8-0.3,1.5-0.9,2s-1.4,0.8-2.5,0.9v1.6h-1.1v-1.6c-1.3,0-2.4-0.2-3.3-0.7v-2.1
				c0.5,0.2,1,0.4,1.6,0.6s1.2,0.3,1.7,0.3v-2.4l-0.5-0.2c-1-0.4-1.8-0.8-2.2-1.3s-0.6-1.1-0.6-1.8c0-0.8,0.3-1.4,0.9-1.9
				s1.4-0.8,2.5-0.9v-1.2h1.1v1.2c1.2,0.1,2.3,0.3,3.2,0.7l-0.7,1.8c-0.8-0.3-1.6-0.5-2.5-0.6v2.3c1,0.4,1.7,0.7,2.2,1
				s0.7,0.6,0.9,0.9S440.7,404,440.7,404.4z M435.2,399.8c0,0.2,0.1,0.4,0.2,0.6s0.4,0.3,0.8,0.5V399
				C435.6,399.1,435.2,399.4,435.2,399.8z M438.4,404.5c0-0.2-0.1-0.4-0.3-0.6s-0.4-0.3-0.8-0.5v1.9
				C438,405.3,438.4,405,438.4,404.5z"/>
			<path class="st1" d="M445.7,400.7c1.1,0,2,0.3,2.6,0.9s1,1.5,1,2.5c0,1.3-0.4,2.3-1.2,2.9s-1.9,1-3.4,1c-1.3,0-2.3-0.2-3.1-0.6
				v-2.1c0.4,0.2,0.9,0.4,1.4,0.5s1.1,0.2,1.6,0.2c1.5,0,2.2-0.6,2.2-1.8c0-1.2-0.8-1.7-2.3-1.7c-0.3,0-0.6,0-0.9,0.1
				s-0.6,0.1-0.8,0.2l-1-0.5l0.4-5.8h6.2v2h-4.1l-0.2,2.2l0.3-0.1C444.9,400.7,445.3,400.7,445.7,400.7z"/>
			<path class="st1" d="M458.2,402.3c0,2-0.3,3.5-1,4.4s-1.7,1.4-3,1.4c-1.3,0-2.3-0.5-3-1.5s-1-2.5-1-4.4c0-2,0.3-3.5,1-4.5
				s1.7-1.4,3-1.4c1.3,0,2.3,0.5,3,1.5S458.2,400.4,458.2,402.3z M452.6,402.3c0,1.4,0.1,2.4,0.4,3s0.6,0.9,1.2,0.9
				c0.6,0,1-0.3,1.2-0.9s0.4-1.6,0.4-3c0-1.4-0.1-2.4-0.4-3s-0.7-0.9-1.2-0.9c-0.6,0-1,0.3-1.2,0.9S452.6,400.9,452.6,402.3z"/>
			<path class="st1" d="M467,408h-8v-1.7l2.9-2.9c0.8-0.9,1.4-1.5,1.7-1.8s0.4-0.6,0.6-0.9s0.2-0.6,0.2-0.9c0-0.5-0.1-0.8-0.4-1
				s-0.6-0.3-1-0.3c-0.4,0-0.9,0.1-1.3,0.3s-0.9,0.5-1.3,0.9L459,398c0.6-0.5,1-0.8,1.4-1s0.8-0.4,1.2-0.5s0.9-0.2,1.5-0.2
				c0.7,0,1.3,0.1,1.9,0.4s1,0.6,1.3,1.1s0.5,1,0.5,1.6c0,0.5-0.1,1-0.3,1.5s-0.5,0.9-0.9,1.4s-1.1,1.2-2.1,2.1l-1.5,1.4v0.1h5V408z
				"/>
			<path class="st1" d="M468,406.9c0-0.4,0.1-0.8,0.4-1s0.6-0.3,1-0.3c0.4,0,0.8,0.1,1,0.3s0.4,0.6,0.4,1c0,0.4-0.1,0.7-0.4,1
				s-0.6,0.4-1,0.4c-0.4,0-0.8-0.1-1-0.3S468,407.3,468,406.9z"/>
			<path class="st1" d="M473.1,408l4.3-9.4h-5.6v-2h8.2v1.5l-4.3,9.9H473.1z"/>
			<path class="st1" d="M488.9,405.6h-1.4v2.4h-2.4v-2.4h-4.9V404l5-7.4h2.2v7.2h1.4V405.6z M485.2,403.8v-1.9c0-0.3,0-0.8,0-1.4
				s0-1,0.1-1.1h-0.1c-0.2,0.4-0.4,0.8-0.7,1.2l-2.1,3.2H485.2z"/>
			<path class="st1" d="M489.3,403.1c0-2.3,0.5-3.9,1.4-5s2.4-1.7,4.3-1.7c0.7,0,1.2,0,1.5,0.1v1.9c-0.5-0.1-0.9-0.2-1.4-0.2
				c-0.8,0-1.5,0.1-2,0.4s-0.9,0.6-1.2,1.1s-0.4,1.2-0.5,2.1h0.1c0.5-0.9,1.3-1.3,2.5-1.3c1,0,1.8,0.3,2.4,1s0.9,1.5,0.9,2.7
				c0,1.2-0.3,2.2-1,2.9s-1.6,1.1-2.9,1.1c-0.8,0-1.6-0.2-2.2-0.6s-1.1-1-1.5-1.7S489.3,404.2,489.3,403.1z M493.4,406.2
				c0.5,0,0.9-0.2,1.2-0.5s0.4-0.8,0.4-1.5c0-0.6-0.1-1-0.4-1.3s-0.6-0.5-1.2-0.5c-0.5,0-0.9,0.2-1.3,0.5s-0.5,0.7-0.5,1.1
				c0,0.6,0.2,1.1,0.5,1.6S492.9,406.2,493.4,406.2z"/>
		</g>
	</g>
	<g>
		<g>
			<path class="st1" d="M604.1,404.4c0,0.8-0.3,1.5-0.9,2c-0.6,0.5-1.4,0.8-2.5,0.9v1.6h-1.1v-1.6c-1.3,0-2.4-0.2-3.3-0.7v-2.1
				c0.5,0.2,1,0.4,1.6,0.6c0.6,0.2,1.2,0.3,1.7,0.3v-2.4l-0.5-0.2c-1-0.4-1.8-0.8-2.2-1.3s-0.6-1.1-0.6-1.8c0-0.8,0.3-1.4,0.9-1.9
				c0.6-0.5,1.4-0.8,2.5-0.9v-1.2h1.1v1.2c1.2,0.1,2.3,0.3,3.2,0.7l-0.7,1.8c-0.8-0.3-1.6-0.5-2.5-0.6v2.3c1,0.4,1.7,0.7,2.2,1
				s0.7,0.6,0.9,0.9C604,403.6,604.1,404,604.1,404.4z M598.6,399.8c0,0.2,0.1,0.4,0.2,0.6c0.2,0.1,0.4,0.3,0.8,0.5V399
				C598.9,399.1,598.6,399.4,598.6,399.8z M601.7,404.5c0-0.2-0.1-0.4-0.3-0.6c-0.2-0.2-0.4-0.3-0.8-0.5v1.9
				C601.3,405.3,601.7,405,601.7,404.5z"/>
			<path class="st1" d="M612.9,408h-8v-1.7l2.9-2.9c0.8-0.9,1.4-1.5,1.7-1.8c0.3-0.3,0.4-0.6,0.6-0.9c0.1-0.3,0.2-0.6,0.2-0.9
				c0-0.5-0.1-0.8-0.4-1c-0.3-0.2-0.6-0.3-1-0.3c-0.4,0-0.9,0.1-1.3,0.3c-0.4,0.2-0.9,0.5-1.3,0.9l-1.3-1.6c0.6-0.5,1-0.8,1.4-1
				c0.4-0.2,0.8-0.4,1.2-0.5s0.9-0.2,1.5-0.2c0.7,0,1.3,0.1,1.9,0.4s1,0.6,1.3,1.1c0.3,0.5,0.5,1,0.5,1.6c0,0.5-0.1,1-0.3,1.5
				c-0.2,0.5-0.5,0.9-0.9,1.4c-0.4,0.5-1.1,1.2-2.1,2.1l-1.5,1.4v0.1h5V408z"/>
			<path class="st1" d="M621.2,399.1c0,0.7-0.2,1.3-0.6,1.8c-0.4,0.5-1,0.8-1.8,1v0c0.9,0.1,1.6,0.4,2.1,0.8c0.5,0.4,0.7,1,0.7,1.8
				c0,1.1-0.4,2-1.2,2.6s-1.9,0.9-3.4,0.9c-1.2,0-2.3-0.2-3.3-0.6v-2.1c0.4,0.2,0.9,0.4,1.5,0.5s1.1,0.2,1.6,0.2
				c0.8,0,1.4-0.1,1.8-0.4c0.4-0.3,0.6-0.7,0.6-1.3c0-0.5-0.2-0.9-0.7-1.1s-1.1-0.3-2.1-0.3h-0.9v-1.9h0.9c0.9,0,1.5-0.1,1.9-0.3
				c0.4-0.2,0.6-0.6,0.6-1.2c0-0.9-0.5-1.3-1.6-1.3c-0.4,0-0.8,0.1-1.1,0.2c-0.4,0.1-0.8,0.3-1.3,0.6l-1.1-1.7
				c1-0.8,2.3-1.1,3.7-1.1c1.2,0,2.1,0.2,2.8,0.7C620.8,397.6,621.2,398.3,621.2,399.1z"/>
			<path class="st1" d="M626.3,396.4c1.1,0,2,0.2,2.6,0.7c0.7,0.5,1,1.2,1,2c0,0.6-0.2,1.1-0.5,1.6c-0.3,0.5-0.8,0.9-1.6,1.2
				c0.9,0.5,1.5,0.9,1.8,1.4c0.4,0.5,0.6,1,0.6,1.6c0,0.9-0.4,1.7-1.1,2.3s-1.7,0.9-2.9,0.9c-1.2,0-2.2-0.3-2.9-0.8
				c-0.7-0.5-1.1-1.3-1.1-2.3c0-0.7,0.2-1.2,0.5-1.7c0.3-0.5,0.9-1,1.7-1.3c-0.7-0.4-1.1-0.9-1.4-1.3c-0.3-0.5-0.4-1-0.4-1.5
				c0-0.8,0.3-1.5,1-2C624.3,396.7,625.2,396.4,626.3,396.4z M624.5,405c0,0.4,0.2,0.8,0.5,1s0.7,0.4,1.3,0.4c0.6,0,1-0.1,1.3-0.4
				s0.4-0.6,0.4-1c0-0.3-0.1-0.7-0.4-1c-0.3-0.3-0.8-0.6-1.4-1C625.1,403.5,624.5,404.2,624.5,405z M626.3,398.2
				c-0.4,0-0.7,0.1-1,0.3c-0.3,0.2-0.4,0.5-0.4,0.8c0,0.3,0.1,0.6,0.3,0.8c0.2,0.2,0.6,0.5,1.1,0.8c0.5-0.2,0.9-0.5,1.1-0.7
				s0.3-0.5,0.3-0.9c0-0.4-0.1-0.6-0.4-0.9C627,398.3,626.7,398.2,626.3,398.2z"/>
			<path class="st1" d="M631.4,406.9c0-0.4,0.1-0.8,0.4-1s0.6-0.3,1-0.3c0.4,0,0.8,0.1,1,0.3c0.2,0.2,0.4,0.6,0.4,1
				c0,0.4-0.1,0.7-0.4,1c-0.2,0.2-0.6,0.4-1,0.4c-0.4,0-0.8-0.1-1-0.3C631.5,407.6,631.4,407.3,631.4,406.9z"/>
			<path class="st1" d="M639.4,400.7c1.1,0,2,0.3,2.6,0.9c0.7,0.6,1,1.5,1,2.5c0,1.3-0.4,2.3-1.2,2.9c-0.8,0.7-1.9,1-3.4,1
				c-1.3,0-2.3-0.2-3.1-0.6v-2.1c0.4,0.2,0.9,0.4,1.4,0.5s1.1,0.2,1.6,0.2c1.5,0,2.2-0.6,2.2-1.8c0-1.2-0.8-1.7-2.3-1.7
				c-0.3,0-0.6,0-0.9,0.1c-0.3,0.1-0.6,0.1-0.8,0.2l-1-0.5l0.4-5.8h6.2v2h-4.1l-0.2,2.2l0.3-0.1
				C638.5,400.7,638.9,400.7,639.4,400.7z"/>
			<path class="st1" d="M651.5,399.1c0,0.7-0.2,1.3-0.6,1.8c-0.4,0.5-1,0.8-1.8,1v0c0.9,0.1,1.6,0.4,2.1,0.8c0.5,0.4,0.7,1,0.7,1.8
				c0,1.1-0.4,2-1.2,2.6s-1.9,0.9-3.4,0.9c-1.2,0-2.3-0.2-3.3-0.6v-2.1c0.4,0.2,0.9,0.4,1.5,0.5s1.1,0.2,1.6,0.2
				c0.8,0,1.4-0.1,1.8-0.4c0.4-0.3,0.6-0.7,0.6-1.3c0-0.5-0.2-0.9-0.7-1.1s-1.1-0.3-2.1-0.3h-0.9v-1.9h0.9c0.9,0,1.5-0.1,1.9-0.3
				c0.4-0.2,0.6-0.6,0.6-1.2c0-0.9-0.5-1.3-1.6-1.3c-0.4,0-0.8,0.1-1.1,0.2c-0.4,0.1-0.8,0.3-1.3,0.6l-1.1-1.7
				c1-0.8,2.3-1.1,3.7-1.1c1.2,0,2.1,0.2,2.8,0.7C651.2,397.6,651.5,398.3,651.5,399.1z"/>
			<path class="st1" d="M652.6,403.1c0-2.3,0.5-3.9,1.4-5c1-1.1,2.4-1.7,4.3-1.7c0.7,0,1.2,0,1.5,0.1v1.9c-0.5-0.1-0.9-0.2-1.4-0.2
				c-0.8,0-1.5,0.1-2,0.4s-0.9,0.6-1.2,1.1c-0.3,0.5-0.4,1.2-0.5,2.1h0.1c0.5-0.9,1.3-1.3,2.5-1.3c1,0,1.8,0.3,2.4,1
				s0.9,1.5,0.9,2.7c0,1.2-0.3,2.2-1,2.9s-1.6,1.1-2.9,1.1c-0.8,0-1.6-0.2-2.2-0.6c-0.6-0.4-1.1-1-1.5-1.7
				C652.8,405.1,652.6,404.2,652.6,403.1z M656.8,406.2c0.5,0,0.9-0.2,1.2-0.5c0.3-0.3,0.4-0.8,0.4-1.5c0-0.6-0.1-1-0.4-1.3
				s-0.6-0.5-1.2-0.5c-0.5,0-0.9,0.2-1.3,0.5c-0.3,0.3-0.5,0.7-0.5,1.1c0,0.6,0.2,1.1,0.5,1.6C655.9,406,656.3,406.2,656.8,406.2z"
				/>
		</g>
	</g>
	<g>
		<path class="st1" d="M198.9,459h-2.7v-10.6h-3.5v-2.3h9.7v2.3h-3.5V459z"/>
		<path class="st1" d="M215.6,452.5c0,2.1-0.5,3.8-1.6,4.9s-2.6,1.7-4.5,1.7s-3.5-0.6-4.5-1.7s-1.6-2.8-1.6-4.9s0.5-3.8,1.6-4.9
			c1.1-1.1,2.6-1.7,4.5-1.7s3.5,0.6,4.5,1.7C215,448.8,215.6,450.4,215.6,452.5z M206.2,452.5c0,1.4,0.3,2.5,0.8,3.2
			s1.4,1.1,2.4,1.1c2.2,0,3.3-1.4,3.3-4.3c0-2.9-1.1-4.3-3.2-4.3c-1.1,0-1.9,0.4-2.5,1.1C206.5,450,206.2,451.1,206.2,452.5z"/>
		<path class="st1" d="M222.7,459H220v-10.6h-3.5v-2.3h9.7v2.3h-3.5V459z"/>
		<path class="st1" d="M235.6,459l-0.9-3.1H230l-0.9,3.1h-2.9l4.5-12.9h3.3l4.6,12.9H235.6z M234,453.6c-0.9-2.8-1.3-4.3-1.5-4.7
			c-0.1-0.4-0.2-0.7-0.2-0.9c-0.2,0.8-0.7,2.6-1.7,5.6H234z"/>
		<path class="st1" d="M239.7,459v-12.8h2.7v10.6h5.2v2.2H239.7z"/>
		<path class="st1" d="M253.7,459v-12.8h2.7V459H253.7z"/>
		<path class="st1" d="M270.6,459h-3.5l-5.6-9.7h-0.1c0.1,1.7,0.2,2.9,0.2,3.7v6h-2.4v-12.8h3.4l5.6,9.6h0.1
			c-0.1-1.7-0.1-2.9-0.1-3.5v-6.1h2.5V459z"/>
		<path class="st1" d="M278.2,451.7h5.1v6.7c-0.8,0.3-1.6,0.5-2.3,0.6c-0.7,0.1-1.5,0.2-2.2,0.2c-1.9,0-3.4-0.6-4.4-1.7
			c-1-1.1-1.5-2.8-1.5-4.9c0-2.1,0.6-3.7,1.8-4.9c1.2-1.2,2.8-1.7,4.9-1.7c1.3,0,2.6,0.3,3.8,0.8l-0.9,2.2c-0.9-0.5-1.9-0.7-2.9-0.7
			c-1.2,0-2.1,0.4-2.8,1.2s-1.1,1.9-1.1,3.2c0,1.4,0.3,2.5,0.9,3.2c0.6,0.7,1.4,1.1,2.5,1.1c0.6,0,1.1-0.1,1.7-0.2V454h-2.4V451.7z"
			/>
		<path class="st1" d="M288.7,454v4.9h-2.7v-12.8h3.7c1.7,0,3,0.3,3.9,1c0.8,0.6,1.3,1.6,1.3,2.9c0,0.8-0.2,1.4-0.6,2
			c-0.4,0.6-1,1-1.8,1.4c1.9,2.9,3.2,4.8,3.8,5.6h-3l-3.1-4.9H288.7z M288.7,451.8h0.9c0.9,0,1.5-0.1,1.9-0.4s0.6-0.7,0.6-1.4
			c0-0.6-0.2-1-0.6-1.3c-0.4-0.3-1.1-0.4-1.9-0.4h-0.8V451.8z"/>
		<path class="st1" d="M304.8,459h-7.4v-12.8h7.4v2.2h-4.7v2.8h4.4v2.2h-4.4v3.3h4.7V459z"/>
		<path class="st1" d="M314.6,455.4c0,1.2-0.4,2.1-1.3,2.7c-0.8,0.7-2,1-3.5,1c-1.4,0-2.6-0.3-3.6-0.8v-2.5c0.9,0.4,1.6,0.7,2.2,0.8
			s1.2,0.2,1.6,0.2c0.6,0,1.1-0.1,1.4-0.3s0.5-0.6,0.5-1c0-0.3-0.1-0.5-0.2-0.7c-0.1-0.2-0.3-0.4-0.6-0.6c-0.3-0.2-0.8-0.5-1.7-0.9
			c-0.8-0.4-1.4-0.7-1.8-1.1s-0.7-0.7-0.9-1.2s-0.4-1-0.4-1.6c0-1.1,0.4-2,1.2-2.7s1.8-1,3.2-1c0.7,0,1.3,0.1,1.9,0.2
			c0.6,0.2,1.2,0.4,1.9,0.7l-0.9,2.1c-0.7-0.3-1.3-0.5-1.7-0.6c-0.4-0.1-0.9-0.2-1.3-0.2c-0.5,0-0.9,0.1-1.2,0.4s-0.4,0.6-0.4,0.9
			c0,0.2,0.1,0.5,0.2,0.6c0.1,0.2,0.3,0.4,0.5,0.5c0.2,0.2,0.8,0.5,1.7,0.9c1.2,0.6,2,1.2,2.5,1.7
			C314.4,453.8,314.6,454.6,314.6,455.4z"/>
		<path class="st1" d="M328.1,452.5c0,2.1-0.5,3.8-1.6,4.9s-2.6,1.7-4.5,1.7s-3.5-0.6-4.5-1.7s-1.6-2.8-1.6-4.9s0.5-3.8,1.6-4.9
			c1.1-1.1,2.6-1.7,4.5-1.7s3.5,0.6,4.5,1.7C327.6,448.8,328.1,450.4,328.1,452.5z M318.7,452.5c0,1.4,0.3,2.5,0.8,3.2
			s1.4,1.1,2.4,1.1c2.2,0,3.3-1.4,3.3-4.3c0-2.9-1.1-4.3-3.2-4.3c-1.1,0-1.9,0.4-2.5,1.1C319,450,318.7,451.1,318.7,452.5z"/>
		<path class="st1" d="M337.9,455.4c0,1.2-0.4,2.1-1.3,2.7c-0.8,0.7-2,1-3.5,1c-1.4,0-2.6-0.3-3.6-0.8v-2.5c0.9,0.4,1.6,0.7,2.2,0.8
			s1.2,0.2,1.6,0.2c0.6,0,1.1-0.1,1.4-0.3s0.5-0.6,0.5-1c0-0.3-0.1-0.5-0.2-0.7c-0.1-0.2-0.3-0.4-0.6-0.6c-0.3-0.2-0.8-0.5-1.7-0.9
			c-0.8-0.4-1.4-0.7-1.8-1.1s-0.7-0.7-0.9-1.2s-0.4-1-0.4-1.6c0-1.1,0.4-2,1.2-2.7s1.8-1,3.2-1c0.7,0,1.3,0.1,1.9,0.2
			c0.6,0.2,1.2,0.4,1.9,0.7l-0.9,2.1c-0.7-0.3-1.3-0.5-1.7-0.6c-0.4-0.1-0.9-0.2-1.3-0.2c-0.5,0-0.9,0.1-1.2,0.4s-0.4,0.6-0.4,0.9
			c0,0.2,0.1,0.5,0.2,0.6c0.1,0.2,0.3,0.4,0.5,0.5c0.2,0.2,0.8,0.5,1.7,0.9c1.2,0.6,2,1.2,2.5,1.7
			C337.7,453.8,337.9,454.6,337.9,455.4z"/>
		<path class="st1" d="M187.4,479v-12.8h2.7V479H187.4z"/>
		<path class="st1" d="M204.3,479h-3.5l-5.6-9.7h-0.1c0.1,1.7,0.2,2.9,0.2,3.7v6h-2.4v-12.8h3.4l5.6,9.6h0.1
			c-0.1-1.7-0.1-2.9-0.1-3.5v-6.1h2.5V479z"/>
		<path class="st1" d="M209.8,479h-2.7v-12.8h7.4v2.2h-4.7v3.3h4.4v2.2h-4.4V479z"/>
		<path class="st1" d="M228.2,472.5c0,2.1-0.5,3.8-1.6,4.9s-2.6,1.7-4.5,1.7s-3.5-0.6-4.5-1.7s-1.6-2.8-1.6-4.9s0.5-3.8,1.6-4.9
			c1.1-1.1,2.6-1.7,4.5-1.7s3.5,0.6,4.5,1.7C227.6,468.8,228.2,470.4,228.2,472.5z M218.8,472.5c0,1.4,0.3,2.5,0.8,3.2
			s1.4,1.1,2.4,1.1c2.2,0,3.3-1.4,3.3-4.3c0-2.9-1.1-4.3-3.2-4.3c-1.1,0-1.9,0.4-2.5,1.1C219.1,470,218.8,471.1,218.8,472.5z"/>
		<path class="st1" d="M233.1,474v4.9h-2.7v-12.8h3.7c1.7,0,3,0.3,3.9,1c0.8,0.6,1.3,1.6,1.3,2.9c0,0.8-0.2,1.4-0.6,2
			c-0.4,0.6-1,1-1.8,1.4c1.9,2.9,3.2,4.8,3.8,5.6h-3l-3.1-4.9H233.1z M233.1,471.8h0.9c0.9,0,1.5-0.1,1.9-0.4s0.6-0.7,0.6-1.4
			c0-0.6-0.2-1-0.6-1.3c-0.4-0.3-1.1-0.4-1.9-0.4h-0.8V471.8z"/>
		<path class="st1" d="M247.3,479l-3.1-10.1h-0.1c0.1,2.1,0.2,3.4,0.2,4.1v6h-2.4v-12.8h3.7l3,9.8h0.1l3.2-9.8h3.7V479H253v-6.1
			c0-0.3,0-0.6,0-1c0-0.4,0-1.4,0.1-3h-0.1l-3.3,10.1H247.3z"/>
		<path class="st1" d="M265.7,479h-7.4v-12.8h7.4v2.2h-4.7v2.8h4.4v2.2h-4.4v3.3h4.7V479z"/>
		<path class="st1" d="M279.6,479h-7.4v-12.8h7.4v2.2h-4.7v2.8h4.4v2.2h-4.4v3.3h4.7V479z"/>
		<path class="st1" d="M281.8,479v-12.8h2.7V479H281.8z"/>
		<path class="st1" d="M292.3,479h-2.7v-10.6h-3.5v-2.3h9.7v2.3h-3.5V479z"/>
		<path class="st1" d="M297.3,479v-12.8h2.7V479H297.3z"/>
		<path class="st1" d="M315.1,479h-9v-1.9l3.2-3.3c1-1,1.6-1.7,1.9-2c0.3-0.4,0.5-0.7,0.6-1s0.2-0.7,0.2-1c0-0.5-0.1-0.9-0.4-1.2
			c-0.3-0.3-0.7-0.4-1.1-0.4c-0.5,0-1,0.1-1.5,0.3s-1,0.6-1.5,1l-1.5-1.7c0.6-0.5,1.2-0.9,1.6-1.1s0.9-0.4,1.4-0.5s1-0.2,1.7-0.2
			c0.8,0,1.5,0.1,2.1,0.4s1.1,0.7,1.4,1.2s0.5,1.1,0.5,1.8c0,0.6-0.1,1.1-0.3,1.7c-0.2,0.5-0.5,1.1-1,1.6c-0.4,0.5-1.2,1.3-2.3,2.3
			l-1.7,1.6v0.1h5.6V479z"/>
		<path class="st1" d="M324.9,472.5c0,2.2-0.4,3.9-1.1,5s-1.9,1.6-3.4,1.6c-1.5,0-2.6-0.6-3.4-1.7s-1.1-2.8-1.1-4.9
			c0-2.3,0.4-3.9,1.1-5c0.7-1.1,1.9-1.6,3.4-1.6c1.5,0,2.6,0.6,3.4,1.7S324.9,470.4,324.9,472.5z M318.6,472.5
			c0,1.6,0.1,2.7,0.4,3.4c0.3,0.7,0.7,1,1.4,1c0.6,0,1.1-0.3,1.4-1s0.4-1.8,0.4-3.4c0-1.6-0.1-2.7-0.4-3.4c-0.3-0.7-0.7-1-1.4-1
			c-0.6,0-1.1,0.3-1.4,1C318.7,469.8,318.6,471,318.6,472.5z"/>
		<path class="st1" d="M332.5,479h-2.7v-7.4l0-1.2l0-1.3c-0.5,0.5-0.8,0.7-0.9,0.9l-1.5,1.2l-1.3-1.6l4.1-3.3h2.2V479z"/>
		<path class="st1" d="M335.5,473.5c0-2.5,0.5-4.4,1.6-5.7c1.1-1.2,2.7-1.9,4.8-1.9c0.7,0,1.3,0,1.7,0.1v2.2c-0.5-0.1-1-0.2-1.5-0.2
			c-0.9,0-1.7,0.1-2.3,0.4c-0.6,0.3-1,0.7-1.3,1.2s-0.5,1.3-0.5,2.3h0.1c0.6-1,1.5-1.5,2.8-1.5c1.1,0,2,0.4,2.7,1.1s1,1.7,1,3
			c0,1.4-0.4,2.5-1.2,3.3c-0.8,0.8-1.8,1.2-3.2,1.2c-0.9,0-1.8-0.2-2.5-0.7c-0.7-0.4-1.3-1.1-1.6-1.9
			C335.7,475.7,335.5,474.7,335.5,473.5z M340.2,477c0.6,0,1-0.2,1.3-0.6c0.3-0.4,0.5-0.9,0.5-1.7c0-0.6-0.1-1.1-0.4-1.5
			c-0.3-0.4-0.7-0.5-1.3-0.5c-0.6,0-1,0.2-1.4,0.5c-0.4,0.4-0.6,0.8-0.6,1.2c0,0.7,0.2,1.3,0.5,1.8C339.1,476.7,339.6,477,340.2,477
			z"/>
	</g>
	<g>
		<g>
			<path class="st1" d="M429.9,464.3c0,0.8-0.3,1.5-0.9,2c-0.6,0.5-1.4,0.8-2.5,0.9v1.6h-1.1v-1.6c-1.3,0-2.4-0.2-3.3-0.7v-2.1
				c0.5,0.2,1,0.4,1.6,0.6c0.6,0.2,1.2,0.3,1.7,0.3v-2.4l-0.5-0.2c-1-0.4-1.8-0.8-2.2-1.3s-0.6-1.1-0.6-1.8c0-0.8,0.3-1.4,0.9-1.9
				c0.6-0.5,1.4-0.8,2.5-0.9v-1.2h1.1v1.2c1.2,0.1,2.3,0.3,3.2,0.7l-0.7,1.8c-0.8-0.3-1.6-0.5-2.5-0.6v2.3c1,0.4,1.7,0.7,2.2,1
				s0.7,0.6,0.9,0.9C429.8,463.4,429.9,463.8,429.9,464.3z M424.4,459.6c0,0.2,0.1,0.4,0.2,0.6c0.2,0.1,0.4,0.3,0.8,0.5v-1.8
				C424.8,458.9,424.4,459.2,424.4,459.6z M427.6,464.4c0-0.2-0.1-0.4-0.3-0.6c-0.2-0.2-0.4-0.3-0.8-0.5v1.9
				C427.2,465.2,427.6,464.9,427.6,464.4z"/>
			<path class="st1" d="M436.7,467.8h-2.4v-6.6l0-1.1l0-1.2c-0.4,0.4-0.7,0.7-0.8,0.8l-1.3,1.1l-1.2-1.5l3.7-2.9h2V467.8z"/>
			<path class="st1" d="M447.4,462.1c0,2-0.3,3.5-1,4.4c-0.7,1-1.7,1.4-3,1.4c-1.3,0-2.3-0.5-3-1.5c-0.7-1-1-2.5-1-4.4
				c0-2,0.3-3.5,1-4.5c0.7-1,1.7-1.4,3-1.4c1.3,0,2.3,0.5,3,1.5C447.1,458.7,447.4,460.2,447.4,462.1z M441.8,462.1
				c0,1.4,0.1,2.4,0.4,3s0.6,0.9,1.2,0.9c0.6,0,1-0.3,1.2-0.9s0.4-1.6,0.4-3c0-1.4-0.1-2.4-0.4-3c-0.3-0.6-0.7-0.9-1.2-0.9
				c-0.6,0-1,0.3-1.2,0.9C441.9,459.7,441.8,460.7,441.8,462.1z"/>
			<path class="st1" d="M448.5,466.7c0-0.4,0.1-0.8,0.4-1s0.6-0.3,1-0.3c0.4,0,0.8,0.1,1,0.3c0.2,0.2,0.4,0.6,0.4,1
				c0,0.4-0.1,0.7-0.4,1c-0.2,0.2-0.6,0.4-1,0.4c-0.4,0-0.8-0.1-1-0.3C448.6,467.5,448.5,467.1,448.5,466.7z"/>
			<path class="st1" d="M460.6,465.5h-1.4v2.4h-2.4v-2.4H452v-1.7l5-7.4h2.2v7.2h1.4V465.5z M456.9,463.6v-1.9c0-0.3,0-0.8,0-1.4
				c0-0.6,0-1,0.1-1.1h-0.1c-0.2,0.4-0.4,0.8-0.7,1.2l-2.1,3.2H456.9z"/>
			<path class="st1" d="M469,461.3c0,2.2-0.5,3.9-1.4,5c-0.9,1.1-2.4,1.7-4.3,1.7c-0.7,0-1.2,0-1.5-0.1v-1.9
				c0.4,0.1,0.9,0.2,1.4,0.2c0.8,0,1.5-0.1,2-0.4c0.5-0.2,0.9-0.6,1.2-1.1c0.3-0.5,0.4-1.2,0.5-2.1h-0.1c-0.3,0.5-0.7,0.8-1,1
				c-0.4,0.2-0.9,0.3-1.5,0.3c-1,0-1.8-0.3-2.4-1c-0.6-0.6-0.9-1.5-0.9-2.7c0-1.2,0.3-2.2,1-2.9s1.6-1.1,2.8-1.1
				c0.8,0,1.6,0.2,2.2,0.6s1.1,1,1.5,1.7C468.9,459.3,469,460.2,469,461.3z M464.9,458.2c-0.5,0-0.9,0.2-1.2,0.5s-0.4,0.8-0.4,1.5
				c0,0.6,0.1,1,0.4,1.3c0.3,0.3,0.6,0.5,1.2,0.5c0.5,0,0.9-0.2,1.3-0.5c0.3-0.3,0.5-0.7,0.5-1.1c0-0.6-0.2-1.1-0.5-1.6
				C465.8,458.4,465.4,458.2,464.9,458.2z"/>
			<path class="st1" d="M477.8,461.3c0,2.2-0.5,3.9-1.4,5c-0.9,1.1-2.4,1.7-4.3,1.7c-0.7,0-1.2,0-1.5-0.1v-1.9
				c0.4,0.1,0.9,0.2,1.4,0.2c0.8,0,1.5-0.1,2-0.4c0.5-0.2,0.9-0.6,1.2-1.1c0.3-0.5,0.4-1.2,0.5-2.1h-0.1c-0.3,0.5-0.7,0.8-1,1
				c-0.4,0.2-0.9,0.3-1.5,0.3c-1,0-1.8-0.3-2.4-1c-0.6-0.6-0.9-1.5-0.9-2.7c0-1.2,0.3-2.2,1-2.9s1.6-1.1,2.8-1.1
				c0.8,0,1.6,0.2,2.2,0.6s1.1,1,1.5,1.7C477.6,459.3,477.8,460.2,477.8,461.3z M473.6,458.2c-0.5,0-0.9,0.2-1.2,0.5
				s-0.4,0.8-0.4,1.5c0,0.6,0.1,1,0.4,1.3c0.3,0.3,0.6,0.5,1.2,0.5c0.5,0,0.9-0.2,1.3-0.5c0.3-0.3,0.5-0.7,0.5-1.1
				c0-0.6-0.2-1.1-0.5-1.6C474.6,458.4,474.2,458.2,473.6,458.2z"/>
			<path class="st1" d="M478.9,466.7c0-0.4,0.1-0.8,0.4-1s0.6-0.3,1-0.3c0.4,0,0.8,0.1,1,0.3c0.2,0.2,0.4,0.6,0.4,1
				c0,0.4-0.1,0.7-0.4,1c-0.2,0.2-0.6,0.4-1,0.4c-0.4,0-0.8-0.1-1-0.3C479,467.5,478.9,467.1,478.9,466.7z"/>
			<path class="st1" d="M490.7,467.8h-8v-1.7l2.9-2.9c0.8-0.9,1.4-1.5,1.7-1.8c0.3-0.3,0.4-0.6,0.6-0.9c0.1-0.3,0.2-0.6,0.2-0.9
				c0-0.5-0.1-0.8-0.4-1c-0.3-0.2-0.6-0.3-1-0.3c-0.4,0-0.9,0.1-1.3,0.3c-0.4,0.2-0.9,0.5-1.3,0.9l-1.3-1.6c0.6-0.5,1-0.8,1.4-1
				c0.4-0.2,0.8-0.4,1.2-0.5s0.9-0.2,1.5-0.2c0.7,0,1.3,0.1,1.9,0.4s1,0.6,1.3,1.1c0.3,0.5,0.5,1,0.5,1.6c0,0.5-0.1,1-0.3,1.5
				c-0.2,0.5-0.5,0.9-0.9,1.4c-0.4,0.5-1.1,1.2-2.1,2.1l-1.5,1.4v0.1h5V467.8z"/>
			<path class="st1" d="M499.5,467.8h-8v-1.7l2.9-2.9c0.8-0.9,1.4-1.5,1.7-1.8c0.3-0.3,0.4-0.6,0.6-0.9c0.1-0.3,0.2-0.6,0.2-0.9
				c0-0.5-0.1-0.8-0.4-1c-0.3-0.2-0.6-0.3-1-0.3c-0.4,0-0.9,0.1-1.3,0.3c-0.4,0.2-0.9,0.5-1.3,0.9l-1.3-1.6c0.6-0.5,1-0.8,1.4-1
				c0.4-0.2,0.8-0.4,1.2-0.5s0.9-0.2,1.5-0.2c0.7,0,1.3,0.1,1.9,0.4s1,0.6,1.3,1.1c0.3,0.5,0.5,1,0.5,1.6c0,0.5-0.1,1-0.3,1.5
				c-0.2,0.5-0.5,0.9-0.9,1.4c-0.4,0.5-1.1,1.2-2.1,2.1l-1.5,1.4v0.1h5V467.8z"/>
			<path class="st1" d="M508.2,467.8h-8v-1.7l2.9-2.9c0.8-0.9,1.4-1.5,1.7-1.8c0.3-0.3,0.4-0.6,0.6-0.9c0.1-0.3,0.2-0.6,0.2-0.9
				c0-0.5-0.1-0.8-0.4-1c-0.3-0.2-0.6-0.3-1-0.3c-0.4,0-0.9,0.1-1.3,0.3c-0.4,0.2-0.9,0.5-1.3,0.9l-1.3-1.6c0.6-0.5,1-0.8,1.4-1
				c0.4-0.2,0.8-0.4,1.2-0.5s0.9-0.2,1.5-0.2c0.7,0,1.3,0.1,1.9,0.4s1,0.6,1.3,1.1c0.3,0.5,0.5,1,0.5,1.6c0,0.5-0.1,1-0.3,1.5
				c-0.2,0.5-0.5,0.9-0.9,1.4c-0.4,0.5-1.1,1.2-2.1,2.1l-1.5,1.4v0.1h5V467.8z"/>
		</g>
	</g>
	<g>
		<g>
			<path class="st1" d="M604.1,464.3c0,0.8-0.3,1.5-0.9,2c-0.6,0.5-1.4,0.8-2.5,0.9v1.6h-1.1v-1.6c-1.3,0-2.4-0.2-3.3-0.7v-2.1
				c0.5,0.2,1,0.4,1.6,0.6c0.6,0.2,1.2,0.3,1.7,0.3v-2.4l-0.5-0.2c-1-0.4-1.8-0.8-2.2-1.3s-0.6-1.1-0.6-1.8c0-0.8,0.3-1.4,0.9-1.9
				c0.6-0.5,1.4-0.8,2.5-0.9v-1.2h1.1v1.2c1.2,0.1,2.3,0.3,3.2,0.7l-0.7,1.8c-0.8-0.3-1.6-0.5-2.5-0.6v2.3c1,0.4,1.7,0.7,2.2,1
				s0.7,0.6,0.9,0.9C604,463.4,604.1,463.8,604.1,464.3z M598.6,459.6c0,0.2,0.1,0.4,0.2,0.6c0.2,0.1,0.4,0.3,0.8,0.5v-1.8
				C598.9,458.9,598.6,459.2,598.6,459.6z M601.7,464.4c0-0.2-0.1-0.4-0.3-0.6c-0.2-0.2-0.4-0.3-0.8-0.5v1.9
				C601.3,465.2,601.7,464.9,601.7,464.4z"/>
			<path class="st1" d="M612.9,467.8h-8v-1.7l2.9-2.9c0.8-0.9,1.4-1.5,1.7-1.8c0.3-0.3,0.4-0.6,0.6-0.9c0.1-0.3,0.2-0.6,0.2-0.9
				c0-0.5-0.1-0.8-0.4-1c-0.3-0.2-0.6-0.3-1-0.3c-0.4,0-0.9,0.1-1.3,0.3c-0.4,0.2-0.9,0.5-1.3,0.9l-1.3-1.6c0.6-0.5,1-0.8,1.4-1
				c0.4-0.2,0.8-0.4,1.2-0.5s0.9-0.2,1.5-0.2c0.7,0,1.3,0.1,1.9,0.4s1,0.6,1.3,1.1c0.3,0.5,0.5,1,0.5,1.6c0,0.5-0.1,1-0.3,1.5
				c-0.2,0.5-0.5,0.9-0.9,1.4c-0.4,0.5-1.1,1.2-2.1,2.1l-1.5,1.4v0.1h5V467.8z"/>
			<path class="st1" d="M619.6,467.8h-2.4v-6.6l0-1.1l0-1.2c-0.4,0.4-0.7,0.7-0.8,0.8l-1.3,1.1l-1.2-1.5l3.7-2.9h2V467.8z"/>
			<path class="st1" d="M628.3,467.8h-2.4v-6.6l0-1.1l0-1.2c-0.4,0.4-0.7,0.7-0.8,0.8l-1.3,1.1l-1.2-1.5l3.7-2.9h2V467.8z"/>
			<path class="st1" d="M631.4,466.7c0-0.4,0.1-0.8,0.4-1s0.6-0.3,1-0.3c0.4,0,0.8,0.1,1,0.3c0.2,0.2,0.4,0.6,0.4,1
				c0,0.4-0.1,0.7-0.4,1c-0.2,0.2-0.6,0.4-1,0.4c-0.4,0-0.8-0.1-1-0.3C631.5,467.5,631.4,467.1,631.4,466.7z"/>
			<path class="st1" d="M643.2,462.1c0,2-0.3,3.5-1,4.4c-0.7,1-1.7,1.4-3,1.4c-1.3,0-2.3-0.5-3-1.5c-0.7-1-1-2.5-1-4.4
				c0-2,0.3-3.5,1-4.5c0.7-1,1.7-1.4,3-1.4c1.3,0,2.3,0.5,3,1.5C642.8,458.7,643.2,460.2,643.2,462.1z M637.6,462.1
				c0,1.4,0.1,2.4,0.4,3s0.7,0.9,1.2,0.9c0.6,0,1-0.3,1.2-0.9s0.4-1.6,0.4-3c0-1.4-0.1-2.4-0.4-3c-0.3-0.6-0.7-0.9-1.2-0.9
				c-0.6,0-1,0.3-1.2,0.9C637.7,459.7,637.6,460.7,637.6,462.1z"/>
			<path class="st1" d="M651.5,459c0,0.7-0.2,1.3-0.6,1.8c-0.4,0.5-1,0.8-1.8,1v0c0.9,0.1,1.6,0.4,2.1,0.8c0.5,0.4,0.7,1,0.7,1.8
				c0,1.1-0.4,2-1.2,2.6s-1.9,0.9-3.4,0.9c-1.2,0-2.3-0.2-3.3-0.6v-2.1c0.4,0.2,0.9,0.4,1.5,0.5s1.1,0.2,1.6,0.2
				c0.8,0,1.4-0.1,1.8-0.4c0.4-0.3,0.6-0.7,0.6-1.3c0-0.5-0.2-0.9-0.7-1.1s-1.1-0.3-2.1-0.3h-0.9V461h0.9c0.9,0,1.5-0.1,1.9-0.3
				c0.4-0.2,0.6-0.6,0.6-1.2c0-0.9-0.5-1.3-1.6-1.3c-0.4,0-0.8,0.1-1.1,0.2c-0.4,0.1-0.8,0.3-1.3,0.6l-1.1-1.7
				c1-0.8,2.3-1.1,3.7-1.1c1.2,0,2.1,0.2,2.8,0.7C651.2,457.4,651.5,458.1,651.5,459z"/>
			<path class="st1" d="M660.7,467.8h-8v-1.7l2.9-2.9c0.8-0.9,1.4-1.5,1.7-1.8c0.3-0.3,0.4-0.6,0.6-0.9c0.1-0.3,0.2-0.6,0.2-0.9
				c0-0.5-0.1-0.8-0.4-1c-0.3-0.2-0.6-0.3-1-0.3c-0.4,0-0.9,0.1-1.3,0.3c-0.4,0.2-0.9,0.5-1.3,0.9l-1.3-1.6c0.6-0.5,1-0.8,1.4-1
				c0.4-0.2,0.8-0.4,1.2-0.5s0.9-0.2,1.5-0.2c0.7,0,1.3,0.1,1.9,0.4s1,0.6,1.3,1.1c0.3,0.5,0.5,1,0.5,1.6c0,0.5-0.1,1-0.3,1.5
				c-0.2,0.5-0.5,0.9-0.9,1.4c-0.4,0.5-1.1,1.2-2.1,2.1l-1.5,1.4v0.1h5V467.8z"/>
		</g>
	</g>
	<path class="st2" d="M700.2,143.5V69.7c0-4.3-2.3-8.2-6-10.4l-63-36.8c-3.7-2.2-8.4-2.2-12.1,0l-63,36.8c-3.7,2.2-6,6.1-6,10.4
		v73.8c0,4.3,2.3,8.2,6,10.4l63,36.8c3.7,2.2,8.4,2.2,12.1,0l63-36.8C697.9,151.7,700.2,147.8,700.2,143.5z"/>
	<g>
		<g>
			<path class="st3" d="M641.4,102.9c-0.8,0-1.5,0.7-1.5,1.5c0,0.8,0.7,1.5,1.5,1.5c0.8,0,1.5-0.7,1.5-1.5
				C643,103.6,642.3,102.9,641.4,102.9z"/>
			<path class="st3" d="M608.9,102.9c-0.8,0-1.5,0.7-1.5,1.5c0,0.8,0.7,1.5,1.5,1.5s1.5-0.7,1.5-1.5
				C610.4,103.6,609.7,102.9,608.9,102.9z"/>
			<path class="st3" d="M602.8,81.4c-0.8,0-1.5,0.7-1.5,1.5c0,0.8,0.7,1.5,1.5,1.5c0.8,0,1.5-0.7,1.5-1.5
				C604.3,82.1,603.6,81.4,602.8,81.4z"/>
			<path class="st3" d="M648.8,81.4h-39.9c-0.8,0-1.5,0.7-1.5,1.5s0.7,1.5,1.5,1.5h39.9c0.8,0,1.5-0.7,1.5-1.5
				S649.7,81.4,648.8,81.4z"/>
			<path class="st3" d="M662.9,66h-6.4l-16.7-16.7c-3-3-7.9-3-10.9,0l-3.8,3.8l-3.8-3.8c-3-3-7.9-3-10.9,0L593.8,66h-6.4
				c-0.8,0-1.5,0.7-1.5,1.5v6.1c0,2.1,1.4,3.9,3.3,4.4l5.4,24.2c0.5,2.1,2.3,3.6,4.5,3.6h2.3c0.7,3.5,3.8,6.1,7.5,6.1
				s6.8-2.6,7.5-6.1h17.5c0.7,3.5,3.8,6.1,7.5,6.1c3.7,0,6.8-2.6,7.5-6.1h2.3c2.2,0,4-1.5,4.5-3.6l5.4-24.2c1.9-0.6,3.3-2.3,3.3-4.4
				v-6.1C664.5,66.7,663.8,66,662.9,66z M631.1,51.5c1.8-1.8,4.7-1.8,6.5,0L652.2,66h-14.1l-10.7-10.7L631.1,51.5z M612.7,51.5
				c1.8-1.8,4.7-1.8,6.5,0L633.7,66h-35.6L612.7,51.5z M588.9,69.1h72.5v4.6c0,0.8-0.7,1.5-1.5,1.5h-69.4c-0.8,0-1.5-0.7-1.5-1.5
				V69.1z M608.9,109c-2.5,0-4.6-2.1-4.6-4.6s2.1-4.6,4.6-4.6s4.6,2.1,4.6,4.6S611.4,109,608.9,109z M641.4,109
				c-2.5,0-4.6-2.1-4.6-4.6s2.1-4.6,4.6-4.6s4.6,2.1,4.6,4.6S644,109,641.4,109z M652.8,101.7c-0.2,0.7-0.8,1.2-1.5,1.2H649
				c-0.7-3.5-3.8-6.1-7.5-6.1c-3.7,0-6.8,2.6-7.5,6.1h-17.5c-0.7-3.5-3.8-6.1-7.5-6.1s-6.8,2.6-7.5,6.1h-2.3c-0.7,0-1.3-0.5-1.5-1.2
				l-5.2-23.4h65.6L652.8,101.7z"/>
		</g>
		<path class="st7" d="M631.1,51.2c1.8-1.8,4.7-1.8,6.5,0l14.5,14.5h-14.1l-10.7-10.7L631.1,51.2z"/>
		<path class="st7" d="M612.7,51.2c1.8-1.8,4.7-1.8,6.5,0l14.5,14.5h-35.6L612.7,51.2z"/>
	</g>
	<g>
		<path class="st1" d="M595.2,143.6c-1,0-1.8,0.4-2.4,1.2c-0.6,0.8-0.8,1.8-0.8,3.2c0,2.9,1.1,4.3,3.2,4.3c0.9,0,2-0.2,3.3-0.7v2.3
			c-1.1,0.4-2.2,0.7-3.5,0.7c-1.9,0-3.3-0.6-4.3-1.7c-1-1.1-1.5-2.8-1.5-4.9c0-1.3,0.2-2.5,0.7-3.5s1.2-1.8,2.1-2.3
			c0.9-0.5,2-0.8,3.2-0.8c1.2,0,2.5,0.3,3.8,0.9l-0.9,2.2c-0.5-0.2-1-0.4-1.5-0.6S595.6,143.6,595.2,143.6z"/>
		<path class="st1" d="M608.6,154.4l-0.9-3.1H603l-0.9,3.1h-2.9l4.5-12.9h3.3l4.6,12.9H608.6z M607,149c-0.9-2.8-1.3-4.3-1.5-4.7
			c-0.1-0.4-0.2-0.7-0.2-0.9c-0.2,0.8-0.7,2.6-1.7,5.6H607z"/>
		<path class="st1" d="M615.4,149.4v4.9h-2.7v-12.8h3.7c1.7,0,3,0.3,3.9,1c0.8,0.6,1.3,1.6,1.3,2.9c0,0.8-0.2,1.4-0.6,2
			c-0.4,0.6-1,1-1.8,1.4c1.9,2.9,3.2,4.8,3.8,5.6h-3l-3.1-4.9H615.4z M615.4,147.2h0.9c0.9,0,1.5-0.1,1.9-0.4s0.6-0.7,0.6-1.4
			c0-0.6-0.2-1-0.6-1.3c-0.4-0.3-1.1-0.4-1.9-0.4h-0.8V147.2z"/>
		<path class="st1" d="M624.1,141.5h4c1.8,0,3.1,0.3,4,0.8c0.8,0.5,1.2,1.3,1.2,2.5c0,0.8-0.2,1.4-0.5,1.9c-0.4,0.5-0.8,0.8-1.4,0.9
			v0.1c0.8,0.2,1.4,0.5,1.8,1c0.4,0.5,0.5,1.2,0.5,2c0,1.2-0.4,2.1-1.3,2.7c-0.8,0.7-2,1-3.5,1h-4.8V141.5z M626.9,146.6h1.6
			c0.7,0,1.3-0.1,1.6-0.3s0.5-0.6,0.5-1.1c0-0.5-0.2-0.8-0.5-1.1c-0.4-0.2-0.9-0.3-1.7-0.3h-1.4V146.6z M626.9,148.8v3.3h1.8
			c0.8,0,1.3-0.1,1.7-0.4s0.5-0.7,0.5-1.3c0-1.1-0.8-1.6-2.3-1.6H626.9z"/>
		<path class="st1" d="M647.4,147.9c0,2.1-0.5,3.8-1.6,4.9s-2.6,1.7-4.5,1.7s-3.5-0.6-4.5-1.7s-1.6-2.8-1.6-4.9s0.5-3.8,1.6-4.9
			c1.1-1.1,2.6-1.7,4.5-1.7s3.5,0.6,4.5,1.7C646.9,144.2,647.4,145.8,647.4,147.9z M638.1,147.9c0,1.4,0.3,2.5,0.8,3.2
			s1.4,1.1,2.4,1.1c2.2,0,3.3-1.4,3.3-4.3c0-2.9-1.1-4.3-3.2-4.3c-1.1,0-1.9,0.4-2.5,1.1C638.3,145.4,638.1,146.5,638.1,147.9z
			 M640,140.5v-0.2c1-1.2,1.7-2.1,2.1-2.6h3v0.2c-0.3,0.3-0.8,0.8-1.6,1.4c-0.7,0.6-1.3,1-1.7,1.3H640z"/>
		<path class="st1" d="M661.1,154.4h-3.5l-5.6-9.7h-0.1c0.1,1.7,0.2,2.9,0.2,3.7v6h-2.4v-12.8h3.4l5.6,9.6h0.1
			c-0.1-1.7-0.1-2.9-0.1-3.5v-6.1h2.5V154.4z"/>
	</g>
	<line class="st8" x1="127.6" y1="252.2" x2="822.6" y2="252.2"/>
	<line class="st8" x1="127.6" y1="312.2" x2="822.6" y2="312.2"/>
	<line class="st8" x1="127.6" y1="372.2" x2="822.6" y2="372.2"/>
</g>
</svg>
